<svg xmlns="http://www.w3.org/2000/svg" width="353.34" height="135.98" viewBox="0 0 353.34 135.98">
  <defs>
    <style>
      .a {
        fill: #172c88;
      }

      .b {
        fill: #fff;
      }
    </style>
  </defs>
  <title>footer_tel</title>
  <path class="a" d="M91.42,15.12v-2.6H89v2.6H83.89v2.27H89v2.94c-2,.79-5.57,2.25-5.57,6,0,2.36,1.65,4.39,4.89,4.39,2,0,3.06-.81,3.06-2.53V22a19.86,19.86,0,0,1,2.88-.24C98,21.72,99,23.79,99,25.4c0,3.39-3.92,3.48-5.68,3.5l.38,2.21a12.5,12.5,0,0,0,4.16-.62,5.18,5.18,0,0,0,3.76-5.09c0-2.32-1.21-5.82-7.5-5.82a14.51,14.51,0,0,0-2.71.22V17.39h5.09V15.12ZM89.06,27.67c0,.31,0,.68-.88.68a2.23,2.23,0,0,1-2.39-2.06s0-.08,0-.12c0-2.07,2.07-3,3.28-3.57v5.07Zm7.27-13.85a17.19,17.19,0,0,1,4.11,5.8l2.16-1.3a15.65,15.65,0,0,0-4.38-5.75ZM123.7,28.15V21.36H106.25v7.28h7.61v1.92c0,1.43,1,1.5,2.12,1.5h7.59c1.65,0,1.78-1.7,1.91-3.4Zm-2.2-1.21H116v-1.3h5.46Zm-7.64,0h-5.45v-1.3h5.45Zm0-2.73h-5.37V23h5.37Zm7.64,0H116V23h5.46Zm-4.93,5.84c-.5,0-.53-.11-.53-.62v-.79h7.29c-.09,1.32-.22,1.41-.86,1.41Zm7.26-17.81h-17.6v1.83h7.68V15h-8.74v4.74h2.26V16.56h6.48v4.27H116V16.56h6.53v3.13h2.34V15H116v-.88h7.85V12.24ZM108.54,19.4v1.17H113V19.4Zm8.5,0v1.17h4.51V19.4Zm-8.5-2v1.12H113V17.44Zm8.5,0v1.12h4.51V17.44Zm26.27-3.2a31,31,0,0,0,4.14-.84l-.9-2A50.43,50.43,0,0,1,136,12.68l.37,2.11c1.83,0,2.87-.11,4.76-.28v2.84h-4.93v2.16h4.93v3.11h-4v9.17h10.1V22.62h-3.85V19.51H148V17.35h-4.73ZM145,29.74h-5.74v-5H145ZM128.14,12v2h7V12Zm0,13v6.76h7V25.05Zm4.78,4.87h-2.6v-3h2.6Zm-5.5-14.66v2h8.45v-2Zm.73,3.21v2h6.95v-2Zm0,3.27v2h6.95v-2Zm34.77-2.25a18.35,18.35,0,0,1,2.33,4.23l1.67-1a21,21,0,0,0-2.44-4.17Zm3.16-1.43a18.54,18.54,0,0,1,2.36,4.21l1.67-1a19.42,19.42,0,0,0-2.46-4.14ZM169,13.54c-3.81.06-6.21.11-9.58.26-1.25.07-7.28.42-8.89.44l.18,2.67c2-.24,7.68-.64,10-.79-1.94,1.19-5.9,4-5.9,8.22,0,6.33,7.44,6.57,11.89,6.7l.44-2.64a27.68,27.68,0,0,1-5.46-.33c-2.14-.4-4.32-1.13-4.32-3.88,0-3.6,4.1-7,7.22-8a6.62,6.62,0,0,1,2.34-.27c.59,0,1.27.05,2.11.09Zm14,17.52c1.56-.15,9-.9,9-9.23,0-4.15-2.29-8.74-9.13-8.74-5.66,0-10.24,3.71-10.24,9.9,0,3.4,1.63,6.33,4.19,6.33,3,0,6-4.08,6.64-13.89,4.93.24,5.94,3.88,5.94,6.33,0,5.91-4.9,6.7-7.24,6.92ZM181,15.54c-.26,3.31-.68,6.68-2.18,9.42-.52,1-1.14,1.72-2,1.72-1.43,0-1.89-2.34-1.89-3.62a7.24,7.24,0,0,1,6-7.52Zm21.66-.42v-2.6h-2.37v2.6h-5.15v2.27h5.15v2.94c-2,.79-5.57,2.25-5.57,6,0,2.36,1.65,4.39,4.88,4.39,2,0,3.06-.81,3.06-2.53V22a20,20,0,0,1,2.89-.24c3.67,0,4.71,2.07,4.71,3.68,0,3.39-3.92,3.48-5.68,3.5l.37,2.21a12.5,12.5,0,0,0,4.16-.62,5.18,5.18,0,0,0,3.77-5.09c0-2.32-1.22-5.82-7.51-5.82a14.51,14.51,0,0,0-2.71.22V17.39h5.09V15.12Zm-2.35,12.55c0,.31,0,.68-.88.68A2.24,2.24,0,0,1,197,26.3v-.13c0-2.07,2.07-3,3.28-3.57v5.07Zm7.26-13.85a17.36,17.36,0,0,1,4.12,5.8l2.15-1.3a15.44,15.44,0,0,0-4.38-5.75Zm25.91,15.7a.45.45,0,0,1-.33.55h-2.89l.27,2.21H234c.73,0,1.67-.05,1.67-1.9V12.46h-8.6v8.4h6.38v8.66Zm0-15.26v1.59h-4.25V14.26Zm0,3.09v1.72h-4.25V17.35Zm-12.28,5.16V30h9.68V22.51Zm7.59,1.9V28h-5.5V24.41Zm-12.28,7.87h2.16V20.86h6.25v-8.4h-8.41V32.28Zm6.25-18v1.59h-4.05V14.26Zm0,3.09v1.72h-4.05V17.35Zm17-3.9c-.17,2-.37,4.36-.37,6.52,0,4.94.81,10.65,4.71,10.65a3.49,3.49,0,0,0,2.53-1.08,13.86,13.86,0,0,0,3-5.18l-2-1.19a14.24,14.24,0,0,1-1.74,3.57,2.07,2.07,0,0,1-1.58,1.08c-2.23,0-2.43-4.72-2.43-7.58a43.61,43.61,0,0,1,.53-6.55Zm18,15c0-8.09-1.16-11.25-4.64-14.33l-1.94,1.39c4,3.3,3.94,9.15,3.9,13.05Zm23-10.76c-5.32-2.14-7.5-4-9.46-6.11H269.1a22.51,22.51,0,0,1-9.44,6.11L261,20a23.49,23.49,0,0,0,3.5-1.78V20H276V18.21A27.72,27.72,0,0,0,279.36,20Zm-15.71.2a21.47,21.47,0,0,0,5.13-4.37,22.81,22.81,0,0,0,5.32,4.37ZM262,22.18v9.61h16.4V22.18ZM276,29.72H264.26V24.25H276v5.47Zm10.64-11.64,0,1.92a19.18,19.18,0,0,1-3.95,5.38l1.24,2.47a15.33,15.33,0,0,0,2.68-3.71l-.06,7H289c0-7.43,0-8.12,0-9.95,1.3-1.21,3.46-3,6.05-3,3.37,0,4.25,2.47,4.25,4.5,0,5.44-5.17,5.57-7.46,5.64l.73,2.32c4.27-.2,9.24-1.68,9.24-8,0-3.84-2.49-6.68-6.25-6.68-3.06,0-4.78,1.32-6.51,2.69,0-1.68,0-2.25.11-6.09h-2.47l0,3.22h-3.32V18.1ZM310.28,17l0-4.3h-2.44V17l-3.3.09,0,2.29,3.28-.06,0,5.44c0,6.07,3.3,6.07,9,6.07,1.87,0,2.88,0,5-.14l0-2.4a57.4,57.4,0,0,1-6.29.22c-4.16,0-5.29-.13-5.26-3.62l0-5.64,7.35-.15c0,4.27,0,4.67-1.32,4.67a12,12,0,0,1-2.53-.29l0,2.25a14.7,14.7,0,0,0,2.81.27c3.63,0,3.61-2.12,3.55-7l3.61-.09,0-2.29-3.61.09c0-.64,0-3.69-.06-4.37l-2.53,0c.06,1.41.09,1.72.13,4.39Z" transform="translate(-0.01)"/>
  <path class="a" d="M14,106a12.5,12.5,0,0,0,10.9-5.91C27.2,96.45,28,91.5,28,85.88c0-3.37-.28-9.71-3.15-14.23A13,13,0,0,0,3.21,71.6c-2,3-3.2,7.45-3.2,14.28,0,2.83.14,9.51,3.1,14.12A12.41,12.41,0,0,0,14,106Zm0-7.45c-4.3,0-5.93-4.8-5.93-12.63,0-7.12,1.39-12.64,5.93-12.64,4.25,0,5.93,4.8,5.93,12.64C19.94,93.08,18.55,98.51,14,98.51Zm19.84-26,1,7.49,6.78-4.75v29.93h8.08V66.56H42.54ZM74.92,97.74c7.88-8.93,11.37-13.35,11.37-19.65,0-8.17-6.07-12.3-12.9-12.3a15.7,15.7,0,0,0-12.91,6.44L64,79.87c1.19-2,4-6.58,9.27-6.58a4.72,4.72,0,0,1,4.93,4.5,4,4,0,0,1,0,.49c0,3.22-1.82,7.26-20.18,26.91H87.83V97.74H74.92ZM106.5,106a12.49,12.49,0,0,0,10.9-5.91c2.3-3.6,3.11-8.55,3.11-14.17,0-3.37-.29-9.71-3.16-14.23A13,13,0,0,0,95.7,71.6c-2,3-3.2,7.45-3.2,14.28,0,2.83.14,9.51,3.11,14.12A12.39,12.39,0,0,0,106.5,106Zm0-7.45c-4.3,0-5.92-4.8-5.92-12.63,0-7.12,1.38-12.64,5.92-12.64,4.26,0,5.93,4.8,5.93,12.64C112.43,93.08,111,98.51,106.5,98.51Zm20.18-11.34v7.26h14V87.17ZM148.31,105a19.28,19.28,0,0,0,6.21,1c12.19,0,18.36-9.71,18.36-22.15,0-16.48-10.9-18-14.58-18A13.52,13.52,0,0,0,144.44,79c0,.2,0,.41,0,.61a12.29,12.29,0,0,0,11.81,12.77H157a10.84,10.84,0,0,0,6.93-2.26c-.52,2.69-2.15,8.41-9.65,8.41a15.47,15.47,0,0,1-5.93-1.2Zm4.21-25.47a6.07,6.07,0,1,1,6.32,5.82h-.44a5.67,5.67,0,0,1-5.88-5.45A2.29,2.29,0,0,1,152.52,79.53ZM181.31,105a19.24,19.24,0,0,0,6.21,1c12.19,0,18.36-9.71,18.36-22.15,0-16.48-10.9-18-14.58-18A13.51,13.51,0,0,0,177.44,79c0,.21,0,.42,0,.62a12.3,12.3,0,0,0,11.81,12.77H190a10.84,10.84,0,0,0,6.93-2.26c-.53,2.69-2.15,8.41-9.66,8.41a15.42,15.42,0,0,1-5.92-1.2V105Zm4.2-25.47a6.08,6.08,0,1,1,6.32,5.82h-.44a5.67,5.67,0,0,1-5.88-5.45Zm47.57-13.6c-1.05-.09-2.25-.14-3.11-.14-12.43,0-19.21,11-19.21,22.63,0,12.59,7.5,17.54,14.72,17.54a13.41,13.41,0,0,0,13.76-13c0-.2,0-.41,0-.61A12.64,12.64,0,0,0,227,79.25h-.43a11.62,11.62,0,0,0-6.89,2.26c3.06-7.54,7.79-8.26,11-8.26a17.37,17.37,0,0,1,2.39.19Zm-2,26.38c0,2.79-1.53,6.2-5.79,6.2a6.35,6.35,0,0,1-6.4-6.31V92c0-3.66,3.39-5.63,6.4-5.63,1.44,0,5.79.44,5.79,5.91Zm14.19-5.14v7.26h14V87.17Zm15.12-20.61V74h19.84l-18.12,31.18h9L289,74.1V66.56Zm53.72-.63c-1-.09-2.24-.14-3.1-.14-12.43,0-19.22,11-19.22,22.63,0,12.59,7.5,17.54,14.72,17.54a13.41,13.41,0,0,0,13.77-13c0-.2,0-.41,0-.61a12.65,12.65,0,0,0-12.24-13.06h-.43a11.62,11.62,0,0,0-6.88,2.26c3.06-7.54,7.79-8.26,11-8.26a17.23,17.23,0,0,1,2.38.19ZM312.2,92.31c0,2.79-1.53,6.2-5.79,6.2A6.35,6.35,0,0,1,300,92.2V92c0-3.66,3.39-5.63,6.4-5.63,1.44,0,5.79.44,5.79,5.91Zm35-26.38c-1.05-.09-2.24-.14-3.1-.14-12.43,0-19.22,11-19.22,22.63,0,12.59,7.5,17.54,14.72,17.54a13.41,13.41,0,0,0,13.77-13v-.61A12.65,12.65,0,0,0,341.1,79.25h-.43a11.59,11.59,0,0,0-6.88,2.26c3.06-7.54,7.79-8.26,11-8.26a17.25,17.25,0,0,1,2.39.19Zm-2,26.38c0,2.79-1.52,6.2-5.78,6.2A6.36,6.36,0,0,1,333,92.2a1,1,0,0,1,0-.17c0-3.66,3.39-5.63,6.4-5.63,1.44,0,5.79.44,5.79,5.91Z" transform="translate(-0.01)"/>
  <path class="a" d="M65.45,131.07v4.78h1.2v-4.78h6.22v-1H66.64v-5.92H72.2v-.93H59.88v.93h5.57v5.92H59.3v1Zm6.14-5.51-1.19-.35a26.34,26.34,0,0,1-1.7,3.89l1,.32a32.13,32.13,0,0,0,1.9-3.86h0ZM63.54,129c-.65-1.71-1.18-3-1.58-3.76l-1.1.39c.49,1,1,2.27,1.56,3.75Zm20.93,6.54h1.15V123.26H75v12.28h1.11v-.73h8.38Zm-8.38-7.15v-4.21h8.38v4.21Zm0,.88h8.38v4.61H76.09Zm14.12,5.85a4.86,4.86,0,0,0,4-1.68,7.22,7.22,0,0,0,1.38-4.73,5.88,5.88,0,0,0-1-3.81,3.56,3.56,0,0,0-2.89-1.27,3.68,3.68,0,0,0-3.78,3.58v.22a3.36,3.36,0,0,0,1,2.55,3.7,3.7,0,0,0,2.64.92,5.28,5.28,0,0,0,2.7-.88Q93.82,134,90.43,134a3.44,3.44,0,0,1-1.44-.29h-.08V135a4.37,4.37,0,0,0,1.3.16Zm1.59-5.33a2.23,2.23,0,0,1-2.56-2.42,2.77,2.77,0,0,1,.64-1.93,2.19,2.19,0,0,1,1.73-.7,2.16,2.16,0,0,1,1.9,1,4.79,4.79,0,0,1,.66,2.74l0,.66a4.76,4.76,0,0,1-2.35.69Zm7.8-3.17H97.92v2h1.67v-2Zm0,6.29H97.92v2h1.67v-2Zm9.06.83a8.14,8.14,0,0,0,.91-4.36,8,8,0,0,0-.92-4.34,3.6,3.6,0,0,0-5.05-.67,3.44,3.44,0,0,0-.66.66,10.82,10.82,0,0,0,0,8.71,3.63,3.63,0,0,0,5.09.63,3.7,3.7,0,0,0,.62-.63Zm-1-8a12.12,12.12,0,0,1,0,7.25,2.16,2.16,0,0,1-3,.67A2.22,2.22,0,0,1,104,133a12,12,0,0,1,0-7.27,2.14,2.14,0,0,1,3-.66,2.07,2.07,0,0,1,.67.68Zm10.3,8a10.74,10.74,0,0,0,0-8.7,3.6,3.6,0,0,0-5.06-.66,3.38,3.38,0,0,0-.66.65,10.82,10.82,0,0,0,0,8.71,3.63,3.63,0,0,0,5.09.63,3.13,3.13,0,0,0,.63-.63Zm-1-8a12,12,0,0,1,0,7.25,2.15,2.15,0,0,1-3.63,0,12,12,0,0,1,0-7.27,2.14,2.14,0,0,1,3-.66,2,2,0,0,1,.68.68Zm15.67,2.32a4.16,4.16,0,0,1-.36.77,2.59,2.59,0,0,1-2.09,1.57,2.77,2.77,0,0,1-1.34-.38c-.14-.08-.58-.37-1.32-.88l-1.61-1.11a4,4,0,0,0-2-.59,3.09,3.09,0,0,0-2.36,1.19,6.84,6.84,0,0,0-1,1.74l.89.36a7,7,0,0,1,.39-.75,3.77,3.77,0,0,1,.92-1.11,1.86,1.86,0,0,1,1.17-.48,2.71,2.71,0,0,1,1.38.38c.16.09.6.4,1.33.94a18.87,18.87,0,0,0,1.77,1.19,3.9,3.9,0,0,0,1.83.48,3.1,3.1,0,0,0,2.34-1.19,6.71,6.71,0,0,0,1.06-1.76Zm8.07,5.81h-2.26V123.81h-1.05a1.48,1.48,0,0,1-.65,1.2,3.65,3.65,0,0,1-1.92.39v.89H137v7.61h-2.3v1h5.87v-1Zm8.86-10.05H142V125h6.31l-5.27,9.87h1.47l5-9.53v-1.53Zm3.66,2.77h-1.66v2h1.66Zm0,6.29h-1.66v2h1.66Zm5.64,2.23a4.16,4.16,0,0,0,2.85-1,3.15,3.15,0,0,0,1.11-2.49,2.58,2.58,0,0,0-2.36-2.78h0v-.12a2.78,2.78,0,0,0,1.56-.9,2.33,2.33,0,0,0,.62-1.6,2.28,2.28,0,0,0-.93-1.93,4.28,4.28,0,0,0-2.64-.72,7.11,7.11,0,0,0-3.07.7v1.45H156a5.28,5.28,0,0,1,3-1,2.71,2.71,0,0,1,1.62.43,1.37,1.37,0,0,1,.59,1.2,1.64,1.64,0,0,1-.67,1.42,3,3,0,0,1-1.86.51h-.5v1.13h.65a3.12,3.12,0,0,1,2,.5,1.89,1.89,0,0,1,.61,1.55,2.28,2.28,0,0,1-.7,1.78,2.76,2.76,0,0,1-1.88.64,5.48,5.48,0,0,1-3.08-1h-.12v1.48a8,8,0,0,0,3.23.69Zm12.26-1.4a8.14,8.14,0,0,0,.91-4.36A8,8,0,0,0,171,125a3.6,3.6,0,0,0-5.06-.66,3.33,3.33,0,0,0-.65.65,10.74,10.74,0,0,0,0,8.71,3.62,3.62,0,0,0,5.08.63,3.13,3.13,0,0,0,.63-.63Zm-1-8a12.12,12.12,0,0,1,0,7.25,2.16,2.16,0,0,1-3,.67,2.25,2.25,0,0,1-.67-.67,12,12,0,0,1,0-7.27,2.15,2.15,0,0,1,3-.66,2.07,2.07,0,0,1,.67.68Zm12.18,10.15a8.56,8.56,0,0,1-2-2.73,9.61,9.61,0,0,1,0-8.09,8.83,8.83,0,0,1,2-2.73v-.07h-1.45a10.45,10.45,0,0,0,0,13.68h1.45v-.06Zm15-.6v-1h-6.37v-6.73h5.6v-.94h-5.6v-4H189.6v4h-5.37v.94h5.37v6.73h-6.18v1Zm3.53-4.82a1.33,1.33,0,0,0,1.88,0h0a1.31,1.31,0,0,0,.4-.95,1.35,1.35,0,0,0-2.7,0h0a1.26,1.26,0,0,0,.39.95Zm16.83,5h1.16V123.26H208v12.28h1.11v-.73h8.37v.73Zm-8.37-7.15v-4.21h8.37v4.21Zm0,.88h8.37v4.61h-8.37v-4.61Zm15.07,1.23a1.34,1.34,0,0,0,1.89,0h0a1.27,1.27,0,0,0,.4-.95,1.35,1.35,0,0,0-2.7,0,1.31,1.31,0,0,0,.4.95Zm9.73,5.36v-6a20.62,20.62,0,0,0,1.71,1.38l.56-.9a14.27,14.27,0,0,1-2.27-1.67v-.15a12.27,12.27,0,0,0,2.18-3.49l-.36-.38H234V122.4h-1.1v2.22h-2.16v.87h4a8.61,8.61,0,0,1-1.73,2.65,14.78,14.78,0,0,1-2.8,2.44l.46.79a14.59,14.59,0,0,0,2.24-1.76v6.25Zm6.52-1.52a1.21,1.21,0,0,0,.35.92,2.69,2.69,0,0,0,1.73.36,2.42,2.42,0,0,0,1.55-.36,1.14,1.14,0,0,0,.41-.92v-1.9l-.93-.13c0,.31,0,.65,0,1s0,.61-.06.75a.67.67,0,0,1-.14.36.64.64,0,0,1-.3.19,1.83,1.83,0,0,1-.47,0,1.55,1.55,0,0,1-.82-.14.52.52,0,0,1-.19-.47V128.8h2.05V123H236.7v5.79H238v.42a6.2,6.2,0,0,1-3.3,5.87l.44.78a6.84,6.84,0,0,0,2.81-2.44,7.16,7.16,0,0,0,1.14-4.15v-.48h1.38v5.54Zm2-6.41h-4.65v-4.05h4.64v4.05Zm13.58,3.7v-4.74h2.73v-1h-2.73v-2.7h-1.15v2.7h-5.16v1h5.16v4.34a9.08,9.08,0,0,0-2.2-.27,3.17,3.17,0,0,0-2,.62,1.93,1.93,0,0,0-.81,1.61,1.8,1.8,0,0,0,.85,1.56,3.55,3.55,0,0,0,2.05.58,4.21,4.21,0,0,0,2.5-.55,2,2,0,0,0,.74-1.67v-.45a20.51,20.51,0,0,1,2.53,1.82l.66-.9a12.1,12.1,0,0,0-3.21-2h0Zm-3.16,2.77a2.5,2.5,0,0,1-1.34-.34,1,1,0,0,1-.57-.92,1.1,1.1,0,0,1,.49-.95,2.21,2.21,0,0,1,1.25-.35,5.87,5.87,0,0,1,2.24.38v.89q0,1.29-2.07,1.29Zm-5.58-4.47a21.9,21.9,0,0,1,1-6.32l-1.12-.2a25,25,0,0,0-1,6.65,17.9,17.9,0,0,0,.75,5.24l1.09-.24a18.53,18.53,0,0,1-.72-5.13Zm26.8-3.6a11.77,11.77,0,0,1-4.37-3.8h-1.34a9.64,9.64,0,0,1-1.64,2.11,10.72,10.72,0,0,1-2.35,1.89l.49.71a12.42,12.42,0,0,0,2.38-1.76,9.55,9.55,0,0,0,1.83-2.18,10.72,10.72,0,0,0,1.9,2.14,12,12,0,0,0,2.51,1.72Zm-9.75-.91c.3-1,.51-1.69.63-2.2l-.23-.29h-4.11v13h1V123.83h1.94a7.45,7.45,0,0,1-.38,1.53c-.25.82-.46,1.43-.63,1.84l0,.12a.5.5,0,0,1,0,.12h0a4.94,4.94,0,0,1,1.15,3,3.88,3.88,0,0,1-.11,1,1.13,1.13,0,0,1-.31.54.83.83,0,0,1-.47.18c-.19,0-.49,0-.92,0l.17,1h.4a3.78,3.78,0,0,0,.89-.08,1.4,1.4,0,0,0,.59-.28,1.82,1.82,0,0,0,.46-.53,2.76,2.76,0,0,0,.28-.79,4.87,4.87,0,0,0,.1-1v0a5,5,0,0,0-.13-1.09,4.24,4.24,0,0,0-.52-1.22,8.13,8.13,0,0,0-.57-.87,10.94,10.94,0,0,0,.67-1.84Zm5.17,10.06a1,1,0,0,0,.36-.79v-4.26h3.52v-.89H269.9v-2.12h2.48v-.85h-6.22v.85h2.56v2.12h-3.3v.89h3.3v3.81a.5.5,0,0,1-.43.56h-1.54l.14,1h1.74a1.39,1.39,0,0,0,.91-.3Zm4.43-1.19c-.39-.46-.81-1-1.26-1.66a9.68,9.68,0,0,1-.88-1.4l-1,.33a13.58,13.58,0,0,0,1,1.69c.36.55.75,1.09,1.16,1.6Zm-7.63-1a10.28,10.28,0,0,0,1.23-1.76l-1-.32a9.17,9.17,0,0,1-1,1.58,10,10,0,0,1-1.38,1.45l.74.61a11,11,0,0,0,1.49-1.56Zm16.24-.57q-1.44-1-4.38-2.95c-.53-.34-.82-.55-.89-.61a.37.37,0,0,1-.11-.28.44.44,0,0,1,.17-.35,6.72,6.72,0,0,1,.85-.53,57.48,57.48,0,0,0,6.11-4.42l-.9-.76c-.86.77-1.72,1.48-2.59,2.12s-2.17,1.52-3.91,2.64a1.73,1.73,0,0,0-.9,1.33,1.08,1.08,0,0,0,.15.55,1.68,1.68,0,0,0,.4.48c.39.3.79.59,1.2.85l1.47,1a38.24,38.24,0,0,1,5,4l.92-.91c-.78-.68-1.64-1.37-2.6-2.07Zm6.26-10.46h-1.43v.08a8.76,8.76,0,0,1,1.95,2.72,9.56,9.56,0,0,1,0,8.1,8.65,8.65,0,0,1-1.95,2.72V136h1.43a10.45,10.45,0,0,0,0-13.68Z" transform="translate(-0.01)"/>
  <rect class="a" x="25.99" width="41.63" height="41.63" rx="7.8" ry="7.8"/>
  <g>
    <path class="b" d="M53.67,34.21A9.79,9.79,0,0,1,49.25,33a29.24,29.24,0,0,1-8.51-6.28,29.27,29.27,0,0,1-6.36-8.53c-2.65-5.14-.26-8.1.54-8.92l.88-.88a2,2,0,0,1,1.45-.67,2.05,2.05,0,0,1,1.59.77,46.45,46.45,0,0,1,3.1,4.4,2.76,2.76,0,0,1-.43,3.47l-1.75,1.69a25.49,25.49,0,0,0,4.14,5.44,24.82,24.82,0,0,0,5.43,4.13l1.72-1.71a2.77,2.77,0,0,1,3.47-.42,40.76,40.76,0,0,1,4.39,3.09,2.07,2.07,0,0,1,.76,1.53,2.12,2.12,0,0,1-.66,1.5l-.88.88a6.28,6.28,0,0,1-4.46,1.75Z" transform="translate(-0.01)"/>
    <path class="b" d="M57.24,22.47a.86.86,0,0,1-.36-.08.92.92,0,0,1-.49-1.16,7.82,7.82,0,0,0-9.76-10.41,1.07,1.07,0,0,1-.3.06A.91.91,0,0,1,46,9.11,9.63,9.63,0,0,1,58.3,15a9.78,9.78,0,0,1,.55,3.17,9.5,9.5,0,0,1-.77,3.75A.9.9,0,0,1,57.24,22.47Z" transform="translate(-0.01)"/>
    <path class="b" d="M53.88,21.46a.94.94,0,0,1-.36-.08A.9.9,0,0,1,53,20.23a4.8,4.8,0,0,0,.36-1.75A4.51,4.51,0,0,0,49,13.91h0a4.11,4.11,0,0,0-1.48.25.92.92,0,0,1-.62-1.73,6.56,6.56,0,0,1,2.1-.35,6.34,6.34,0,0,1,6.33,6.32,6.24,6.24,0,0,1-.5,2.45.9.9,0,0,1-.84.57Z" transform="translate(-0.01)"/>
  </g>
</svg>
