<svg xmlns="http://www.w3.org/2000/svg" width="280" height="270" viewBox="0 0 280 270">
  <defs>
    <style>
      .a, .d {
        fill: #fff;
      }

      .a {
        opacity: 0;
      }

      .b {
        opacity: 0.3;
      }

      .c {
        fill: #e59d2b;
      }
    </style>
  </defs>
  <title>good_thing_img_2</title>
  <g>
    <rect class="a" x="10" y="15" width="270" height="255" rx="15" ry="15"/>
    <g class="b">
      <path class="c" d="M265,19a11,11,0,0,1,11,11V255a11,11,0,0,1-11,11H25a11,11,0,0,1-11-11V30A11,11,0,0,1,25,19H265m0-4H25A15,15,0,0,0,10,30V255a15,15,0,0,0,15,15H265a15,15,0,0,0,15-15V30a15,15,0,0,0-15-15Z"/>
    </g>
  </g>
  <path class="c" d="M204.68,193.77v-1.5h-1.16v1.5h-3.17v3.35h1.1v-2.31h5.28V195c0,3.19-2,4.43-5.4,4.74l.36,1.06c3.53-.3,6.25-1.86,6.25-6.38v-.64ZM214,196.3a10,10,0,0,1-3.78,3.11l.59.83a10.54,10.54,0,0,0,3.47-3v2.32c0,.34-.06.4-.35.4a8.52,8.52,0,0,1-1.24-.09l.14,1h1a1.16,1.16,0,0,0,1.4-.86h0a1.09,1.09,0,0,0,0-.36v-3.4h1.92v-1h-1.92V194h-1v1.35h-3.78v1Zm5.23-.28v1.17h8.63V196Zm10.58.64a6.72,6.72,0,0,0,1.23-.95,13.59,13.59,0,0,1,3,1.9,8.28,8.28,0,0,1-4.25,2.26l.57,1a8.46,8.46,0,0,0,6.77-8.07h-5.37a6.37,6.37,0,0,1-2.64,3Zm6-2.81a7,7,0,0,1-1.09,2.93,14.51,14.51,0,0,0-3-1.81,8.63,8.63,0,0,0,.78-1.12Zm2.88,2.17v1.17h8.63V196Zm-26.93,13.16v-1.83h-1.14v1.83h-3.19v-1.79h-1.14v1.79h-1.62v1.07h1.62v2.56h1.14v-2.56h3.19v1.13c0,2.64-2.1,3.19-4.05,3.41l.41,1.06c1.65-.22,4.78-.81,4.78-4.47v-1.13h1.67v-1.07ZM214.4,211v1.17H223V211Zm11.86-3.25a16,16,0,0,1-2.45,7.24l1.13.58a17.48,17.48,0,0,0,2.5-7.65Zm6.24,7.32a24.1,24.1,0,0,0-2.56-7.37l-1,.47a24.53,24.53,0,0,1,2.37,7.21Zm-2-7.62a8.62,8.62,0,0,1,.94,1.93l.7-.39a9.07,9.07,0,0,0-1-1.9Zm1.33-.57a8.21,8.21,0,0,1,.94,1.93l.71-.39a8.63,8.63,0,0,0-1-1.9Zm1.95,4.12v1.17h8.63V211Z"/>
  <path class="c" d="M122.69,128.34c2.6-.72,3.69-1.94,4.19-2.83a5.5,5.5,0,0,0,4.27,2.73l.58-1.05c-1.53-.14-3.25-.71-3.86-1.7h3.72v-.92h-1.07V121.7h-3.13V121h-1v.74h-3.14v2.87h-1v.92h3.55a5.33,5.33,0,0,1-3.65,1.82Zm4.7-5.74h2.13v2h-2.27a6.24,6.24,0,0,0,.14-1.78Zm-1,.66a3.63,3.63,0,0,1-.16,1.31h-2v-2h2.15v.69Zm-2.12-3.59H122.2v1h2.07v.65h1v-.65h3.25v.65h1v-.65h2.07v-1h-2.07v-.77h-1v.77h-3.26v-.77h-1v.77Zm17,8.1a15.05,15.05,0,0,0-2.34-2.88l-.85.52a12.53,12.53,0,0,1,1.19,1.43c-2,.1-2.23.11-4.1.15.34-.64.73-1.49,1.07-2.3h5.24v-1H132.4v1H135a15.42,15.42,0,0,1-1,2.33h-1.44l.15,1c3.51-.07,5.77-.23,7.14-.37.15.22.29.44.42.67Zm-7-5.19h5.34V122a14.14,14.14,0,0,0,1.62.89l.64-1a9.23,9.23,0,0,1-4.34-3h-1.16A9.36,9.36,0,0,1,132,122l.6,1a9.32,9.32,0,0,0,1.66-.86v.44Zm.61-1a10.68,10.68,0,0,0,2.07-1.9,12.17,12.17,0,0,0,2.09,1.9Zm15.65-1.5a13.46,13.46,0,0,0,1.89-.38l-.42-.91a23,23,0,0,1-4.83.58l.17,1a12.11,12.11,0,0,0,2.17-.13v1.29h-2.25v1h2.25v1.41h-1.84v4.15h4.61v-4.15h-1.76v-1.41h2.16v-1h-2.16v-1.45Zm.77,7h-2.6v-2.29h2.62Zm-7.7-8v.9h3.18v-.9Zm0,5.89v3h3.18v-3Zm2.18,2.21h-1.19v-1.35h1.19Zm-2.51-6.64v.91h3.86v-.91Zm.33,1.46v.88h3.18V122Zm0,1.48v.9h3.18v-.9Zm12.41-4h-1.19v8.19c4.54-.19,6.35-1.91,7.58-5.3l-1-.61c-1.06,3.34-2.84,4.38-5.38,4.67v-7Zm10.5,4.78a10.42,10.42,0,0,0-.86-2.48l-.93.25a8.45,8.45,0,0,1,.8,2.46Zm2.2-.46a10.59,10.59,0,0,0-.74-2.4l-.9.2a11.31,11.31,0,0,1,.68,2.42Zm-2.56,4.1c3.83-.93,4.85-3.15,5.48-6.16l-1.1-.24c-.59,3.51-1.83,4.86-5.08,5.55Zm8.22-8.08v1.06h5.18a10.34,10.34,0,0,1-5.72,6l.66.93a12.53,12.53,0,0,0,4-3,36.22,36.22,0,0,1,3.07,3l.95-.91a36.91,36.91,0,0,0-3.34-2.9,10.52,10.52,0,0,0,1.86-4.13ZM188,121.33a12.75,12.75,0,0,0-3.18-1.41l-.54,1a12.54,12.54,0,0,1,3.12,1.47Zm-3.28,6.3a8.6,8.6,0,0,0,7.93-6.51l-1-.7c-1.15,3.83-3.18,5.69-7.17,6Z"/>
  <path class="c" d="M48.12,234.5H46.93v8.19c4.54-.19,6.35-1.91,7.58-5.3l-1-.61c-1.06,3.34-2.84,4.38-5.38,4.67V234.5Zm8.29.34v1.06h5.18a10.29,10.29,0,0,1-5.71,5.95l.65.93a12,12,0,0,0,4-3,37.9,37.9,0,0,1,3.08,3l.94-.91a36.79,36.79,0,0,0-3.33-2.9,10.73,10.73,0,0,0,1.86-4.13Zm17.91,4.07a25.66,25.66,0,0,0-4.83-2.12v-2.47H68.28v8.53h1.21V238a21,21,0,0,1,4.25,2.1ZM77,234.68v1h6.64v-1ZM76.31,237v1H83a4.13,4.13,0,0,1-1.75,2.69,8.13,8.13,0,0,1-3.74.94l.34,1.07c4.17-.4,6-1.82,6.46-5.74Zm13.86-.71A12.73,12.73,0,0,0,87,234.92l-.54,1a12.54,12.54,0,0,1,3.12,1.47Zm-3.28,6.3a8.59,8.59,0,0,0,7.93-6.51l-1-.7c-1.15,3.83-3.17,5.69-7.17,6ZM98,241.32c2.49-2.63,3-3.5,3-4.63a2.34,2.34,0,0,0-2.3-2.38h-.22a3,3,0,0,0-2.5,1.26l.5,1.19a2.37,2.37,0,0,1,2-1.37,1.26,1.26,0,0,1,1.35,1.16v.16c0,.67-.3,1.26-1.51,2.68-1,1.19-1.95,2.13-2.83,3h5.87v-1.08Zm9,1.08v-1.7h1v-1h-1v-5.17h-1.22l-3.59,5.21v1h3.62v1.7Zm-1.19-6.3v3.55H103.4Zm3.57-1.79v8.32h3.14v-8.32Zm2.18,3.62h-1.22v-2.61h1.22Zm0,3.72h-1.22v-2.78h1.22Zm6-1.86h.94v-.95h-.94v-1h1v-1h-2.38v-1.16h2.07v-1h-2.07v-.85h-1v.85h-2v1h2v1.16h-2.36v1h3.69v1H112.9v.95h3.61v2.15c0,.3-.15.3-.29.3h-1.43l.2,1h1.48a.87.87,0,0,0,1.07-.6.75.75,0,0,0,0-.42v-2.45Zm-2.36,1.78a7,7,0,0,0-1.36-1.61l-.82.58a7.61,7.61,0,0,1,1.3,1.69Zm13.08.47a.21.21,0,0,1-.15.24h-1.22l.16,1h1.54a.74.74,0,0,0,.69-.79h0a.29.29,0,0,0,0-.13v-8h-4V238h3Zm0-6.9v.66h-2v-.66Zm0,1.34v.66h-2v-.66Zm-7.7,6.8h1V238h2.83v-3.65H120.5v9Zm2.85-8.14v.66h-1.85v-.66Zm0,1.34v.66h-1.85v-.66Zm-.85,2.06v3.7h4.67v-3.7Zm3.72.81V240h-2.77v-.68h2.77Zm0,1.35v.72h-2.77v-.72Zm6.51-4.64a15.61,15.61,0,0,1,2.37,1.47h-4.9v1h4.18v3.33c0,.27-.08.36-.32.36h-1.76l.2,1.08h1.9a1,1,0,0,0,1.06-.9v-3.87h2.68a8.25,8.25,0,0,1-1.8,1.69l.79.82a12.79,12.79,0,0,0,2.42-2.51v-1h-3.7l.5-.41-.43-.34a12.93,12.93,0,0,0,2.86-1.48v-1H131v1h2.53Zm4.11-.8a6.31,6.31,0,0,1-1.83.88,16.42,16.42,0,0,0-1.53-.88Zm3.45,4,1.6-.13v4.22h1V239l.71-.09c.06.19.08.25.12.41l.94-.31a16.61,16.61,0,0,0-.8-1.9l-.82.28a6.52,6.52,0,0,1,.29.73l-1.12.08a19.26,19.26,0,0,0,1.9-2.84l-.89-.39a14.67,14.67,0,0,1-1,1.71l-.46-.49a11,11,0,0,0,1.13-1.93l-.89-.37a11.48,11.48,0,0,1-.94,1.68l-.28-.21-.51.77a9,9,0,0,1,1.41,1.35c-.27.4-.43.61-.56.78h-.82v1Zm.38.46a10.53,10.53,0,0,1-.41,2.67l.93.34a15.36,15.36,0,0,0,.39-2.87Zm5-5.77a6.56,6.56,0,0,1-1.56,3.11l.75.83a6.16,6.16,0,0,0,1.08-1.55h2.4a52.54,52.54,0,0,1-.22,5.47.45.45,0,0,1-.4.48h0a.33.33,0,0,1-.14,0h-1.82l.2,1.07h2.2a.93.93,0,0,0,.88-.76c.26-.88.29-2.54.37-7.23h-3a10,10,0,0,0,.38-1.32Zm-2.51,5.86a22.34,22.34,0,0,1,.33,2.3l.93-.15a11.92,11.92,0,0,0-.46-2.29Zm2-1.6a11.33,11.33,0,0,1,1.21,2.41l.94-.49A8.76,8.76,0,0,0,146,237.7Z"/>
  <path class="c" d="M215.42,247.86a17.24,17.24,0,0,0-.95-6.33,8.14,8.14,0,0,0-7.76-5.19c-5.19,0-8.83,4.18-8.83,10.13,0,3.45,1.52,9.84,9.85,9.84a15.74,15.74,0,0,0,6.17-1.2v-4.66a11.88,11.88,0,0,1-6,1.52c-4.62,0-5-2.91-5.1-4.11Zm-12.5-3.58c.12-.69.6-3.67,3.8-3.67.47,0,3.29,0,3.77,3.67Zm16.78-7.44h-2.16v4.56h2.15V250c0,3,0,6.36,5.83,6.36a31.66,31.66,0,0,0,3.89-.28v-4.5a16.57,16.57,0,0,1-2.63.22c-1.74,0-2.12-.57-2.12-2.15v-8.2h5v-4.56h-5v-5.5h-5v5.5Zm28,13.2a10.09,10.09,0,0,1-5.5,1.71c-4.28,0-5.42-3-5.42-5.44a5.07,5.07,0,0,1,4.71-5.4h.61a6.58,6.58,0,0,1,4.37,1.51l1.23-4.4a10.86,10.86,0,0,0-6-1.67c-5.48,0-9.88,3.7-9.88,10.09,0,5.92,3.64,9.88,10.07,9.88a11.88,11.88,0,0,0,5.82-1.3v-5Zm3.64,2.42v3.34h3.32v-3.34Zm6.12,0v3.34h3.33v-3.34Zm6.13,0v3.34h3.32v-3.34Z"/>
  <circle class="c" cx="40" cy="40" r="40"/>
  <path class="d" d="M20.35,25.11A30.79,30.79,0,0,0,24.78,21l-1.92-1.33A23.77,23.77,0,0,1,11.43,27.4l1.06,1.89a25.18,25.18,0,0,0,5.59-2.61v6.77h2.27Zm13.46,0A30.79,30.79,0,0,0,38.24,21l-1.92-1.33A23.77,23.77,0,0,1,24.89,27.4L26,29.29a25.18,25.18,0,0,0,5.59-2.61v6.77h2.27V25.11Zm7.07-4v2.06h9.25v7.14H40.7v2.1H52.37V21.13ZM67.23,27a40.2,40.2,0,0,0-7.57-3.33V19.8H57.35V33.47h2.31v-7.6a32,32,0,0,1,6.45,3.33Zm-28,36.65c6.78-7.36,8.64-10.2,8.64-14.08,0-5.37-4.19-7.84-8.32-7.84a10.48,10.48,0,0,0-8.26,4.16l2,4.39c.61-1.06,2.56-4.42,6.24-4.42a3.67,3.67,0,0,1,3.84,3.46,2.41,2.41,0,0,1,0,.38c0,1.79-.67,3.49-4.54,8.13-3.23,3.9-6.3,7.07-9.12,10H48.9V63.62H39.21Z"/>
  <g>
    <circle class="c" cx="171.62" cy="64.17" r="13.1"/>
    <circle class="c" cx="144.31" cy="76.81" r="13.1"/>
    <g>
      <path class="c" d="M124.73,113a19.58,19.58,0,1,1,39.16,0v0H124.73Z"/>
      <path class="c" d="M163.15,100.38h28a19.58,19.58,0,0,0-37.45-8A22.73,22.73,0,0,1,163.15,100.38Z"/>
    </g>
    <path class="c" d="M130.76,32H104a4.81,4.81,0,0,0-4.79,4.79V56.26A4.81,4.81,0,0,0,104,61.05h14.39l9,7.18-1.72-7.18h5a4.81,4.81,0,0,0,4.79-4.79V36.81A4.79,4.79,0,0,0,130.76,32Zm2.29,24.24a2.31,2.31,0,0,1-2.29,2.29H104a2.31,2.31,0,0,1-2.29-2.29V36.81A2.31,2.31,0,0,1,104,34.52h26.72A2.28,2.28,0,0,1,133,36.79h0Z"/>
    <path class="c" d="M121.35,41.54H107.77a1.56,1.56,0,0,1,0-3.12h13.58a1.56,1.56,0,1,1,0,3.12Z"/>
    <path class="c" d="M124,47.82H107.77a1.56,1.56,0,1,1,0-3.12H124a1.56,1.56,0,1,1,0,3.12Z"/>
    <path class="c" d="M118,54.11H107.77a1.56,1.56,0,1,1,0-3.12H118a1.56,1.56,0,1,1,0,3.12Z"/>
    <path class="c" d="M185.72,31.34V50.8a4.81,4.81,0,0,0,4.79,4.79h5.06l-1.73,7.18,9-7.18h14.39A4.8,4.8,0,0,0,222,50.8V31.34a4.81,4.81,0,0,0-4.79-4.79h-26.7A4.81,4.81,0,0,0,185.72,31.34Zm2.5,0a2.31,2.31,0,0,1,2.29-2.29h26.72a2.31,2.31,0,0,1,2.29,2.29V50.8a2.31,2.31,0,0,1-2.29,2.29H190.51a2.31,2.31,0,0,1-2.29-2.29Z"/>
    <path class="c" d="M207.82,36.08H194.24a1.57,1.57,0,0,1,0-3.13h13.58a1.57,1.57,0,0,1,0,3.13Z"/>
    <path class="c" d="M210.47,42.36H194.24a1.56,1.56,0,0,1,0-3.12h16.23a1.56,1.56,0,1,1,0,3.12Z"/>
    <path class="c" d="M204.46,48.65H194.24a1.57,1.57,0,0,1,0-3.13h10.22a1.57,1.57,0,0,1,0,3.13Z"/>
  </g>
  <g>
    <path class="c" d="M101.59,134.8a47.72,47.72,0,1,0,47.72,47.72h0A47.75,47.75,0,0,0,101.59,134.8Zm0,91.1A43.39,43.39,0,1,1,145,182.51a43.39,43.39,0,0,1-43.41,43.39Z"/>
    <path class="c" d="M104.38,182.69a2.74,2.74,0,0,0-.62-1.73V153.12a2.17,2.17,0,0,0-4.33,0V179.9H74.89a2.79,2.79,0,0,0,0,5.57h26.7A2.79,2.79,0,0,0,104.38,182.69Z"/>
    <path class="c" d="M101.59,147.35A2.63,2.63,0,1,0,99,144.68h0a2.62,2.62,0,0,0,2.57,2.67Z"/>
    <path class="c" d="M84.07,152a2.63,2.63,0,1,0-3.59-1,2.63,2.63,0,0,0,3.59,1Z"/>
    <path class="c" d="M70.29,161.28a2.63,2.63,0,1,0,1,3.59,2.63,2.63,0,0,0-1-3.59Z"/>
    <path class="c" d="M135.53,198.94a2.63,2.63,0,1,0,1,3.6,2.63,2.63,0,0,0-1-3.6Z"/>
    <path class="c" d="M63.93,179.76a2.63,2.63,0,1,0,2.62,2.64h0a2.63,2.63,0,0,0-2.62-2.64Z"/>
    <path class="c" d="M139.26,185a2.63,2.63,0,1,0-2.63-2.63,2.63,2.63,0,0,0,2.63,2.63Z"/>
    <path class="c" d="M67.66,198.94a2.63,2.63,0,1,0,3.59,1,2.63,2.63,0,0,0-3.59-1Z"/>
    <path class="c" d="M131.94,164.87a2.63,2.63,0,1,0,1-3.59,2.63,2.63,0,0,0-1,3.59Z"/>
    <path class="c" d="M121.74,147.49a2.63,2.63,0,1,0,1,3.59,2.63,2.63,0,0,0-1-3.59Z"/>
    <path class="c" d="M94.83,200.47c0-4.32-3.23-6.5-6.87-6.5a8.35,8.35,0,0,0-6.86,3.4l1.88,4c.64-1,2.14-3.49,4.93-3.49a2.51,2.51,0,0,1,2.62,2.39v.26c0,1.7-1,3.83-10.73,14.23H95.64v-3.94H88.78C93,206.14,94.83,203.8,94.83,200.47Z"/>
    <path class="c" d="M109.08,194.37h-4.14l-8.82,12.92v3.53h8.72v4h4.24v-4h2.44V207h-2.44ZM104.84,207h-4.5l4.5-6.71Z"/>
    <path class="c" d="M117.46,206.08a3.09,3.09,0,0,0-2.23.88v-4.15H113V215h2.27v-5c0-1.79,1.29-1.87,1.58-1.87,1.27,0,1.29,1.12,1.29,1.87v5h2.27v-4.9a5.62,5.62,0,0,0-.39-2.6A2.73,2.73,0,0,0,117.46,206.08Z"/>
    <path class="c" d="M45.87,157.86a1.54,1.54,0,0,0-1.54,1.54h0v10.23H41.7V159.41a1.55,1.55,0,1,0-3.09-.25,1,1,0,0,0,0,.25v10.23H36.09V159.41a1.55,1.55,0,1,0-3.09-.25,1,1,0,0,0,0,.25v12.22L37.68,175v30.47a2.5,2.5,0,0,0,5,0V175l4.79-3.41V159.41a1.54,1.54,0,0,0-1.53-1.55h-.07Z"/>
    <path class="c" d="M153.78,164.35v16.7l4.39.33v24.05a2.47,2.47,0,1,0,4.94,0V156.37C158,156.37,153.78,158.32,153.78,164.35Z"/>
  </g>
  <g>
    <path class="c" d="M210.5,185.63c-.26-1.88-5.27-43-5.27-43.26s.13-.31,2.08-.31h2.07l.54,4.54c.3,2.5.6,4.54.66,4.54a5.76,5.76,0,0,0,2.19-1.82c.44-.68.55-.76,1.09-.76s.64.06.84.44a5.41,5.41,0,0,0,2.19,2,4.5,4.5,0,0,0,5.61-1.86c.27-.51.4-.59.9-.59s.64.08,1.09.8a4.41,4.41,0,0,0,4.52,2,4.73,4.73,0,0,0,2.86-2c.43-.7.55-.78,1.07-.78s.64.1,1.15.85,2,1.93,2.17,1.73c.05,0,.31-1.93.58-4.2s.54-4.29.57-4.5.15-.36,2.11-.36h2v.47c0,.44-5.09,42.21-5.27,43.27l-.09.51H210.6Zm23.68-17.07c.91-7.39,1.69-13.69,1.72-14,.07-.48,0-.56-.55-.85a5.58,5.58,0,0,1-2.09-2.06c-.13-.3-.26-.52-.31-.52a4.78,4.78,0,0,0-.57.84,4.94,4.94,0,0,1-2.72,2.09,6.81,6.81,0,0,1-3.79-.31,5.41,5.41,0,0,1-2.13-2.06l-.29-.56-.56.84a5.54,5.54,0,0,1-2.71,2.08,7.08,7.08,0,0,1-3.33-.1,6,6,0,0,1-2.67-2.29l-.29-.53-.55.84a6.16,6.16,0,0,1-2.3,2c-.15,0,.19,3.35,1.47,13.76.91,7.52,1.7,13.84,1.75,14.05l.08.36h18.21Z"/>
    <path class="c" d="M221.77,133.06a70.43,70.43,0,0,1,1.13-7.78,8.47,8.47,0,0,1,5.92-5.35c.78-.19,2.12-.24,7.1-.24h6.13L242,119c-.23-1.67-1.22-10.91-1.22-11.41V107h2.35c1.77,0,2.35,0,2.35.21s-.29,2.85-.64,6.09-.65,6-.65,6.13.52.21,2.43.21H249v11.18h-4.59a29.46,29.46,0,0,1-5.31-.21,18,18,0,0,1-3.1-2,22.81,22.81,0,0,0-2.9-1.88,3,3,0,0,0-3.23,1.69,10.5,10.5,0,0,0-.47,2.28c-.11.9-.23,1.82-.27,2.08l-.1.44H225.4C222.27,133.31,221.77,133.27,221.77,133.06Z"/>
  </g>
</svg>
