<svg xmlns="http://www.w3.org/2000/svg" xmlns:xlink="http://www.w3.org/1999/xlink" width="280" height="270" viewBox="0 0 280 270">
  <defs>
    <style>
      .a, .i, .n {
        fill: none;
      }

      .b, .m {
        fill: #fff;
      }

      .c {
        opacity: 0.3;
      }

      .d {
        fill: #42a484;
      }

      .e {
        fill: #43a484;
      }

      .f {
        fill: #ebf0ee;
      }

      .g {
        clip-path: url(#a);
      }

      .h {
        fill: #419d7f;
      }

      .i, .m, .n {
        stroke: #419d7f;
        stroke-miterlimit: 10;
      }

      .i, .m {
        stroke-width: 2px;
      }

      .j {
        clip-path: url(#b);
      }

      .k {
        fill: #efefef;
      }

      .l {
        clip-path: url(#c);
      }

      .n {
        stroke-width: 3px;
      }
    </style>
    <clipPath id="a">
      <circle class="a" cx="63.5" cy="215.5" r="40.5"/>
    </clipPath>
    <clipPath id="b">
      <circle class="a" cx="146" cy="215" r="40"/>
    </clipPath>
    <clipPath id="c">
      <circle class="a" cx="227.75" cy="214.06" r="38.75"/>
    </clipPath>
  </defs>
  <title>good_thing_img_3</title>
  <g>
    <rect class="b" x="10" y="15" width="270" height="255" rx="15" ry="15"/>
    <g class="c">
      <path class="d" d="M265,19a11,11,0,0,1,11,11V255a11,11,0,0,1-11,11H25a11,11,0,0,1-11-11V30A11,11,0,0,1,25,19H265m0-4H25A15,15,0,0,0,10,30V255a15,15,0,0,0,15,15H265a15,15,0,0,0,15-15V30a15,15,0,0,0-15-15Z"/>
    </g>
  </g>
  <circle class="d" cx="40" cy="40" r="40"/>
  <path class="b" d="M20.35,25.11A30.79,30.79,0,0,0,24.78,21l-1.92-1.33A23.77,23.77,0,0,1,11.43,27.4l1.06,1.89a25.18,25.18,0,0,0,5.59-2.61v6.77h2.27Zm13.46,0A30.79,30.79,0,0,0,38.24,21l-1.92-1.33A23.77,23.77,0,0,1,24.89,27.4L26,29.29a25.18,25.18,0,0,0,5.59-2.61v6.77h2.27V25.11Zm7.07-4v2.06h9.25v7.14H40.7v2.1H52.37V21.13ZM67.23,27a40.2,40.2,0,0,0-7.57-3.33V19.8H57.35V33.47h2.31v-7.6a32,32,0,0,1,6.45,3.33ZM30.18,66.18a16.44,16.44,0,0,0,8.26,2.08c7.55,0,10.27-4.29,10.27-7.9,0-4.39-3.3-5.86-4.67-6.46a5.68,5.68,0,0,0,3.17-5.25c0-4.23-3.55-6.95-8.16-6.95a11.69,11.69,0,0,0-7.94,3.11l1.6,4a8.33,8.33,0,0,1,6.24-3c1.79,0,3.81.93,3.81,3.17,0,1.5-1.09,3.36-4.29,3.36H35.94V56.2h2.72c3.84,0,5.5,1.66,5.5,3.71s-1.4,4.22-5.72,4.22a11.6,11.6,0,0,1-6.95-2Z"/>
  <path class="e" d="M140.91,165.46a65.93,65.93,0,0,1-32.21-13.77,81.09,81.09,0,0,1-9.54-9.54,65.53,65.53,0,0,1-13.44-30,86.66,86.66,0,0,1-.49-17.34,64.31,64.31,0,0,1,35.61-51,67.81,67.81,0,0,1,21.39-6.22,99.11,99.11,0,0,1,14,0A66.13,66.13,0,0,1,189.8,51.51a65.22,65.22,0,0,1,20.51,29.68,59.08,59.08,0,0,1,3.21,20.33A58.7,58.7,0,0,1,210.31,122a63.22,63.22,0,0,1-15.54,25.12,64.21,64.21,0,0,1-37.44,18.37A91.89,91.89,0,0,1,140.91,165.46Z"/>
  <g>
    <path class="b" d="M184.06,152.81A43.59,43.59,0,0,0,179,142.43a49.91,49.91,0,0,0-8.26-8.49l-1.58-1.18.86-.12a6.39,6.39,0,0,0,5.31-6.41c0-1.42,0-1.58,1.5-3.54a37.53,37.53,0,0,0,5.92-13.44c.1-.54.38-.72,1.33-1a5.88,5.88,0,0,0,3.64-3.49A75.64,75.64,0,0,0,188,95.6c0-9.15-.06-9.43-1.87-11-.74-.64-1.07-1.3-1.83-3.55A37.21,37.21,0,0,0,156.57,56.4a46.28,46.28,0,0,0-14-.12,36.56,36.56,0,0,0-19.18,10.25,36,36,0,0,0-9,14.43c-.77,2.25-1.07,2.86-1.89,3.57-1.89,1.64-1.94,1.87-1.94,11.07a77.29,77.29,0,0,0,.28,9.13c1,3.83,6.38,5,9.21,2,1.43-1.5,1.48-1.88,1.48-10.91s0-9.44-1.58-11l-.79-.82.71-2A31.74,31.74,0,0,1,135.2,64.65a29.75,29.75,0,0,1,14.26-3.39,30.32,30.32,0,0,1,22.06,9.18,31.45,31.45,0,0,1,7.65,12.14l.46,1.33-.77.71c-1.68,1.58-1.73,1.89-1.73,11.15s0,9.46,1.66,11.14l.84.9-.59,2.32a31.07,31.07,0,0,1-5,10.63l-.59.72-1.35-.69a6.32,6.32,0,0,0-8.52,2.67l-.1.21a6,6,0,0,0-.49,2.78,4.38,4.38,0,0,0,.77,3,6.8,6.8,0,0,0,4,3l1.18.31-9.77,8.49c-5.38,4.7-9.85,8.52-9.92,8.55s-4.26-3.52-9.26-7.88-9.52-8.27-10-8.65l-.84-.69-2.2,1.74a42.49,42.49,0,0,0-8.24,8.75,39.91,39.91,0,0,0-4.11,8.34,4.86,4.86,0,0,1-.61,1.45,53.66,53.66,0,0,1-6.27-4.87A62.25,62.25,0,0,1,140.45,40a84.86,84.86,0,0,1,17.6,0,62.3,62.3,0,0,1,52.82,70.5h0c-.12.84-.26,1.67-.41,2.5-2.35,13.67-10.38,27.34-21.42,36.49C185.69,152.22,184.22,153.22,184.06,152.81ZM151.8,142.23l2.5-2.25V128.63l-5.28.05-5.31.08-.07,5.53v5.51l2.6,2.32a23.36,23.36,0,0,0,2.83,2.33A23.22,23.22,0,0,0,151.8,142.23Zm3.54-17.93c9.54-2.76,16.71-11,19.06-21.73a41.39,41.39,0,0,0,.38-10.72,27.51,27.51,0,0,0-19.67-24.33,34.74,34.74,0,0,0-11.42,0c-10,2.78-17.4,11.3-19.59,22.6a40.29,40.29,0,0,0,0,11.91c2.5,11.94,10.33,20.45,20.81,22.7A29.5,29.5,0,0,0,155.34,124.3Z"/>
    <path class="b" d="M145,119.76c-8.9-2.27-15.28-10.41-16.48-21.07A28.83,28.83,0,0,1,129,90l.2-.76,2.81-.18a73.86,73.86,0,0,0,21.37-4.62l1.51-.61,1.55,1A37.32,37.32,0,0,0,168,89.61l1.53.31.33,2.11a32,32,0,0,1-.64,11,24.17,24.17,0,0,1-6.73,11.58A20.16,20.16,0,0,1,155,119.3,20.9,20.9,0,0,1,145,119.76Zm7.6-6.81a15.28,15.28,0,0,0,5-2.43,1.23,1.23,0,0,0,.25-1.72,1.07,1.07,0,0,0-.14-.16c-.59-.62-1.48-.49-2.78.33a10.63,10.63,0,0,1-6.56,1.48,8.45,8.45,0,0,1-4.16-1.18,10.31,10.31,0,0,0-2.57-1c-1.25,0-1.56,1.66-.46,2.52A14.59,14.59,0,0,0,152.64,113ZM141.52,99.53a3.3,3.3,0,0,0,.66-4.62h0a3.51,3.51,0,0,0-4.93-.61,3.2,3.2,0,0,0-.61.61l-.12.16a3.58,3.58,0,0,0,1.19,4.91l.16.09A3.8,3.8,0,0,0,141.52,99.53Zm19.89,0a3.3,3.3,0,0,0,.66-4.62h0a3.51,3.51,0,0,0-4.93-.61,3.2,3.2,0,0,0-.61.61l-.12.16A3.58,3.58,0,0,0,157.6,100l.16.09A3.8,3.8,0,0,0,161.41,99.53Z"/>
  </g>
  <g>
    <circle class="f" cx="63.5" cy="215.5" r="40.5"/>
    <g class="g">
      <g>
        <path class="h" d="M89.07,224.14h0a4.3,4.3,0,0,0-2.32-1.65l-10.6-7.55H49.51l-9.7,7.66a3.41,3.41,0,0,0-.61.29,4.47,4.47,0,0,0-1.35,1.25h0a4.3,4.3,0,0,0-.8,2.5v12.52a4.35,4.35,0,0,0,4.35,4.35H85.51a4.35,4.35,0,0,0,4.35-4.35h0V226.64A4.29,4.29,0,0,0,89.07,224.14Zm-3.28,15a.28.28,0,0,1-.28.27H41.4a.28.28,0,0,1-.27-.27v-12.5a.28.28,0,0,1,.27-.28H85.51a.3.3,0,0,1,.28.28Z"/>
        <circle class="h" cx="70.84" cy="232.9" r="2.45"/>
        <circle class="h" cx="78.72" cy="232.9" r="2.45"/>
        <g>
          <path class="b" d="M74.09,223.81a1.24,1.24,0,0,0,1.38,0l7.59-5.52a1.86,1.86,0,0,0,.69-1.35V206.07a.55.55,0,0,0-.5-.61.61.61,0,0,0-.3,0l-2.34.85a2.11,2.11,0,0,1-1.54-.13l-3.55-2a1.67,1.67,0,0,0-1.48,0l-3.55,2a2.08,2.08,0,0,1-1.53.13l-2.35-.85a.56.56,0,0,0-.74.28.54.54,0,0,0-.05.28v10.87a1.82,1.82,0,0,0,.68,1.35Z"/>
          <path class="i" d="M74.09,223.81a1.24,1.24,0,0,0,1.38,0l7.59-5.52a1.86,1.86,0,0,0,.69-1.35V206.07a.55.55,0,0,0-.5-.61.61.61,0,0,0-.3,0l-2.34.85a2.11,2.11,0,0,1-1.54-.13l-3.55-2a1.67,1.67,0,0,0-1.48,0l-3.55,2a2.08,2.08,0,0,1-1.53.13l-2.35-.85a.56.56,0,0,0-.74.28.54.54,0,0,0-.05.28v10.87a1.82,1.82,0,0,0,.68,1.35Z"/>
        </g>
        <path class="h" d="M75.46,220.3a1.21,1.21,0,0,1-1.36,0l-4.62-3.46a1.93,1.93,0,0,1-.68-1.36v-5.59a.61.61,0,0,1,.56-.66.75.75,0,0,1,.26,0l.47.12a2.18,2.18,0,0,0,1.54-.22l2.43-1.53a1.53,1.53,0,0,1,1.44,0l2.43,1.53a2.18,2.18,0,0,0,1.54.22l.47-.12a.6.6,0,0,1,.78.36.57.57,0,0,1,0,.26v5.59a1.93,1.93,0,0,1-.68,1.36Z"/>
        <path class="h" d="M62,196.24c0-1.12,3-2.7,2.67-3.75s-3.7-.79-4.27-1.73,1.25-3.81.45-4.58-3.58,1.17-4.56.63-.81-3.91-1.91-4.18-2.55,2.8-3.63,2.82-2.7-3-3.75-2.67-.79,3.69-1.73,4.26-3.81-1.24-4.58-.44,1.17,3.58.63,4.55-3.91.82-4.18,1.92,2.8,2.55,2.82,3.63-3,2.69-2.67,3.74,3.69.79,4.26,1.73-1.24,3.82-.44,4.58,3.58-1.16,4.56-.63.81,3.92,1.91,4.19,2.55-2.8,3.63-2.82,2.7,3,3.74,2.67.79-3.7,1.73-4.27,3.82,1.24,4.58.45-1.16-3.58-.63-4.56,3.92-.81,4.19-1.91S62,197.32,62,196.24ZM55.67,192c2,.88,1.82,3.55,1.82,3.55l-5.1-2.18S53.75,191.2,55.67,192ZM46,192c1.91-.83,3.27,1.37,3.27,1.37l-5.1,2.18S43.94,192.91,46,192Zm-2.16,10.88a6.25,6.25,0,0,1,2.06-4.75v4a19.43,19.43,0,0,0-2.09.78Zm3.36-1.1v-4.6a6.84,6.84,0,0,1,1.5-.64v5a13.24,13.24,0,0,0-1.53.27Zm2.8-.4v-5.12h1.5v5.14c-.5,0-1,0-1.5,0Zm2.81.15v-5a7.12,7.12,0,0,1,1.49.59v4.76a11.41,11.41,0,0,0-1.52-.32Zm2.8.74V198a6.68,6.68,0,0,1,2,5.19,16.83,16.83,0,0,0-2-.92Z"/>
      </g>
    </g>
  </g>
  <g>
    <circle class="f" cx="146" cy="215" r="40"/>
    <g class="j">
      <g>
        <circle class="h" cx="150.2" cy="201.47" r="6"/>
        <path class="h" d="M146.58,225.78h-8.27l4.66-7.61s3.5,2.27,5.11,3.27,3.73,1.34,5,.25a1.51,1.51,0,0,0,.23-.21h0a2.24,2.24,0,0,0,.61-1.19l1.63-9.27a2.33,2.33,0,0,0-4.59-.81l-.78,4.39c-1.53-1.49-4.54-4.4-6-5.7-2-1.78-6.54-2.33-8.73,1.18-1.72,2.76-5.44,9.54-7.94,13.76s-1.06,10.95,6.5,10.95h8.89s-1.39,9.44-1.67,11.5-.5,3.89,1.67,4.33,3.5-.94,4.11-3,3.67-12.44,4.39-14.83S151.58,225.78,146.58,225.78Z"/>
        <circle class="h" cx="136.45" cy="252.39" r="1.35"/>
        <polygon class="h" points="151.64 225.17 151.64 227.06 163.53 227.06 163.53 253.44 186.64 253.44 186.64 225.17 151.64 225.17"/>
        <polygon class="h" points="182.18 205.59 179.65 204.74 174.96 218.78 160.92 218.78 160.92 221.44 176.88 221.44 182.18 205.59"/>
        <path class="h" d="M127.52,191.83a3.69,3.69,0,0,0,0,.47,3.07,3.07,0,0,0,0,.53,2.6,2.6,0,0,0-.87,2.37h0a4.14,4.14,0,0,0,2.31.16,3.59,3.59,0,0,0,1.08.68v.08c.54.88,2.23,1.07,3.69.76a1.7,1.7,0,0,0-.31,1.38,1.87,1.87,0,0,0,1,1.08,2.5,2.5,0,0,0,.38.15,1.08,1.08,0,0,0-.77,1.25c0,.15.25.67.41.71a8,8,0,0,0,3.63-.25,2.24,2.24,0,0,1,.33,2.49c-.08.2.44.63.4.72a3.59,3.59,0,0,0-.2-3.38c2.11-.73,3.77-2.19,2.33-4.18a3.79,3.79,0,0,0-1.18-1,1.58,1.58,0,0,0,.24-.15,2.1,2.1,0,0,0,.9-2c-.25-1.11-.85-1-1.9-1.21h0a5.6,5.6,0,0,0,.84-.44H140a.86.86,0,0,0,.69-.19,1.19,1.19,0,0,0,.42-.76,9.85,9.85,0,0,0,1.25-1.41.3.3,0,0,0,0-.26c.69-1.1.31-2.15-.62-3.06a4,4,0,0,0-.28-2.85c-1.19-2.42-3.77-2.33-6.2-1.28a6.2,6.2,0,0,0-1.59-.68,3.16,3.16,0,0,0-2.82.65,7.44,7.44,0,0,0-2.18,2.39,4.68,4.68,0,0,0-2.8,2.71c0,.07.18.09.39.05a3.15,3.15,0,0,0,1,4.34Zm.24,1.73a3.73,3.73,0,0,0,.16.35C127.66,193.86,127.6,193.74,127.76,193.56Zm2.19,1.87-.42-.15.48-.13a1.31,1.31,0,0,0,0,.28Zm-.07-1.6a9.09,9.09,0,0,1-1.73.11,2.57,2.57,0,0,1-.14-.61,10.76,10.76,0,0,1,1.32-.76h.16a2.73,2.73,0,0,0,.7,0h.35a12.07,12.07,0,0,1,1.69.35h0a6.56,6.56,0,0,0-1.5,1.11,5,5,0,0,1-.85-.2Zm-1.81-1.34a.48.48,0,0,1,.07-.3l.34.13Zm3.88-.28.23-.07v.11Zm-1.9-5.33a1.84,1.84,0,0,0-.17.22c-.06.08-.11.17-.16.25a1.09,1.09,0,0,0-.07-.24c0-.08.26-.11.4-.23Zm-.52-.33v-.13h.27a.84.84,0,0,0-.27.13Zm.66,3.71h0a4.67,4.67,0,0,0,.45.44,3.34,3.34,0,0,1-.85-.36Zm.43-.74c-.11-.24-.23-.48-.34-.71a2,2,0,0,1,.32-1.32,1.67,1.67,0,0,1,1-.7,3.33,3.33,0,0,0,.58,2.14,4.74,4.74,0,0,0,1,1,9.64,9.64,0,0,0-2.56-.41Zm1.1-3.65.06-.06v.06Zm5.66,3.3h0A3.08,3.08,0,0,0,136,189a6.81,6.81,0,0,0-.64-.88,3,3,0,0,0-2.56-2.2c.47-.94,2.33-1.37,3.77-1.41a3.3,3.3,0,0,1,1.39,1.06,2.36,2.36,0,0,1-.23,3.34A1.77,1.77,0,0,1,137.38,189.17Zm.88-4.39a9.88,9.88,0,0,1,2.1,1.19,4.69,4.69,0,0,1,.81.73v.08a7.27,7.27,0,0,1-1.22,1.84,5.46,5.46,0,0,0-.35-1.65q-.1-.27-.24-.54a2.47,2.47,0,0,0-.53-1.12,3.17,3.17,0,0,0-.57-.53Zm-.88,10.33a2.93,2.93,0,0,1,.45-1.63v-.07l.1.14a5.58,5.58,0,0,1,.75,1.84A5.3,5.3,0,0,0,137.38,195.11Zm.9.72h-.42A2.94,2.94,0,0,1,138.28,195.83Zm-.5-3.72h-.16a6.59,6.59,0,0,0-.88-.7h0l.51-.15h.37a2.92,2.92,0,0,0,.88-.17l.06.06A5.12,5.12,0,0,0,137.78,192.11Zm-1.94,2.1a4.43,4.43,0,0,0,.69-1.33h.81a12.1,12.1,0,0,0-.86,2.26l-.31.09A1.4,1.4,0,0,0,135.84,194.21Zm-.46-.51-.26-.22a5.83,5.83,0,0,0-1.16-.67l.22-.05a12.4,12.4,0,0,1,1.82.09,4.31,4.31,0,0,1-.62.85Zm-.9,1.78a5.26,5.26,0,0,0,.86-.7c.17.4-.12.63-.86.7Zm1.53-3.91.34.25a1.94,1.94,0,0,1-.07.33c-.61,0-1.22-.12-1.83-.14.05-.1.09-.2.13-.3a9.62,9.62,0,0,0,1.42-.14Zm-.66-2.4v-.08h0v.07Zm.1,1.35c.23-.07.45-.14.67-.23v.09l-.55.22-.12-.08Zm1.08-.28v-.12l.62-.31a.47.47,0,0,1,.26.11Zm.18,1.86.09.07h-.1a.56.56,0,0,0,0-.07Zm-2.59-2.42h-.07a.71.71,0,0,0-.14-.1,3.09,3.09,0,0,1-1.46-2.64h.07a3.56,3.56,0,0,1,1.6,2.74Zm-.83,2.81h-.1l-.21-.06a2.36,2.36,0,0,1,0-.65l.26-.13h.64c0,.1-.09.19-.13.29h-.18a.4.4,0,0,0-.28.55Zm-2.37-2.32h.69a9,9,0,0,1,1.55.22,3.8,3.8,0,0,0-.42.47h-.16a2.69,2.69,0,0,1-1.19-.23,1.73,1.73,0,0,1-.52-.45s0,0,0,0Zm1.69,3.42a2.3,2.3,0,0,1-1.21.45,4.49,4.49,0,0,1,1-.67,1.07,1.07,0,0,1,.21.22Zm.18,1.79a5.19,5.19,0,0,1-1.92.21,2.41,2.41,0,0,1-.05-.71,10.1,10.1,0,0,0,2-1l.21.2c.16.14.87-.18.75-.28l-.35-.42.08-.07a3.73,3.73,0,0,1,1.11.68l.25.23A6.18,6.18,0,0,1,132.79,195.38Zm2,3.35c-.88-.38-.09-1.54.51-2.07a3.46,3.46,0,0,1,1.24-.66,7.14,7.14,0,0,0,2.16.25,2.45,2.45,0,0,1-1.48,1.86,4.94,4.94,0,0,1-2.39.62Zm-.11,2.1c.43-.64,1.65-.7,2.64-.22a9.87,9.87,0,0,1-2.6.22Zm5.66-4c1.41,1.76-.21,3-2.23,3.57a4.91,4.91,0,0,0-1.74-.83,4,4,0,0,0,2.8-3.4l.2-.06a2.5,2.5,0,0,1,1,.72Zm-1-3.8c.7.22,1,.63.76,1.24a1.18,1.18,0,0,1-.75,1.38l-.17-.07a5.11,5.11,0,0,0-1-2.78,2.77,2.77,0,0,0,.48-.11,2.31,2.31,0,0,1,.72.31Zm-.65-1.18a2.44,2.44,0,0,1,.27-.29l.13.1a3.13,3.13,0,0,1-.36.19Zm.36-2.58-1,.38a2.61,2.61,0,0,0-.31-.27h0A4.16,4.16,0,0,0,139,188a2.3,2.3,0,0,1,.09,1.27Zm.81,1.93h0Zm1.9-1.92a7.51,7.51,0,0,1-1.08,1.24,1.63,1.63,0,0,0-.76-.09,2,2,0,0,0-.76.24,2,2,0,0,0,.53-.79,6.71,6.71,0,0,0,1.35-1.56,7.34,7.34,0,0,0,.53-1,2.2,2.2,0,0,1,.23,2Zm-4.64-6.56a4.47,4.47,0,0,1,2.11-.27,3.2,3.2,0,0,1,2.1,3.57,12.29,12.29,0,0,0-3.63-1.79,11.15,11.15,0,0,0-1.4-1.26c.31-.09.58-.18.86-.25Zm-1.51.5a6.93,6.93,0,0,1,.84.68,10.22,10.22,0,0,0-1.82-.25l1-.43Zm-4.35-.45a3.26,3.26,0,0,1,3.43-.1,14,14,0,0,0-1.81,1.12,15.18,15.18,0,0,0-3.07.53,4.6,4.6,0,0,1,1.49-1.55Zm-1.77,2.49a6.58,6.58,0,0,1,3-1.18A9.88,9.88,0,0,0,130.7,186a6.41,6.41,0,0,0-1.23-.12,3.18,3.18,0,0,1,.06-.62Zm-.6,2.62c.19.46.43.91.66,1.34a2.59,2.59,0,0,0,.17.38,4.44,4.44,0,0,0-.6.16l-.15-.22a1.69,1.69,0,0,1,0-1.66Zm.29,2.76a4,4,0,0,0,.58.2,6.68,6.68,0,0,0,1.33.2,3.82,3.82,0,0,0,1.21.52v.08a4.91,4.91,0,0,1-3.94,0,2.45,2.45,0,0,1,.86-1Zm-.68-5.11a1.34,1.34,0,0,0,0,.4,3,3,0,0,0-1.51.78,2.07,2.07,0,0,1,1.55-1.18Zm0,1.12a6,6,0,0,0,.15.61c-.82.91-1.09,2.08-.27,2.88a2.11,2.11,0,0,0-.74,1A2.74,2.74,0,0,1,127,190a2.45,2.45,0,0,1,1.22-3.23,2.19,2.19,0,0,1,.33-.12Z"/>
        <path class="h" d="M137.42,236.67h-11c-3.21,0-5-1.22-5.66-3.95-1-3.89-4-15.67-4-15.67h0a2,2,0,0,0-3.86,1h0s3,11.77,4,15.66c.81,3.17,3.13,6.95,9.53,6.95H127v6.77h-5.61v1.34h6.88v1.95h1.33v-1.95h5.18a1.07,1.07,0,0,1,.75.23,1.1,1.1,0,0,1,.28.85v.83h1.33v-.83a2.35,2.35,0,0,0-.72-1.84,2.42,2.42,0,0,0-1.69-.58H131v-6.77h6.45a2,2,0,0,0,0-4Z"/>
      </g>
    </g>
  </g>
  <g>
    <circle class="k" cx="227.75" cy="214.06" r="38.75"/>
    <g class="l">
      <g>
        <polyline class="m" points="256.06 230.63 269.22 224.41 270.59 227.52 256.08 234.53"/>
        <rect class="m" x="220.22" y="214.88" width="35.84" height="45.13"/>
        <line class="i" x1="220.22" y1="221.66" x2="256.06" y2="221.66"/>
        <line class="i" x1="220.22" y1="212.54" x2="256.54" y2="212.54"/>
        <line class="i" x1="220.22" y1="242.98" x2="256.06" y2="242.98"/>
        <line class="i" x1="220.22" y1="250.89" x2="256.06" y2="250.89"/>
        <line class="n" x1="234.99" y1="247.01" x2="241.29" y2="247.01"/>
        <g>
          <circle class="h" cx="209.48" cy="190.74" r="5.49"/>
          <path class="h" d="M206,211.21c1.49-1.57,5.25-8.32,6.09-9.81s.69-2.7-.24-3.39a2.08,2.08,0,0,0-2.91.41l-.09.12c-1,1.13-6.78,9.52-6.78,9.52l-.7-.55,5.38-7.8a11.9,11.9,0,0,0-6.9,5.32c-1.37,2.39-1.53,7.63.53,8.72S204.51,212.78,206,211.21Z"/>
          <path class="h" d="M221.1,207.59c-1.1-4.41-3.57-6.59-7.37-8.1.59,1.45-5.17,10-6.7,12.24l8.9-.1v-3.37h1V213H206.44c-1.67,0-2.91.89-3,2.18s.94,2.29,2.72,2.42,7.75.27,12.13.19S222.21,212,221.1,207.59Z"/>
          <path class="h" d="M202.59,214.72l-.56.38v36.54h7.05V231c0-1.58,1.07-1.34,1.07-.05v23H217v-35.3H206.27C203.55,218.65,202,216.69,202.59,214.72Z"/>
        </g>
        <path class="h" d="M222.52,181.72a8.64,8.64,0,0,1,4.24-1.15c4.15,0,6.45,2.73,6.45,5.7,0,2.51-1.45,3.75-2.76,4.87-1.53,1.31-1.58,1.58-1.84,2.68-.12.53-.29,1.24-1.92,1.24s-1.92-1-1.92-1.66a5,5,0,0,1,2.16-3.87c1.92-1.56,2.45-2,2.45-3.14,0-1.39-1.19-2.29-2.86-2.29a5,5,0,0,0-2.88.93,2,2,0,0,1-1.34.61,1.73,1.73,0,0,1-1.61-1.81.17.17,0,0,0,0-.07C220.7,183.32,220.8,182.62,222.52,181.72ZM229,198.56a2.34,2.34,0,1,1-2.35-2.33h0a2.32,2.32,0,0,1,2.32,2.32Z"/>
      </g>
    </g>
  </g>
</svg>
