<svg id="btn" xmlns="http://www.w3.org/2000/svg" width="213" height="46" viewBox="0 0 213 46">
  <metadata><?xpacket begin="﻿" id="W5M0MpCehiHzreSzNTczkc9d"?>
<x:xmpmeta xmlns:x="adobe:ns:meta/" x:xmptk="Adobe XMP Core 5.6-c142 79.160924, 2017/07/13-01:06:39        ">
   <rdf:RDF xmlns:rdf="http://www.w3.org/1999/02/22-rdf-syntax-ns#">
      <rdf:Description rdf:about=""/>
   </rdf:RDF>
</x:xmpmeta>
                                                                                                    
                                                                                                    
                                                                                                    
                                                                                                    
                                                                                                    
                                                                                                    
                                                                                                    
                                                                                                    
                                                                                                    
                                                                                                    
                                                                                                    
                                                                                                    
                                                                                                    
                                                                                                    
                                                                                                    
                                                                                                    
                                                                                                    
                                                                                                    
                                                                                                    
                                                                                                    
                           
<?xpacket end="w"?></metadata>
<defs>
    <style>
      .cls-1 {
        fill: #eb5505;
      }

      .cls-2 {
        fill: #fff;
        fill-rule: evenodd;
      }
    </style>
  </defs>
  <rect id="長方形_2" data-name="長方形 2" class="cls-1" width="213" height="46" rx="8" ry="8"/>
  <path id="申込相談フォーム_のコピー" data-name="申込相談フォーム のコピー" class="cls-2" d="M1105.88,48.6V44.245h6.47V34.054h-6.47V31.731h-1.89v2.323h-6.42V44.245h6.42V48.6h1.89Zm-1.89-12.82v2.5h-4.59v-2.5h4.59Zm6.54,2.5h-4.65v-2.5h4.65v2.5Zm-6.54,1.62V42.5h-4.59V39.906h4.59Zm6.54,2.593h-4.65V39.906h4.65V42.5Zm10.4,2.809a16.636,16.636,0,0,0,5.44-7.94,15.548,15.548,0,0,0,4.52,8.048l1.3-1.675c-2.36-2.143-4.56-5.114-4.79-11.4h-5.71v1.783h3.82a13.634,13.634,0,0,1-5.96,9.507Zm-5.67-12.064a19.08,19.08,0,0,1,3.19,3.133l1.35-1.368a16.2,16.2,0,0,0-3.3-3.025Zm-0.23,7.184h2.16v4.213a15.68,15.68,0,0,1-2.42,1.675l0.94,2.2a19.28,19.28,0,0,0,2.52-2.575c0.61,0.792,1.71,2.179,4.99,2.179h8.48l0.34-1.837h-9.24a3.869,3.869,0,0,1-3.81-1.891V38.628h-3.96v1.8Zm34.72-8.1h-8.66V48.206h8.66V32.326Zm-1.82,9.291h-5.06V38.682h5.06v2.935Zm0-4.645h-5.06v-2.9h5.06v2.9Zm0,9.471h-5.06V43.327h5.06v3.115Zm-7.23-5.132a12.447,12.447,0,0,1-2.61-3.259V36.827h2.3v-1.8h-2.3v-3.3h-1.75v3.3h-2.86v1.8h2.61a16.216,16.216,0,0,1-2.92,5.78l0.67,2.269a16.645,16.645,0,0,0,2.5-5.005v8.8h1.75V40.608A13.668,13.668,0,0,0,1139.67,43Zm22.12-9.6v0.918a6.222,6.222,0,0,1-4.32,5.978l0.99,1.711a8.333,8.333,0,0,0,4.28-4.411,9.1,9.1,0,0,0,4.42,4.447l0.95-1.729c-2.02-.846-4.52-2.521-4.52-6.1v-0.81h-1.8Zm-10.37,5.654v1.6h5.76v-1.6h-5.76Zm10.37,2.053v1.152a7.5,7.5,0,0,1-1.19,4.087,6.073,6.073,0,0,1-3.33,2.251l1.01,1.693a8.242,8.242,0,0,0,4.5-4.519c0.65,1.8,1.71,3.187,4.5,4.519l0.87-1.819c-1.61-.63-4.61-1.927-4.61-6.32V39.42h-1.75Zm-10.37-7.274v1.639h5.76V32.146h-5.76Zm9.07,3.619a13.661,13.661,0,0,0-.79-3.241l-1.66.486a11.34,11.34,0,0,1,.63,3.277Zm-9.07,4.285v1.639h5.76V40.05h-5.76Zm9.18,4a15.6,15.6,0,0,0-1.17-3.475l-1.66.522a13.358,13.358,0,0,1,1.05,3.457Zm-9.18-1.278V48.26h5.76V42.769h-5.76Zm4.16,3.925h-2.56V44.317h2.56v2.377Zm-4.72-11.938v1.638h6.91V34.756h-6.91Zm15.32,1.494a13.77,13.77,0,0,0,1.3-3.241l-1.68-.558a11.516,11.516,0,0,1-1.2,3.169Zm-0.12,4.249a13.745,13.745,0,0,1-1.32,3.367l1.53,0.738a15.5,15.5,0,0,0,1.48-3.637Zm4.83-6.86v2h11.62c-0.51,4.033-2,8.553-10.08,10.083l0.84,1.891c9.72-2.017,11.2-8.48,11.54-13.972h-13.92Zm25.64,5.96a17.938,17.938,0,0,1-6.77,5.618l1.06,1.494a18.97,18.97,0,0,0,6.21-5.348l0.02,4.2c0,0.612-.11.72-0.63,0.72-0.07,0-1.49-.072-2.21-0.162l0.25,1.729c0.84,0.09,1.67.09,1.82,0.09,0.86,0,2.57,0,2.55-2.2l-0.05-6.14h3.44V37.889h-3.44l-0.02-2.431h-1.78l0.02,2.431h-6.76V39.6h6.29Zm10.42-.5V41.2h15.45V39.1h-15.45Zm18.79,7.994c5.82-.216,8.86-0.558,12.46-0.954,0.34,0.792.43,1.08,0.63,1.62l2.02-.882a31.932,31.932,0,0,0-4.56-8.012l-1.73.864a34.738,34.738,0,0,1,2.87,4.7c-3.17.324-5.06,0.4-8.21,0.522a84.125,84.125,0,0,0,3.97-11.956l-2.17-.378a112.161,112.161,0,0,1-3.82,12.37c-0.16,0-1.62.018-1.68,0.018Z" transform="translate(-1067 -17)"/>
  <path id="シェイプ_1" data-name="シェイプ 1" class="cls-2" d="M1268.47,38.834l-5.73-5.13c-0.78-.7-1.95.44-1.16,1.146q2.535,2.283,5.09,4.565c-1.71,1.574-3.41,3.15-5.12,4.725a0.819,0.819,0,0,0,1.17,1.146q2.865-2.653,5.75-5.306A0.813,0.813,0,0,0,1268.47,38.834Z" transform="translate(-1067 -17)"/>
</svg>
