<svg id="お申し込み期限" xmlns="http://www.w3.org/2000/svg" width="206" height="206" viewBox="0 0 206 206">
  <metadata><?xpacket begin="﻿" id="W5M0MpCehiHzreSzNTczkc9d"?>
<x:xmpmeta xmlns:x="adobe:ns:meta/" x:xmptk="Adobe XMP Core 5.6-c142 79.160924, 2017/07/13-01:06:39        ">
   <rdf:RDF xmlns:rdf="http://www.w3.org/1999/02/22-rdf-syntax-ns#">
      <rdf:Description rdf:about=""/>
   </rdf:RDF>
</x:xmpmeta>
                                                                                                    
                                                                                                    
                                                                                                    
                                                                                                    
                                                                                                    
                                                                                                    
                                                                                                    
                                                                                                    
                                                                                                    
                                                                                                    
                                                                                                    
                                                                                                    
                                                                                                    
                                                                                                    
                                                                                                    
                                                                                                    
                                                                                                    
                                                                                                    
                                                                                                    
                                                                                                    
                           
<?xpacket end="w"?></metadata>
<defs>
    <style>
      .cls-1 {
        fill: #eb5505;
        stroke: #fff;
        stroke-linejoin: round;
        stroke-width: 6px;
      }

      .cls-2 {
        fill: #fff;
        fill-rule: evenodd;
      }
    </style>
  </defs>
  <circle id="楕円形_1" data-name="楕円形 1" class="cls-1" cx="103" cy="103" r="100"/>
  <path id="_9月28日_金_まで_のコピー" data-name="9月28日（金） まで のコピー" class="cls-2" d="M1101.86,222.014a12.667,12.667,0,0,0,5.19.9c10.53,0,16.76-8.627,16.76-20.914,0-14.636-9.26-16.353-13.19-16.353a12.1,12.1,0,0,0-12.51,12.287,11.328,11.328,0,0,0,11.65,11.609,11.026,11.026,0,0,0,8.58-3.839c-0.9,6.911-4.11,12.332-11.47,12.332a12.691,12.691,0,0,1-5.01-.994v4.969Zm1.62-24.257a7.074,7.074,0,0,1,7.23-7.228,7.16,7.16,0,0,1,7.45,7.228c0,4.246-3.66,7.046-7.63,7.046C1107.05,204.8,1103.48,202.635,1103.48,197.757Zm41.62,3.949h-17.75v10.472c0,6-1.55,8.17-3.06,10.27l2.43,1.973a14.892,14.892,0,0,0,3.26-8.348h12.37v4.73a0.71,0.71,0,0,1-.81.835h-4.18l0.41,2.783h4.93a2.265,2.265,0,0,0,2.4-2.53V201.706Zm-2.75,2.479v3.288H1130.1v-3.288h12.25Zm0,5.716v3.693H1130.1V209.9h12.25Zm18.47,7.415c11.16-11.925,13.28-15.855,13.28-20.96,0-7.769-6.23-10.706-11.34-10.706a13.556,13.556,0,0,0-11.24,5.692l2.25,5.376c0.86-1.446,3.53-6.189,8.86-6.189a5.728,5.728,0,0,1,6.1,5.963c0,3.026-1.31,5.691-6.78,12.106-4.61,5.42-8.76,9.667-12.69,13.6h26.38v-4.879h-14.82Zm35.5-15.087a8.432,8.432,0,0,0,3.93-7.273c0-5.33-4.24-9.306-10.75-9.306-6.55,0-10.75,3.976-10.75,9.306a8.455,8.455,0,0,0,3.93,7.273,10.4,10.4,0,0,0-5.92,9.441c0,6.595,5.79,11.247,12.74,11.247s12.74-4.652,12.74-11.247A10.38,10.38,0,0,0,1196.32,202.229Zm-6.82,15.81c-4.29,0-7.36-2.891-7.36-6.46,0-2.665,1.85-6.414,7.36-6.414,5.56,0,7.37,3.794,7.37,6.414C1196.87,215.148,1193.79,218.039,1189.5,218.039Zm0-17.888c-4.29,0-5.55-2.846-5.55-5.014,0-3.253,2.66-4.969,5.55-4.969s5.56,1.671,5.56,5.014C1195.06,197.305,1193.75,200.151,1189.5,200.151Zm16.18,1.707v21.905h19.58v-21.9h-19.58Zm2.79,2.6h13.98v6.931h-13.98v-6.931Zm13.98,9.511v7.184h-13.98v-7.184h13.98Zm12.19,10.1a14.852,14.852,0,0,1,0-18.962h-1.9a14.344,14.344,0,0,0,0,18.962h1.9Zm4.96-11.361h4.86v2.2h-7.6v1.86h7.6V221.6h-1.86a23.881,23.881,0,0,0-1.6-4.281l-2.02.62a22.072,22.072,0,0,1,1.44,3.661h-3.94v1.9h18.04v-1.9h-4.24a32.089,32.089,0,0,0,1.58-3.821l-2.14-.5c-0.42,1.42-1.26,3.6-1.58,4.321h-1.64v-4.821h7.56v-1.86h-7.56v-2.2h4.9v-1.38c1.42,0.8,2.02,1.1,2.58,1.38l1.16-2.02a26.146,26.146,0,0,1-8.72-5.621h-1.82a21.554,21.554,0,0,1-8.62,5.581l1.18,1.92c0.68-.32,1.4-0.66,2.44-1.24v1.38Zm0.96-1.92a24.05,24.05,0,0,0,4.92-3.86,29.434,29.434,0,0,0,5,3.86h-9.92Zm17.68,13.281a14.344,14.344,0,0,0,0-18.962h-1.9a14.852,14.852,0,0,1,0,18.962h1.9Zm-87.36,15.3V237.4h-2.24v1.981h-7.46V241.3h7.46v2.164h-7.12v1.9h7.12v2.022a11.1,11.1,0,0,0-1.8-.162c-3.03,0-5.14,1.578-5.14,3.721,0,1.3.89,3.519,5,3.519,1.8,0,4.1-.647,4.16-3.276l0.02-.95a14.955,14.955,0,0,1,4.43,3.4l1.46-2.123a19.015,19.015,0,0,0-5.89-3.58v-2.568h5.87v-1.9h-5.87V241.3h6.29v-1.921h-6.29Zm-2.24,11.224c0,1.516-.91,1.921-2.25,1.921-2.44,0-2.58-1.375-2.58-1.659,0-1.132,1.29-1.82,2.97-1.82a6.263,6.263,0,0,1,1.86.263v1.3Zm23.05-6.856a16.829,16.829,0,0,1,2.15,3.883l1.53-.93a18.9,18.9,0,0,0-2.24-3.822Zm2.91-1.314a17.157,17.157,0,0,1,2.17,3.862l1.53-.91a17.506,17.506,0,0,0-2.26-3.8Zm2.63-4.146c-3.5.061-5.7,0.1-8.79,0.243-1.16.061-6.7,0.384-8.17,0.4l0.16,2.447c1.88-.222,7.06-0.586,9.2-0.728-1.78,1.092-5.42,3.661-5.42,7.543,0,5.8,6.83,6.026,10.92,6.148l0.4-2.427a24.982,24.982,0,0,1-5.01-.3c-1.96-.364-3.96-1.032-3.96-3.559,0-3.3,3.76-6.411,6.63-7.3a6.383,6.383,0,0,1,2.14-.242c0.55,0,1.17.04,1.94,0.081Z" transform="translate(-1076 -97)"/>
  <path id="お申し込み期限_のコピー" data-name="お申し込み期限 のコピー" class="cls-2" d="M1123.75,160.62h4.29v-1.494h-4.29V156.84h-1.58v2.286h-4.34v1.494h4.34v2.611c-1.64.63-4.65,1.8-4.65,4.86,0,2.089,1.59,3.529,3.98,3.529,1.95,0,2.25-.954,2.25-1.8v-5.509a13.4,13.4,0,0,1,2.45-.216c3.67,0,4.29,2.124,4.29,3.258,0,2.989-3.33,3.061-4.94,3.079l0.27,1.494a11.027,11.027,0,0,0,3.21-.432,4.14,4.14,0,0,0,3.2-4.087,4.43,4.43,0,0,0-1.76-3.618,7.609,7.609,0,0,0-4.47-1.116,12.632,12.632,0,0,0-2.25.216V160.62Zm-1.56,8.929c0,0.343-.13.523-0.74,0.523a2.144,2.144,0,0,1-2.4-2.071c0-1.962,2.07-2.826,3.14-3.276v4.824Zm5.96-11.737a13.772,13.772,0,0,1,3.4,4.735l1.47-.865a12.886,12.886,0,0,0-3.63-4.752Zm15.44,15.032v-4.537h6.58v-9.883h-6.58v-2.268h-1.47v2.268h-6.55v9.883h6.55v4.537h1.47Zm-1.47-13.052v2.881h-5.11v-2.881h5.11Zm6.59,2.881h-5.12v-2.881h5.12v2.881Zm-6.59,1.278v3.006h-5.11v-3.006h5.11Zm6.59,3.006h-5.12v-3.006h5.12v3.006Zm5.93-9.973c-0.02,1.224-.13,7.2-0.13,8.551,0,3.132.32,6.427,5.26,6.427,5.47,0,6.64-3.709,7.22-6.967l-1.52-.558c-0.5,2.736-1.1,5.977-5.76,5.977-3.38,0-3.49-2.413-3.49-4.717,0-1.71.07-3.853,0.23-8.713h-1.81Zm20.44,12.727a17.007,17.007,0,0,0,5.45-8.515,16.243,16.243,0,0,0,4.67,8.606l1.06-1.261c-3.96-3.438-4.86-8.281-4.95-11.809h-5.37v1.422h3.93a14.765,14.765,0,0,1-5.91,10.279Zm-1.15-10.567a17.948,17.948,0,0,0-3.31-2.79l-0.98,1.026a16.862,16.862,0,0,1,3.24,2.9Zm-4.57,4v1.422h2.32v4.518a14.411,14.411,0,0,1-2.52,2.2l0.77,1.6a18.634,18.634,0,0,0,2.59-2.772c0.6,0.828,1.68,2.358,5.15,2.358h8.27l0.25-1.458h-8.75c-1.98,0-3.91-.558-4.3-2.557v-5.31h-3.78Zm27.05,9.091a7.884,7.884,0,0,0,5.19-6.139,14.112,14.112,0,0,1,2.01,1.044l0.54-1.62a18.458,18.458,0,0,0-2.21-1.026c0.27-1.44.41-3.007,0.54-4.3l-1.71-.126a36.842,36.842,0,0,1-.4,3.871,17.532,17.532,0,0,0-4.34-.954c0.6-3.547.65-3.943,0.88-5.743h-7.45V158.8l5.64-.054c-0.11,1.278-.35,2.88-0.6,4.177-5.88.234-6.21,4.1-6.21,4.986a2.86,2.86,0,0,0,2.99,3.079c2.72,0,3.51-2.575,4.48-6.589a16.32,16.32,0,0,1,4.32,1.062c-0.63,2.61-1.56,4.411-4.66,5.527Zm-2.18-7.921c-0.95,3.906-1.44,5.256-3.06,5.256a1.559,1.559,0,0,1-1.46-1.746,3.364,3.364,0,0,1,1.91-2.97A5.874,5.874,0,0,1,1194.23,164.311Zm13.23-8.137v1.854h-1.17v1.332h1.17v7.345h-1.44V168h9.11v-1.3h-1.17V159.36h1.17v-1.332h-1.17v-1.854h-1.39v1.854h-3.74v-1.854h-1.37Zm5.11,7.633h-3.74V162.15h3.74v1.657Zm0-2.845h-3.74v-1.6h3.74v1.6Zm0,5.743h-3.74v-1.728h3.74v1.728Zm9.53-9.973h-6.2v6.7c0,4.626-.66,6.337-2.21,8.407l1.19,0.972a11.434,11.434,0,0,0,2.19-5.509h3.61v3.637a0.426,0.426,0,0,1-.53.522l-1.89-.054,0.27,1.476h2.15a1.162,1.162,0,0,0,1.42-1.332V156.732Zm-1.42,4.59h-3.37v-3.258h3.37v3.258Zm0,4.645h-3.44c0.05-1.35.07-1.908,0.07-2.538v-0.774h3.37v3.312Zm-13.87,6.913a11.939,11.939,0,0,0,2.88-3.907l-1.27-.63a10.044,10.044,0,0,1-2.6,3.439Zm7.28-2.232a11.071,11.071,0,0,0-1.86-2.251l-0.99.774a15.762,15.762,0,0,1,1.8,2.4Zm25.07-10.64h-5.83v-2.07h5.83v2.07Zm1.21,5a18.163,18.163,0,0,1-2.92,2.286,14.174,14.174,0,0,1-.95-2.646h4.12v-8.011h-8.73v14.294c-0.53.108-.98,0.18-1.84,0.324l0.25,1.422s4.43-.882,6.3-1.53l-0.05-1.332c-0.59.18-1.57,0.468-3.22,0.828v-6h1.82a12.23,12.23,0,0,0,5.4,8.209l0.9-1.3a10.9,10.9,0,0,1-3.33-3.115,22.289,22.289,0,0,0,3.2-2.358Zm-1.21-1.656h-5.83v-2.143h5.83v2.143Zm-14.11-6.715v16.22h1.45v-14.87h2.67a31.988,31.988,0,0,1-1.89,4.573,4.985,4.985,0,0,1,2.14,3.816c0,1.188-.58,1.35-1.15,1.332l-1.28-.036,0.22,1.494h1.26a3.076,3.076,0,0,0,1.35-.342,2.536,2.536,0,0,0,1.11-2.25,5.868,5.868,0,0,0-2.09-4.3,39.07,39.07,0,0,0,1.95-4.375v-1.26h-5.74Z" transform="translate(-1076 -97)"/>
</svg>
