<svg xmlns="http://www.w3.org/2000/svg" width="960" height="216" viewBox="0 0 960 216">
  <defs>
    <style>
      .a {
        fill: #fff;
      }

      .b {
        fill: #eb5505;
      }

      .c {
        fill: #595656;
      }
    </style>
  </defs>
  <title>main_img_copy</title>
  <path class="a" d="M30,0H930a30,30,0,0,1,30,30V160a30,30,0,0,1-30,30H30A30,30,0,0,1,0,160V30A30,30,0,0,1,30,0ZM480,216l-45.9-79.5h91.8Z"/>
  <path class="b" d="M551.94,148.32H813v3h-261Z"/>
  <path class="b" d="M329.19,85.1H784.48v3H329.19Z"/>
  <path class="b" d="M150.1,85.1H295.32v3H150.1Z"/>
  <g>
    <path class="b" d="M156.69,54.66A14.79,14.79,0,0,1,164,52.77c2.06,0,5.38.36,7.48,2.81,1,1.25,1.5,2.78,1.5,5.67v8.44a10.19,10.19,0,0,0,.82,4.84h-4.6a4.9,4.9,0,0,1-.46-2.17A9.2,9.2,0,0,1,162,75.1c-3.71,0-7.1-2.14-7.1-6.48,0-6.16,6.17-7,10-7.48,2.32-.32,3.36-.43,3.36-1.74S166.92,57,164.1,57a13,13,0,0,0-7,2.18Zm11.69,9.44c-1.07.49-1.36.53-4,.89-2.25.28-5.06.64-5.06,3.45,0,1.43.89,2.64,3,2.64a7.16,7.16,0,0,0,6.06-3.56Z"/>
    <path class="b" d="M195.71,53.34V74.53h-4.56V72.18a7.07,7.07,0,0,1-6,2.92A6.57,6.57,0,0,1,179,71.65c-.82-1.61-1-3.21-1-6.38V53.34h4.7v12c0,2.35,0,5.41,3.71,5.41.61,0,4.56-.14,4.56-5.41v-12Z"/>
    <path class="b" d="M229.93,52c-1.39-.07-2.39-.11-3.21-.11a13.4,13.4,0,0,0-4,.46c-4.92,1.46-11.27,6.84-11.27,12.36,0,3.53,2.32,6.13,13.12,6.13,1.07,0,1.68,0,2.32-.07l-.75,5.12c-6.74-.14-19.61-.32-19.61-10.93,0-6.34,5.53-10.65,8.7-12.68-3.6.25-12,.89-15.22,1.28l-.32-5.12c2.35,0,3.57-.08,7.38-.32,8.66-.57,15.47-.75,22.71-.89Zm-7.31,3.81a32.52,32.52,0,0,1,4,6.69l-2.92,1.71a29.06,29.06,0,0,0-3.81-6.8Zm5-2.28a32.4,32.4,0,0,1,4.06,6.66l-2.92,1.64a29.25,29.25,0,0,0-3.89-6.77Z"/>
    <path class="b" d="M247.7,46.61c-1.68,3.81-4.17,10.54-5,12.79A6.39,6.39,0,0,1,247,57.86c5.74,0,5.74,5.38,5.74,8.09V68.3c0,1.89.6,3,2.35,3,1.11,0,2.75-.32,3.82-3.92a24.94,24.94,0,0,0,1-7.27l4.6,1.29c-.29,5-1.14,14.6-9.88,14.6C249,76,248,72,248,68.44V67.05c0-2.92,0-4.7-2.25-4.7-2.63,0-4.67,2.64-5.52,5.2a69.78,69.78,0,0,0-2.32,8.51L233,74.5c2.28-7.55,4.6-15.14,7.24-22.58.36-1,1.78-5,2.17-6.63Z"/>
    <path class="b" d="M298.5,59.89a67.53,67.53,0,0,1-8.69,1,20.85,20.85,0,0,0,3.21,4.7l-4.17,2.67a23.67,23.67,0,0,1-4.21-7.16c-.82,0-1.68,0-1.93,0H268.92v-4h12.76c.54,0,1.07,0,1.6,0-.07-.18-.46-1.53-.85-3.35-.78,0-.89,0-1.36,0H270.2v-4.1h11.52c-.22-2-.32-2.64-.4-4l5-.11a36.09,36.09,0,0,0,.32,3.92,61.87,61.87,0,0,0,8.77-1l.43,4.17a70,70,0,0,1-8.52.92,22.94,22.94,0,0,0,.89,3.38,52.51,52.51,0,0,0,9.76-1.24ZM278,65.73c-1.1,1.25-1.46,2-1.46,2.75,0,2.67,4.25,3.13,9.27,3.13a83.86,83.86,0,0,0,9-.43l.18,4.63c-1.67.11-3.38.25-8,.25-7.88,0-9.88-.82-11.34-1.46-1.92-.89-3.92-2.81-3.92-5.38,0-1.53.5-3.13,2.53-5.34Z"/>
    <path class="c" d="M327.77,61.34c-2.42.23-17,1.91-17,7.4,0,2.85,3.35,3.06,8.35,3.06a93.33,93.33,0,0,0,9.53-.47v4c-1.71.12-4.18.3-8.38.3-4.88,0-13.68,0-13.68-6.73,0-4.88,5.59-7.5,7.5-8.38-1.14-1.85-1.2-4.14-1.2-9.7h4.2c0,.92-.06,1.89-.06,3.47,0,2.62.09,3.91.65,4.91a55.51,55.51,0,0,1,9.58-2Z"/>
    <path class="b" d="M341.17,58.36l10.37-12.25h6.13L346.19,59.22l12.48,15.31h-6.34L341.17,60.11V74.53h-5V46.11h5Z"/>
    <path class="b" d="M361.7,46.11h10.73a17.94,17.94,0,0,1,7.16,1.07c7,2.6,7.88,9.9,7.88,13.14,0,3.06-.78,10.4-7.84,13.14a20.2,20.2,0,0,1-7.49,1.07H361.7Zm5,23.83h4.64c4.24,0,11.05,0,11.05-9.62s-6.85-9.61-10.91-9.61h-4.78Z"/>
    <path class="b" d="M391.9,46.11h10.73a17.94,17.94,0,0,1,7.16,1.07c6.95,2.6,7.88,9.9,7.88,13.14,0,3.06-.78,10.4-7.84,13.14a20.17,20.17,0,0,1-7.49,1.07H391.9Zm5,23.83h4.63c4.24,0,11.05,0,11.05-9.62s-6.84-9.61-10.91-9.61h-4.77Z"/>
    <path class="b" d="M427.5,46.11V74.53h-5.13V46.11Z"/>
    <path class="b" d="M475.37,49.07v4h-10.8V56.3h10v4h-10v4a33.61,33.61,0,0,1,10.12,6.2l-3,4.38a26,26,0,0,0-7.09-5.63l0,1.25c-.1,4.27-4.06,5.55-7.52,5.55-7.38,0-9.09-4-9.09-6.41,0-3.81,3.75-6.69,9.2-6.69a15.61,15.61,0,0,1,2.74.25V60.29H447.71v-4h12.15V53.09H447.07v-4h12.79V45.83h4.71v3.24ZM459.86,67.19a10.24,10.24,0,0,0-3-.46c-2.49,0-4.49,1.07-4.49,2.74,0,.47.25,2.57,4.07,2.57,1.74,0,3.45-.46,3.45-2.89Z"/>
    <path class="b" d="M506.42,58.54c-2.92.29-20.57,2.32-20.57,9,0,3.45,4.07,3.7,10.12,3.7a109.7,109.7,0,0,0,11.55-.57v4.88c-2.06.14-5.06.35-10.15.35-5.92,0-16.58,0-16.58-8.15,0-5.91,6.77-9.08,9.09-10.15-1.39-2.24-1.46-5-1.46-11.75h5.1c0,1.1-.08,2.28-.08,4.2,0,3.17.11,4.74.79,5.95a68.13,68.13,0,0,1,11.62-2.43Z"/>
    <path class="b" d="M519.14,47.57a47.54,47.54,0,0,0,1,5.74,17.64,17.64,0,0,1,7.41-2.18c.18-2.13.21-3.24.29-5.41l4.84.32c-.21,2.78-.28,3.74-.46,5.16,10.66,1.36,10.66,11.12,10.66,12.33,0,11.46-11.16,12.32-14,12.53l-1.35-4.31c5.66-.21,10.8-2.13,10.8-8.51,0-6.76-5-7.69-6.81-7.94-2.5,14.42-8.7,18.48-12.73,18.48-4.31,0-6.52-3.88-6.52-8.08a13.63,13.63,0,0,1,4.38-10,57.35,57.35,0,0,1-1.6-7Zm-1,12.61a9.38,9.38,0,0,0-1.75,5.52c0,2.06.9,3.7,2.64,3.7,1.32,0,2.21-.71,3.32-1.92C522,67.09,520.1,65.13,518.14,60.18Zm9.09-5a15.84,15.84,0,0,0-6,2.1,24.28,24.28,0,0,0,3.25,7A36.08,36.08,0,0,0,527.23,55.19Z"/>
    <path class="b" d="M575.36,52c-1.4-.07-2.39-.11-3.21-.11a13.36,13.36,0,0,0-4,.46c-4.92,1.46-11.27,6.84-11.27,12.36,0,3.53,2.32,6.13,13.12,6.13,1.07,0,1.67,0,2.32-.07l-.75,5.12C564.84,75.74,552,75.56,552,65c0-6.34,5.53-10.65,8.7-12.68-3.6.25-12,.89-15.22,1.28l-.32-5.12c1.64,0,3.56-.08,7.38-.32,8.23-.54,14.33-.75,22.7-.89Z"/>
    <path class="b" d="M580.35,56.05V51.56H596.5V45.9h4.74v5.66h8.09v4.49h-8.05V71.36c0,4.74-3.93,4.74-5.53,4.74-.75,0-1.14,0-4.85-.18l-.64-4.67c2.71.25,3.67.33,4.53.33,1.21,0,1.78-.25,1.78-1.36l0-9.68A43,43,0,0,1,581.81,73L579,69.26a48.39,48.39,0,0,0,16.15-13.21Z"/>
    <path class="b" d="M642.57,48c-.57,9.19-2.24,23.72-23,27.92l-2.07-4.45c15.33-2.89,18.5-10.72,19.61-18.81H614.84V48Z"/>
    <path class="b" d="M662.83,76.45h-4.38v-12a47.27,47.27,0,0,1-10.16,4.81l-2-3.89a41.6,41.6,0,0,0,20.74-14.17L670.78,54a50.41,50.41,0,0,1-7.95,7.48Z"/>
    <path class="b" d="M701,47.43a36.15,36.15,0,0,1-6.38,14.81A108.83,108.83,0,0,1,706.2,72.29l-4,3.84a112.72,112.72,0,0,0-10.52-10.36,43.19,43.19,0,0,1-13.86,10.29l-2.71-4a34,34,0,0,0,12.61-8.83,32.85,32.85,0,0,0,7-11.36H677.08V47.43Z"/>
    <path class="b" d="M716.56,55.76a48,48,0,0,1-5.74,3l-2.21-4.38c8.66-3.38,12.9-7.33,14.83-10.18h5.06c1.92,2.42,5.42,6.41,14.72,10.18l-2.28,4.35a35,35,0,0,1-5.63-3v2H716.56Zm20.67,22.33c-.39-.71-.64-1.24-1.42-2.53A219.75,219.75,0,0,1,711,77.1l-.57-4.49,5.09,0a51.73,51.73,0,0,0,3.07-7.37H710V61.1h31.72v4.17H723.69c-1.36,3.17-2.25,5.2-3.35,7.34,1.14,0,7.09-.14,12.94-.61-.79-1.07-1.72-2.24-3.6-4.41l3.77-2a55.9,55.9,0,0,1,7.84,10.22Zm-4.74-24.32a35.69,35.69,0,0,1-6.56-6,28.4,28.4,0,0,1-6.41,6Z"/>
    <path class="b" d="M776.9,77.91a34.55,34.55,0,0,1-12-3.91l2.49-2.46H755.47l2.43,2.53c-2.07,1.21-5.28,2.78-11.44,4l-2-3.92a28.69,28.69,0,0,0,10-2.56h-7.38V55.19h29V71.54h-7.6a30.29,30.29,0,0,0,10.27,2.39Zm-2-32.8v8.41H748.31V45.11Zm-23.53,13v1.78h20.32V58.11Zm0,4.24V64.2h20.32V62.35Zm0,4.38v1.85h20.32V66.73Zm1.21-18.48v2.31h18V48.25Z"/>
    <path class="c" d="M805.72,53.17v3.32H793.34a21.15,21.15,0,0,1-1.5,3.17c1.86-.94,2.59-1.29,4-1.29,2.68,0,3.91,1.17,4.56,3,3.68-1.39,5.32-2,6.91-2.41l.79,3.64A61.93,61.93,0,0,0,801,64.66c0,.61.11,1.53.11,2.94,0,1,0,1.64,0,2.14h-3.71a26.91,26.91,0,0,0,.09-3.61c-3,1.38-4.26,2.67-4.26,4,0,2.15,2.52,2.15,5.7,2.15a72.19,72.19,0,0,0,7.5-.38l.06,3.67c-2.33.12-4.68.21-6.56.21-4.15,0-10.67-.15-10.67-5.21,0-4,5-6.46,7.73-7.75a2,2,0,0,0-2.18-1.39c-.82,0-2.73.3-5.17,2.71a57,57,0,0,1-4,5.11L783,66.51a25,25,0,0,0,6.47-10H784V53.17h6.44c.27-1.15.38-1.77.56-2.94l4.06.2c-.21,1.12-.35,1.68-.62,2.74Z"/>
    <path class="c" d="M181.77,115.86v3.32h-8.91v2.64h8.27v3.29h-8.27v3.32a27.72,27.72,0,0,1,8.35,5.12l-2.49,3.61a21.79,21.79,0,0,0-5.86-4.64l0,1c-.08,3.52-3.35,4.58-6.2,4.58-6.09,0-7.5-3.32-7.5-5.29,0-3.14,3.09-5.52,7.59-5.52a14.21,14.21,0,0,1,2.26.2v-2.41H159v-3.29h10v-2.64H158.43v-3.32H169v-2.68h3.88v2.68Zm-12.79,15a8.66,8.66,0,0,0-2.5-.38c-2.06,0-3.7.88-3.7,2.27,0,.38.2,2.11,3.35,2.11,1.44,0,2.85-.38,2.85-2.38Z"/>
    <path class="c" d="M207.62,123.67c-2.41.24-17,1.91-17,7.41,0,2.85,3.35,3.06,8.35,3.06a93.33,93.33,0,0,0,9.53-.47v4c-1.71.12-4.18.3-8.38.3-4.88,0-13.67,0-13.67-6.73,0-4.88,5.58-7.5,7.49-8.38-1.14-1.85-1.2-4.14-1.2-9.7H197c0,.91-.05,1.88-.05,3.47,0,2.62.08,3.91.64,4.91a55.48,55.48,0,0,1,9.59-2Z"/>
    <path class="c" d="M218.33,114.62a41.19,41.19,0,0,0,.83,4.73,14.76,14.76,0,0,1,6.11-1.79c.15-1.76.18-2.67.24-4.47l4,.27c-.18,2.29-.24,3.08-.38,4.26,8.79,1.12,8.79,9.17,8.79,10.17,0,9.46-9.21,10.17-11.56,10.34l-1.12-3.55c4.68-.18,8.91-1.77,8.91-7,0-5.58-4.14-6.34-5.61-6.55-2.06,11.9-7.18,15.25-10.5,15.25-3.56,0-5.38-3.2-5.38-6.67a11.24,11.24,0,0,1,3.62-8.26A47.39,47.39,0,0,1,215,115.5ZM217.51,125a7.73,7.73,0,0,0-1.44,4.55c0,1.71.74,3.06,2.18,3.06,1.08,0,1.82-.59,2.73-1.59C220.66,130.73,219.13,129.11,217.51,125Zm7.5-4.12a13.09,13.09,0,0,0-4.94,1.73,20.23,20.23,0,0,0,2.67,5.76A29.54,29.54,0,0,0,225,120.91Z"/>
    <path class="c" d="M264.94,118.27c-1.15-.06-2-.09-2.65-.09a11.12,11.12,0,0,0-3.29.38c-4.06,1.2-9.29,5.64-9.29,10.2,0,2.91,1.91,5.05,10.82,5.05.88,0,1.38,0,1.91-.06l-.62,4.24c-5.56-.12-16.17-.27-16.17-9,0-5.23,4.56-8.78,7.17-10.46-3,.21-9.91.74-12.55,1.06l-.27-4.23c1.36,0,2.94-.06,6.09-.27,6.79-.44,11.82-.61,18.73-.73Z"/>
    <path class="c" d="M286.35,116.38V120h-6.56v2.73a22,22,0,0,1,3.32-.26c3.29,0,5.73.7,7.32,1.94a7.41,7.41,0,0,1,2.8,5.91,7.25,7.25,0,0,1-5,7,16.43,16.43,0,0,1-5.71.85l-.59-3.44c2.77,0,7.15-.32,7.15-4.37,0-2.06-1.35-4.47-5.73-4.47a22.76,22.76,0,0,0-3.56.32v7.61c0,3-2.18,3.79-4.5,3.79-4.71,0-6.56-3.11-6.56-5.93,0-5,4.88-7.08,7.29-8.08V120h-6.67v-3.59H276v-3.23h3.77v3.23Zm-10.3,10.76c-1.32.68-3.67,1.82-3.67,4.2a2.49,2.49,0,0,0,2.59,2.47c1.08,0,1.08-.44,1.08-1Zm12.71-14a21.09,21.09,0,0,1,5.76,7.61l-3.32,2c-2.18-4.29-3.65-6.14-5.44-7.73Z"/>
    <path class="c" d="M308.51,139.54v-6.79H298.13V115.56h10.38v-3.7h3.68v3.7H322.6v17.19H312.19v6.79Zm-6.76-20.63v3.65h6.76v-3.65Zm0,6.73v3.74h6.76v-3.74ZM319,118.91h-6.79v3.65H319Zm0,6.73h-6.79v3.74H319Z"/>
    <path class="c" d="M333.47,113.39c-.3,6.49-.42,13.81-.42,14.52,0,3.38.3,6.43,4.94,6.43,6.91,0,7.88-5.32,8.59-9.26l3.67,1.62c-1.5,7.67-5.14,11.43-12.23,11.43-8.08,0-9-5-9-10.4,0-2.26.14-12.34.14-14.4Z"/>
    <path class="c" d="M353.75,123h6.77v8.61c.23,1.79,1.85,3.67,5.61,3.67h15.59l-.68,3.56H366.66c-4.82,0-6.73-2.29-7.59-3.35a25.74,25.74,0,0,1-4.14,4l-1.62-4.15a16.59,16.59,0,0,0,3.68-2.38v-6.52h-3.24Zm2.68-10.82a21.87,21.87,0,0,1,5.41,4.82l-2.56,2.79a24.72,24.72,0,0,0-5.26-5Zm4.82,18.66c6.7-4.11,8.94-11.1,9.56-14.48H364.4V112.8h10c.24,8.11,2.18,13.31,7.56,18.1l-2.5,3.29A22.81,22.81,0,0,1,372.34,122a25,25,0,0,1-8.56,12.11Z"/>
    <path class="c" d="M396.33,135.63c2.89-1.41,5.47-3.26,6.62-7.78a26.89,26.89,0,0,0-5.41-1.41c-1.24,4.85-2.68,10.08-7.59,10.08a5,5,0,0,1-5.17-5.35c0-3.09,2-7.88,9.64-8.35.36-1.94.62-4.23.71-5.47l-8.56.12v-3.76h12.94c-.41,3.09-.85,6.14-1.29,9.23a26.07,26.07,0,0,1,5.46,1.11c.33-2.26.48-3.79.62-6l4.12.32c-.21,2.68-.41,4.21-.85,7a24.11,24.11,0,0,1,3.47,1.67l-1.33,4a34.33,34.33,0,0,0-3-1.68,13.42,13.42,0,0,1-7.85,9.08ZM388.16,131a1.68,1.68,0,0,0,1.73,1.88c2.27,0,3.15-3.61,3.89-6.67C390.51,126.35,388.16,128.2,388.16,131Z"/>
    <path class="c" d="M419.3,114.68a58.56,58.56,0,0,0-.76,9c0,3.06.15,9.29,2.82,9.29,1.68,0,3.12-3.23,4-5.88l3.17,1.88c-1.55,4.44-3.91,8.47-7.41,8.47-5.46,0-6.49-8.05-6.49-14.31,0-3.15.29-6.38.53-8.82Zm15.88,20c.15-3.76.38-12.9-5.12-17.42l3.12-2.15c4.38,4.06,6.26,8,6.26,19.37Z"/>
    <path class="c" d="M442.71,137.19c1-2.35,3-7.17,4.68-17h-3.94v-3.68h4.41c.17-1.64.23-2.17.32-3.52l4.09.14c-.27,2.15-.3,2.32-.44,3.38h7.08v3.68h-7.64a118.66,118.66,0,0,1-4.59,18.22Zm14.79-7.26a4,4,0,0,0-.91,2.24c0,1.67,2,2.05,6,2.05.79,0,3.29,0,5.35-.23l0,3.88c-1.2,0-2.79.06-5.32.06-3.82,0-5.79-.33-7.41-1.24a4.48,4.48,0,0,1-2.27-3.82,7.73,7.73,0,0,1,1.5-4.17Zm9.91-5.35c-.82,0-1.91-.08-3.23-.08a21.12,21.12,0,0,0-7.68,1.2l-1.35-3.29c3.29-1.29,5.59-1.76,12.26-1.65Z"/>
    <path class="c" d="M471.78,137.19a73.76,73.76,0,0,0,4.68-17h-3.94v-3.68h4.41c.17-1.64.23-2.17.32-3.52l4.09.14c-.27,2.15-.3,2.32-.44,3.38H488v3.68h-7.64a119.91,119.91,0,0,1-4.59,18.22Zm14.79-7.26a4.19,4.19,0,0,0-.91,2.24c0,1.67,2,2.05,6,2.05.79,0,3.32,0,5.38-.23v3.88c-1.2,0-2.79.06-5.32.06-4.41,0-6-.44-7.41-1.24a4.31,4.31,0,0,1-2.26-3.82,7.74,7.74,0,0,1,1.49-4.17Zm9.91-5.35c-.82,0-1.91-.08-3.23-.08a21.12,21.12,0,0,0-7.68,1.2l-1.35-3.29c3.29-1.29,5.59-1.76,12.26-1.65Zm-4.82-12.28a25.68,25.68,0,0,1,2.73,5.73L492,119.15a25.15,25.15,0,0,0-2.58-5.85Zm4.32-1.06a23.55,23.55,0,0,1,2.74,5.73l-2.41,1.12a23.85,23.85,0,0,0-2.59-5.85Z"/>
    <path class="c" d="M518.37,138.63c-3.73-3.14-5.55-4.32-14.08-9.73-1.82-1.14-2.65-2-2.65-3.17,0-1.41,1.09-2.41,3.47-4.32,6.88-5.53,8-6.67,10.27-8.9l4.23,2.23a103.93,103.93,0,0,1-11.53,9.11c-.7.5-1.58,1.15-1.58,1.59s.38.67,3.79,2.49a87.27,87.27,0,0,1,12,7.73Z"/>
    <path class="c" d="M548.45,123.67c-2.41.24-17,1.91-17,7.41,0,2.85,3.36,3.06,8.35,3.06a93.14,93.14,0,0,0,9.53-.47v4c-1.7.12-4.17.3-8.38.3-4.88,0-13.67,0-13.67-6.73,0-4.88,5.59-7.5,7.5-8.38-1.15-1.85-1.21-4.14-1.21-9.7h4.21c0,.91-.06,1.88-.06,3.47,0,2.62.09,3.91.64,4.91a55.73,55.73,0,0,1,9.59-2Z"/>
    <path class="b" d="M560.93,124.83a6.26,6.26,0,0,0-1.5,4c0,4.28,6.34,4.28,9.27,4.28a114,114,0,0,0,12.47-.61l.07,4.85c-1.71.1-5.38.39-10.72.39-5.78,0-16,0-16-8.41a10.8,10.8,0,0,1,2.46-6.59Zm18.35-10.47a30.89,30.89,0,0,0-12,4.42l-3.57-2.42a24.62,24.62,0,0,1,4.39-2.14c-1.89.07-10.16.21-11.87.32v-4.67c5.88.07,21.42,0,23,0Z"/>
    <path class="b" d="M601,109c-1.67,3.81-4.17,10.54-4.95,12.78a6.38,6.38,0,0,1,4.2-1.53c5.74,0,5.74,5.38,5.74,8.09v2.35c0,1.88.61,3,2.36,3,1.1,0,2.74-.32,3.81-3.91a24.94,24.94,0,0,0,1-7.27l4.6,1.28c-.28,5-1.14,14.6-9.87,14.6-5.63,0-6.6-4-6.6-7.58v-1.39c0-2.92,0-4.7-2.24-4.7-2.64,0-4.67,2.63-5.53,5.2a71.13,71.13,0,0,0-2.31,8.51l-4.92-1.57c2.28-7.55,4.6-15.13,7.23-22.58.36-1,1.79-5,2.18-6.62Z"/>
    <path class="b" d="M638.86,112.08v4.45h-7.38a96.11,96.11,0,0,1-5.6,18.06L621,132.77a56.1,56.1,0,0,0,5.67-16.24h-5.1v-4.45h5.92c.22-1.71.36-2.7.46-4.24l5,.18c-.29,2.25-.36,2.67-.61,4.06ZM646,126.54a27.7,27.7,0,0,1,6.88,4.88l-2.71,4.42a21.15,21.15,0,0,0-4.5-4.1v.78c0,3.56-2.81,5.92-7.41,5.92-5.28,0-8.3-2.85-8.3-6.63,0-3.06,2.31-7,8.51-7a15.29,15.29,0,0,1,2.82.25l-.14-6.91h4.7Zm-4.57,2.78a8,8,0,0,0-3-.57c-2.6,0-4.27,1.21-4.27,3,0,.46.18,2.7,4,2.7,2.14,0,3.24-.82,3.24-3.1Zm9.16-10.19a54.07,54.07,0,0,0-10.08-4.77l2-4a50.88,50.88,0,0,1,10.2,4.56Z"/>
    <path class="b" d="M663.77,109a75.17,75.17,0,0,0-1.49,16.34,64.18,64.18,0,0,0,1,12.65l-5,.35a67.91,67.91,0,0,1-.86-12.21,99.31,99.31,0,0,1,1.32-17.49Zm9.13,15.49a7.47,7.47,0,0,0-1.71,4.31c0,2.63,3,3,6.41,3a81.09,81.09,0,0,0,8.38-.43v4.88a63.22,63.22,0,0,1-6.66.32c-6.56,0-12.52-.82-12.52-7.08a11.85,11.85,0,0,1,1.86-6.17Zm12.4-13.25v4.63H667.87v-4.63Z"/>
    <path class="b" d="M712.25,112.05v4.34h-8v3.31a25.89,25.89,0,0,1,4-.32c4,0,6.95.86,8.87,2.35a9,9,0,0,1,3.39,7.16,8.78,8.78,0,0,1-6.06,8.44,19.84,19.84,0,0,1-6.92,1l-.71-4.16c3.35-.07,8.66-.39,8.66-5.31,0-2.49-1.64-5.41-6.95-5.41a28.53,28.53,0,0,0-4.31.39v9.22c0,3.6-2.64,4.6-5.46,4.6-5.7,0-8-3.78-8-7.2,0-6.09,5.92-8.58,8.84-9.79v-4.31h-8.09v-4.34h8.09v-3.92h4.57v3.92Zm-12.48,13c-1.6.82-4.46,2.21-4.46,5.09a3,3,0,0,0,3.14,3c1.32,0,1.32-.54,1.32-1.18Zm15.4-17a25.6,25.6,0,0,1,7,9.22l-4,2.46c-2.64-5.2-4.42-7.44-6.6-9.37Z"/>
    <path class="b" d="M749.3,129a71.74,71.74,0,0,0-14.36-7.41v16.92H729.8V108.06h5.14v8.54A89.43,89.43,0,0,1,751.79,124Z"/>
    <path class="b" d="M757.09,134.34c9.7-1.78,19.07-7,21.17-20.3H767.11a29,29,0,0,1-9.06,9.22l-3-3.52a22.88,22.88,0,0,0,9-10.08h19.78c-.57,7.16-2.74,24.68-24.73,29.1Z"/>
    <path class="b" d="M794.28,108.45l-.64,20.26h-4.1l-.61-20.26ZM789,131.78h5.17v5.09H789Z"/>
    <path class="b" d="M805.21,108.45l-.64,20.26h-4.1l-.6-20.26Zm-5.27,23.33h5.17v5.09h-5.17Z"/>
  </g>
</svg>
