<svg xmlns="http://www.w3.org/2000/svg" width="508.25" height="101" viewBox="0 0 508.25 101">
  <metadata><?xpacket begin="﻿" id="W5M0MpCehiHzreSzNTczkc9d"?>
<x:xmpmeta xmlns:x="adobe:ns:meta/" x:xmptk="Adobe XMP Core 5.6-c142 79.160924, 2017/07/13-01:06:39        ">
   <rdf:RDF xmlns:rdf="http://www.w3.org/1999/02/22-rdf-syntax-ns#">
      <rdf:Description rdf:about=""/>
   </rdf:RDF>
</x:xmpmeta>
                                                                                                    
                                                                                                    
                                                                                                    
                                                                                                    
                                                                                                    
                                                                                                    
                                                                                                    
                                                                                                    
                                                                                                    
                                                                                                    
                                                                                                    
                                                                                                    
                                                                                                    
                                                                                                    
                                                                                                    
                                                                                                    
                                                                                                    
                                                                                                    
                                                                                                    
                                                                                                    
                           
<?xpacket end="w"?></metadata>
<defs>
    <style>
      .cls-1 {
        fill: #009055;
        fill-rule: evenodd;
      }
    </style>
  </defs>
  <path id="これからの時代_自ら考え_解決する力を育む_必要があるが_主体的に調べ_さらに自分の考えを_形にして表現させる方法が分からない_のコピー" data-name="これからの時代、自ら考え、解決する力を育む 必要があるが、主体的に調べ、さらに自分の考えを 形にして表現させる方法が分からない のコピー" class="cls-1" d="M308.474,6167.85c0-.55-0.384-1.05-4.627-1.05a31.122,31.122,0,0,0-4.2.26,0.807,0.807,0,0,0-.815.77,0.647,0.647,0,0,0,.695.65,0.539,0.539,0,0,0,.216-0.03,21.158,21.158,0,0,1,3.644-.33,20.654,20.654,0,0,1,4.052.4A0.819,0.819,0,0,0,308.474,6167.85Zm0.911,12.65a0.936,0.936,0,0,0,.743-0.86,0.7,0.7,0,0,0-.743-0.7,1.257,1.257,0,0,0-.407.07,15.163,15.163,0,0,1-4.532.72c-2.326,0-4.483-.6-5.682-1.97a0.731,0.731,0,0,0-.528-0.26,0.721,0.721,0,0,0-.719.72c0,1.18,3.213,2.95,7.409,2.95A14.982,14.982,0,0,0,309.385,6180.5Zm13.259-8.4c1.078-1.92,1.222-2.28,1.222-2.64a0.69,0.69,0,0,0-.743-0.74c-0.048,0-.1.02-0.168,0.02,0.192-1.8.432-3.36,0.624-4.39v-0.1a0.624,0.624,0,0,0-.672-0.55,0.605,0.605,0,0,0-.623.58c-0.144,1.13-.312,2.85-0.5,4.82-1.078.38-2.4,0.96-3.476,1.46a0.635,0.635,0,0,0-.384.58,0.58,0.58,0,0,0,.6.6,0.8,0.8,0,0,0,.431-0.12,26.679,26.679,0,0,1,2.71-1.22l-0.144,1.84a60.121,60.121,0,0,1-3.573,5.88c-0.695.82-.743,0.87-0.743,1.13a0.735,0.735,0,0,0,.743.63c0.6,0,.7-0.17,1.966-2.52a20.942,20.942,0,0,1,1.415-2.28c-0.1,1.65-.168,3.21-0.168,4.51,0,1.82.024,2.73,0.767,2.73a0.731,0.731,0,0,0,.744-0.76v-0.12a29.132,29.132,0,0,1-.264-4.13c0-1.13.048-2.33,0.12-3.53,0.527-.6,5.059-5.16,6.953-5.16,0.887,0,1.247.79,1.247,2.09v0.33c-0.072,1.49-.5,4.18-0.648,5.48-0.024.31-.048,0.6-0.048,0.88,0,2.21,1.007,3.15,2.326,3.15,1.75,0,3.98-1.83,3.98-2.55a0.662,0.662,0,0,0-.623-0.69,0.8,0.8,0,0,0-.576.29,4.343,4.343,0,0,1-2.637,1.63c-0.7,0-1.151-.6-1.151-1.99,0-.22,0-0.46.024-0.7,0.12-1.39.575-4.1,0.671-5.57,0-.12.024-0.26,0.024-0.38,0-1.73-.767-3.15-2.373-3.15-1.727,0-3.861,1.47-7.049,4.8v-0.14Zm23.117-1.34a28.024,28.024,0,0,1-4.627,8.95,1.1,1.1,0,0,0-.312.69,0.635,0.635,0,0,0,.695.6,1.035,1.035,0,0,0,.863-0.48,35.672,35.672,0,0,0,4.772-9.93c1.055-.12,1.7-0.17,2.062-0.17,1.438,0,1.726.91,1.726,2.45,0,1.73-.36,6.41-3.309,6.41a4.9,4.9,0,0,1-1.366-.22,0.791,0.791,0,0,0-.216-0.02,0.638,0.638,0,0,0-.648.62c0,0.84,1.559.98,2.182,0.98,3.525,0,4.652-4.05,4.652-7.94,0-2.69-1.3-3.43-2.806-3.43-0.071,0-.095,0-1.966.17a27.306,27.306,0,0,0,.911-4.2,0.649,0.649,0,0,0-.671-0.65,0.671,0.671,0,0,0-.695.6,42.067,42.067,0,0,1-.935,4.39l-1.559.17c-0.887.07-1.63,0.07-2.421,0.09a0.644,0.644,0,0,0-.624.65,0.6,0.6,0,0,0,.648.6,22.731,22.731,0,0,0,2.493-.19Zm13.427,3.76a0.727,0.727,0,0,0,.695-0.76c0-1.61-3.956-5.21-4.963-5.21a0.6,0.6,0,0,0-.623.57,0.475,0.475,0,0,0,.263.44,9.262,9.262,0,0,1,4,4.48A0.662,0.662,0,0,0,359.188,6174.52Zm16.43,6.53c2.71-1.65,3.908-3.65,3.908-5.28,0-1.8-1.462-3.14-3.908-3.14-2.541,0-5.011,1.39-7.073,2.66a1.271,1.271,0,0,1-.527.27c-0.288,0-.288-0.7-0.288-1.08a20.252,20.252,0,0,1,.288-2.76c0.192-1.18.479-2.6,0.623-3.63v-0.12a0.546,0.546,0,0,0-.575-0.55,0.664,0.664,0,0,0-.672.58c-0.167,1.05-.479,2.61-0.671,4.17a24.687,24.687,0,0,0-.216,2.83c0,1.8.432,2.38,1.1,2.38a1.926,1.926,0,0,0,1.2-.6c1.271-1.1,4.22-2.98,6.737-2.98,1.343,0,2.59.56,2.59,2,0,1.24-1.031,2.83-3.405,4.22a12.882,12.882,0,0,1-3.452,1.13,0.765,0.765,0,0,0-.744.72,0.722,0.722,0,0,0,.791.67A12.552,12.552,0,0,0,375.618,6181.05Zm-1.918-15.5c-0.024-.58-0.863-1.1-1.558-1.54a19.16,19.16,0,0,1-1.727-1.1,0.943,0.943,0,0,0-.527-0.19,0.576,0.576,0,0,0-.623.55c0,0.38.119,0.46,1.846,1.56a1.288,1.288,0,0,1,.695.62,1.18,1.18,0,0,1-.911.6,0.408,0.408,0,0,0-.288.43,0.613,0.613,0,0,0,.624.6,1.206,1.206,0,0,0,.263-0.04C373.46,6166.46,373.7,6166.22,373.7,6165.55Zm21.621,1.92c3.429,0,6.4,2.35,6.4,5.71,0,3.62-2.877,5.86-6.114,6.55a0.765,0.765,0,0,0-.719.7,0.731,0.731,0,0,0,.815.67c0.839,0,7.385-1.92,7.385-7.82,0-4.23-3.621-6.87-7.745-6.87a8.914,8.914,0,0,0-9.182,8.47c0,2.84,1.87,4.47,3.116,4.47,3.213,0,6.378-9.03,6.378-11.26A0.661,0.661,0,0,0,395.321,6167.47Zm-0.791.05a0.818,0.818,0,0,0-.24.6c-0.335,4.03-3.308,9.79-4.939,9.79-0.959,0-1.942-1.49-1.942-3.12A7.771,7.771,0,0,1,394.53,6167.52Zm20.418,9.43c0.048-1.54.072-3.7,0.072-5.83,0-1.88-.024-3.7-0.072-5.09a1.906,1.906,0,0,0-1.942-1.8c-0.336-.02-0.719-0.05-1.1-0.05-1.3,0-3,.03-3.045,1.94-0.024,1.35-.024,3.32-0.024,5.31s0,4.03.024,5.52a1.925,1.925,0,0,0,1.822,2.01c0.384,0.03.767,0.03,1.151,0.03C413.509,6178.99,414.9,6178.87,414.948,6176.95Zm13.139-6.39a0.54,0.54,0,0,0,0-1.08l-5.467.03v-3.07l4.1,0.02a0.54,0.54,0,1,0,0-1.08l-4.1.03v-2.64a0.585,0.585,0,0,0-.647-0.58,0.578,0.578,0,0,0-.623.58v2.64l-3.717-.03a0.548,0.548,0,0,0-.575.55,0.528,0.528,0,0,0,.575.53l3.717-.02,0.024,3.07-4.963-.03a0.54,0.54,0,0,0-.576.56,0.527,0.527,0,0,0,.576.52h11.676Zm-4.172,9.44a1.363,1.363,0,0,1-1.63,1.51,11.548,11.548,0,0,1-1.846-.22h-0.12a0.6,0.6,0,0,0-.6.63c0,0.31.048,0.81,2.374,0.81,2.613,0,3.117-1.34,3.117-2.47v-0.14l-0.072-2.4-0.024-3.03,3.093,0.03a0.52,0.52,0,0,0,.5-0.56,0.506,0.506,0,0,0-.5-0.55l-3.093.03-0.024-1.66a0.553,0.553,0,0,0-.6-0.55,0.561,0.561,0,0,0-.624.55v1.66l-7.456-.03a0.55,0.55,0,0,0-.552.58,0.513,0.513,0,0,0,.552.53l7.48-.03Zm-10.094-8.26c0,1.85,0,3.67-.048,4.97-0.024,1.08-.767,1.15-1.894,1.15-1.391,0-1.822-.1-1.846-1.13-0.024-1.17-.048-3.07-0.048-4.99h3.836Zm-3.836-1.08c0-1.7.024-3.29,0.048-4.27,0.048-1.1.671-1.13,1.87-1.13,1.151,0,1.822.07,1.87,1.1,0.048,1.11.048,2.67,0.048,4.3h-3.836Zm11.053,8.71a0.647,0.647,0,0,0,.6-0.69c0-.94-2.925-2.62-3.5-2.62a0.63,0.63,0,0,0-.624.58,0.455,0.455,0,0,0,.288.38,8.472,8.472,0,0,1,2.757,2.06A0.634,0.634,0,0,0,421.038,6179.37Zm31.116-10.03a0.581,0.581,0,0,0-.048-1.15h-0.1l-6.665.81c-0.168-1.75-.216-3.45-0.216-5.03v-0.89a0.6,0.6,0,0,0-.647-0.6,0.612,0.612,0,0,0-.7.53c0.024,2.06.1,4.12,0.312,6.14l-4.172.53a0.58,0.58,0,0,0-.5.6,0.517,0.517,0,0,0,.551.55h0.1l4.172-.51c0.815,6.1,3.357,11.96,6.306,11.96,2.373,0,3.164-3.77,3.164-4.08a0.7,0.7,0,0,0-.719-0.68,0.566,0.566,0,0,0-.575.48c-0.336,1.76-1.031,2.96-1.942,2.96-1.439,0-4.148-3.99-5.011-10.8Zm-15.968,13.06a0.605,0.605,0,0,0,.671.57,0.63,0.63,0,0,0,.7-0.6l0.263-15a19.131,19.131,0,0,0,2.23-4.08,0.743,0.743,0,0,0-.767-0.67,0.6,0.6,0,0,0-.576.41,24.135,24.135,0,0,1-6.209,8.81,0.652,0.652,0,0,0-.24.5,0.614,0.614,0,0,0,.623.62c0.839,0,2.973-2.8,3.669-3.76l-0.36,13.17v0.03Zm14.314-15.92a0.6,0.6,0,0,0,.575-0.62c0-.91-3.045-2.18-3.572-2.18a0.589,0.589,0,0,0-.6.57,0.476,0.476,0,0,0,.336.44,8.562,8.562,0,0,1,2.829,1.6A0.562,0.562,0,0,0,450.5,6166.48Zm12.541,15.65c0-1.1-3.668-3.62-4.459-3.62a0.6,0.6,0,0,0-.623.6,0.615,0.615,0,0,0,.359.53,10.459,10.459,0,0,1,3.477,2.85,0.656,0.656,0,0,0,.551.31A0.672,0.672,0,0,0,463.041,6182.13Zm17.84-16.87a19.834,19.834,0,0,0,.887-2.85,0.66,0.66,0,0,0-.743-0.6,0.614,0.614,0,0,0-.672.45c-0.1.55-.455,1.99-0.767,3-0.767,0-1.462.03-1.942,0.05-2.062.07-3.045,1.15-3.069,2.71-0.024,1.8-.048,4.18-0.048,6.46,0,1.87.024,3.64,0.048,4.99,0.048,1.87,1.127,2.71,3.309,2.78,1.127,0.05,2.709.07,4.268,0.07,1.126,0,2.229-.02,3.14-0.04,2.134-.08,3.237-1.01,3.285-2.86,0.048-1.34.072-3.48,0.072-5.66,0-2.21-.024-4.42-0.1-5.88a2.675,2.675,0,0,0-2.9-2.57C484.549,6165.26,482.631,6165.26,480.881,6165.26Zm-5.131,5.26c0-.84.024-1.59,0.048-2.19,0.048-1.13.575-1.87,2.206-1.94,0.743-.05,2.038-0.05,3.428-0.05,1.367,0,2.806,0,3.765.05,2.157,0.09,2.157,1.08,2.157,4.13h-11.6Zm11.6,5.08h-11.6c0-1.29-.024-2.68-0.024-3.98h11.628v3.98Zm-0.024,1.11c0,0.93,0,1.77-.024,2.42-0.047,2.09-1.39,2.09-5.562,2.09-4.651,0-5.874,0-5.946-2.06-0.024-.63-0.048-1.49-0.048-2.45h11.58Zm18.749,4.34c2.71-1.65,3.908-3.65,3.908-5.28,0-1.8-1.462-3.14-3.908-3.14-2.541,0-5.011,1.39-7.073,2.66a1.266,1.266,0,0,1-.527.27c-0.288,0-.288-0.7-0.288-1.08a20.252,20.252,0,0,1,.288-2.76c0.192-1.18.479-2.6,0.623-3.63v-0.12a0.545,0.545,0,0,0-.575-0.55,0.664,0.664,0,0,0-.672.58c-0.167,1.05-.479,2.61-0.671,4.17a24.687,24.687,0,0,0-.216,2.83c0,1.8.432,2.38,1.1,2.38a1.923,1.923,0,0,0,1.2-.6c1.271-1.1,4.22-2.98,6.737-2.98,1.343,0,2.59.56,2.59,2,0,1.24-1.031,2.83-3.4,4.22a12.882,12.882,0,0,1-3.452,1.13,0.765,0.765,0,0,0-.744.72,0.723,0.723,0,0,0,.792.67A12.548,12.548,0,0,0,506.079,6181.05Zm-1.918-15.5c-0.024-.58-0.863-1.1-1.558-1.54a19.16,19.16,0,0,1-1.727-1.1,0.943,0.943,0,0,0-.527-0.19,0.576,0.576,0,0,0-.623.55c0,0.38.119,0.46,1.846,1.56a1.288,1.288,0,0,1,.695.62,1.18,1.18,0,0,1-.911.6,0.408,0.408,0,0,0-.288.43,0.613,0.613,0,0,0,.624.6,1.2,1.2,0,0,0,.263-0.04C503.921,6166.46,504.161,6166.22,504.161,6165.55Zm31.006,4.27a0.548,0.548,0,0,0,.575-0.55,0.532,0.532,0,0,0-.575-0.55l-5.2.02c2.23-1.85,4.532-4.32,4.532-4.85a0.707,0.707,0,0,0-.7-0.67,0.542,0.542,0,0,0-.455.24,27.741,27.741,0,0,1-5.179,5.28h-2.59v-2.93l3.909,0.03a0.517,0.517,0,0,0,.551-0.55,0.508,0.508,0,0,0-.551-0.53h-3.909l0.024-2.11a0.6,0.6,0,0,0-.647-0.58,0.578,0.578,0,0,0-.623.58v2.11h-5.035a0.528,0.528,0,0,0-.576.53,0.538,0.538,0,0,0,.576.55l5.035-.03,0.024,2.93-7.217-.02a0.533,0.533,0,0,0-.576.55,0.549,0.549,0,0,0,.576.55l9.638-.05a30.336,30.336,0,0,1-10.549,4.68,0.6,0.6,0,1,0,.1,1.2,26.772,26.772,0,0,0,7-2.61,27.164,27.164,0,0,1-1.535,4.87,0.694,0.694,0,0,0-.048.19,0.555,0.555,0,0,0,.624.48,0.632,0.632,0,0,0,.623-0.38l0.432-1.25c1.366-.03,3.236-0.05,4.819-0.05,2.349,0,2.877.02,2.877,0.79a5.037,5.037,0,0,1-1.031,2.45,4.033,4.033,0,0,1-3.237,1.22,12.863,12.863,0,0,1-3.189-.48,0.97,0.97,0,0,0-.239-0.02,0.6,0.6,0,0,0-.6.62,0.578,0.578,0,0,0,.408.56,13.876,13.876,0,0,0,3.452.5,5.423,5.423,0,0,0,4.508-1.85,6.727,6.727,0,0,0,1.2-3.17c0-1-.648-1.63-2.182-1.63-2.038,0-4.7,0-6.45.03l0.48-1.64a62.607,62.607,0,0,0,8.152-1.29,0.654,0.654,0,0,0,.575-0.63,0.617,0.617,0,0,0-.623-0.62,0.687,0.687,0,0,0-.24.05,51.926,51.926,0,0,1-7.6,1.44l0.216-.91a39.974,39.974,0,0,0,3.932-2.55Zm7.07,10.49c1.007-1.39,2.158-2.14,3.093-2.14a1.668,1.668,0,0,1,1.558,1.15c0.7,1.59,1.511,2.28,2.853,2.48a4.781,4.781,0,0,0,.792.07h0.287a13.235,13.235,0,0,0,4.244-.72,0.915,0.915,0,0,0,.7-0.82,0.66,0.66,0,0,0-.7-0.67,1,1,0,0,0-.455.1,11,11,0,0,1-4.052.84,2.592,2.592,0,0,1-2.566-1.85,2.4,2.4,0,0,0-2.206-1.54,2.959,2.959,0,0,0-1.15.24c2.829-2.9,5.083-5.45,6.233-6.72a1.284,1.284,0,0,0,.36-0.86,1.057,1.057,0,0,0-1.175-1.06,9.779,9.779,0,0,0-2.637.77,31.351,31.351,0,0,1-4.364,1.15,0.688,0.688,0,0,0-.623.67,0.745,0.745,0,0,0,.815.7,30.223,30.223,0,0,0,6.09-1.97,0.965,0.965,0,0,1,.264-0.07c0.024,0,.048,0,0.048.02a94.316,94.316,0,0,1-6.714,7.56c-0.815.77-1.942,1.95-2.757,2.88a0.963,0.963,0,0,0-.288.63,0.671,0.671,0,0,0,.744.57,1.357,1.357,0,0,0,1.031-.62Zm8.559-14.64a0.683,0.683,0,0,0-.551-0.62,14.25,14.25,0,0,1-3.572-1.83,0.771,0.771,0,0,0-.456-0.17,0.668,0.668,0,0,0-.671.63,0.612,0.612,0,0,0,.263.5c0.816,0.65,3.429,2.21,4.2,2.21A0.771,0.771,0,0,0,550.8,6165.67Zm16.594,16.46c0-1.1-3.668-3.62-4.459-3.62a0.6,0.6,0,0,0-.624.6,0.616,0.616,0,0,0,.36.53,10.445,10.445,0,0,1,3.476,2.85,0.658,0.658,0,0,0,.552.31A0.672,0.672,0,0,0,567.39,6182.13Zm16.161-5.28c0,1.71-.024,2.98-0.024,3.07,0,1.23-.551,1.56-1.366,1.56a8.349,8.349,0,0,1-1.463-.19h-0.1a0.589,0.589,0,0,0-.527.63c0,0.52.6,0.69,1.966,0.69,2.086,0,2.661-1.15,2.661-2.35v-0.12c-0.024-.82-0.048-1.92-0.048-2.3,0-.87-0.024-5.64-0.024-8.16a1.836,1.836,0,0,0-2.038-1.97c-0.288,0-.623-0.03-0.935-0.03,0.863-1.75,1.1-2.23,1.1-2.68a1.218,1.218,0,0,0-1.439-1.11c-0.239,0-1.27.03-1.99,0.03a7.791,7.791,0,0,0,.432-1.47,0.632,0.632,0,0,0-.671-0.52,0.53,0.53,0,0,0-.576.4,19.978,19.978,0,0,1-3.5,7.2,0.666,0.666,0,0,0-.168.41,0.551,0.551,0,0,0,.575.5,0.749,0.749,0,0,0,.624-0.33,29.643,29.643,0,0,0,2.877-5.21h1.918a0.463,0.463,0,0,1,.551.46,9.956,9.956,0,0,1-.935,2.35H579a1.957,1.957,0,0,0-2.11,1.8v0.05c0.024,1.1.048,2.23,0.048,3.33,0,3.19-.264,6.34-1.75,9.05a0.633,0.633,0,0,0-.072.26,0.616,0.616,0,0,0,.647.58,0.656,0.656,0,0,0,.6-0.38,15.6,15.6,0,0,0,1.487-5.55h5.706Zm12.468,1.47a0.533,0.533,0,0,0,.551-0.56,0.519,0.519,0,0,0-.551-0.52l-4.34.02v-2.88l3.477,0.02a0.526,0.526,0,1,0,0-1.05l-3.477.02,0.024-1.97a0.624,0.624,0,0,0-1.247,0l0.024,1.97h-2.157a11.865,11.865,0,0,0,.551-1.63,0.644,0.644,0,0,0-.7-0.5,0.407,0.407,0,0,0-.456.28,11.157,11.157,0,0,1-1.966,4.11,0.428,0.428,0,0,0-.1.26,0.606,0.606,0,0,0,.624.55c0.335,0,.743-0.31,1.582-2.06h2.613v2.88l-4.243-.02a0.537,0.537,0,0,0-.552.55,0.513,0.513,0,0,0,.552.53l4.243-.03-0.024,3.84a0.624,0.624,0,1,0,1.247,0l-0.024-3.84Zm-9.519-13.9c1.055-.02,2.11-0.05,3.117-0.05a5.862,5.862,0,0,1-3.74,5.07,0.48,0.48,0,0,0-.264.45,0.585,0.585,0,0,0,.576.63c0.791,0,4.339-2.07,4.627-6.17,0.767,0,1.487.02,2.182,0.02a1.1,1.1,0,0,1,1.319,1.08c0,0.7-.12,3.19-1.895,3.19a3.418,3.418,0,0,1-1.246-.28,0.5,0.5,0,0,0-.264-0.05,0.662,0.662,0,0,0-.6.69,0.52,0.52,0,0,0,.359.53,5.751,5.751,0,0,0,1.774.31c0.648,0,3.093-.09,3.093-4.58,0-1.37-.887-1.92-2.277-1.94-0.983-.03-1.919-0.03-2.854-0.03-1.294,0-2.565,0-3.908.03a0.553,0.553,0,0,0-.575.57,0.521,0.521,0,0,0,.551.53H586.5Zm-2.949,11.47-2.325.03v-3.27h2.325v3.24Zm-3.38.03-2.23-.03c0.072-1.08.1-2.18,0.1-3.24h2.134v3.27Zm1.055-4.2v-3.1c1.39,0,2.229,0,2.277,1.25,0.024,0.53.024,1.17,0.024,1.85h-2.3Zm-1.055,0h-2.134c0-.65-0.024-1.3-0.024-1.9a1.145,1.145,0,0,1,1.247-1.18h0.911v3.08Zm40.119,1.94a0.526,0.526,0,0,0,.5-0.58,0.517,0.517,0,0,0-.5-0.55h-2.446c0.024-1.01.024-2.16,0.024-3.19v-1.15a2.07,2.07,0,0,0-2.35-2.11c-0.791-.03-1.678-0.03-2.589-0.03v-3.14a0.621,0.621,0,0,0-.647-0.6,0.588,0.588,0,0,0-.624.62c0,1.04.024,2.09,0.024,3.12h-4.244a0.55,0.55,0,0,0-.551.58,0.541,0.541,0,0,0,.551.57c1.319-.02,2.806-0.02,4.244-0.02v2.9a15.785,15.785,0,0,1-.192,2.45h-5.562a0.549,0.549,0,0,0-.551.58,0.541,0.541,0,0,0,.551.57l5.347-.04a10.354,10.354,0,0,1-7.457,7.84,0.578,0.578,0,0,0-.455.58,0.691,0.691,0,0,0,.671.7,11.633,11.633,0,0,0,8.2-8.14c1.75,4.68,6.761,7.8,7.912,7.8a0.712,0.712,0,0,0,.7-0.7,0.663,0.663,0,0,0-.5-0.64,12.666,12.666,0,0,1-7.289-7.47Zm-7.577-1.13a14.432,14.432,0,0,0,.192-2.47c0-.94.024-1.9,0.024-2.88,0.815,0,1.582.02,2.278,0.02a1.225,1.225,0,0,1,1.414,1.28c0.024,0.5.024,1.2,0.024,1.92s0,1.46-.024,2.13h-3.908Zm-11.077,9.29a23.686,23.686,0,0,0,3.309-6.62,0.635,0.635,0,0,0-.671-0.6,0.57,0.57,0,0,0-.552.36,22.463,22.463,0,0,1-3.309,6.21,0.659,0.659,0,0,0-.143.39,0.689,0.689,0,0,0,.7.67A0.864,0.864,0,0,0,601.636,6181.82Zm3.405-15.17a0.755,0.755,0,0,0,.671-0.76c0-.92-3.213-2.79-3.764-2.79a0.66,0.66,0,0,0-.671.58,0.434,0.434,0,0,0,.263.41,10.523,10.523,0,0,1,3.045,2.32A0.574,0.574,0,0,0,605.041,6166.65Zm-1.367,4.95a0.691,0.691,0,0,0,.624-0.72c0-1.16-4-2.21-4.052-2.21a0.636,0.636,0,0,0-.624.65,0.429,0.429,0,0,0,.312.43,9.959,9.959,0,0,1,3.357,1.68A0.594,0.594,0,0,0,603.674,6171.6Zm31-.2a2.97,2.97,0,0,0-1.318-.26,3.127,3.127,0,1,0,2.014,5.02,9.45,9.45,0,0,1-3.5,5.49,0.92,0.92,0,0,0-.456.72,0.626,0.626,0,0,0,.672.6c1.1,0,4.579-3.96,4.579-7.75a4.8,4.8,0,0,0-.743-2.69c-0.024-.62-0.072-1.22-0.072-1.63-0.024-.94-0.048-1.9-0.048-2.78,0.6-.03,1.175-0.05,1.726-0.05,2.782,0,3.885.07,4.46,0.12h0.12a0.708,0.708,0,0,0,.791-0.67,0.786,0.786,0,0,0-.887-0.72c-0.839-.03-1.487-0.03-2.062-0.03-0.6,0-1.127,0-1.726.03-0.672,0-1.487.04-2.4,0.12,0-.34,0-0.68.024-1.01,0.024-.55.072-1.46,0.072-2.04a0.822,0.822,0,0,0-.767-0.98,0.673,0.673,0,0,0-.7.72v0.02c0.024,0.77.072,0.91,0.1,2.45v0.93c-3.956.34-8.991,1.11-9.758,1.23a0.749,0.749,0,0,0-.7.72,0.688,0.688,0,0,0,.671.69c0.048,0,.1-0.02.144-0.02,0.743-.12,2.038-0.41,3.764-0.7,1.391-.21,3.645-0.53,5.9-0.72l0.072,2.74Zm0.144,1.61a2.987,2.987,0,0,1,.1.77c0,1.13-.6,2.35-1.846,2.35a1.779,1.779,0,0,1-1.726-1.94,1.869,1.869,0,0,1,1.942-1.92,1.914,1.914,0,0,1,1.366.57Zm21.53,7.44v-0.17c0-2.32-1.414-3.4-3.069-3.4-1.918,0-2.613,1.15-2.613,2.06,0,1.44,1.606,2.74,4.411,2.74,3.861,0,6.642-2.55,6.642-5.52,0-2.24-1.822-4.13-5.083-4.13a9.255,9.255,0,0,0-4.2,1.01l3.309-3.44c2.685-2.8,2.829-3.14,2.829-3.6a1,1,0,0,0-1.151-.91,2.243,2.243,0,0,0-.551.08,54.5,54.5,0,0,1-5.683,1.1,0.679,0.679,0,0,0-.671.65,0.662,0.662,0,0,0,.719.64c0.144,0,4.2-.81,5.491-1.22a0.556,0.556,0,0,1,.168-0.02c0.048,0,.072.02,0.072,0.04a87.791,87.791,0,0,1-8.056,8.84,0.99,0.99,0,0,0-.336.67,0.72,0.72,0,0,0,.743.67,0.733,0.733,0,0,0,.6-0.31,8.192,8.192,0,0,1,6.377-3.15c2.11,0,4.076.96,4.076,3.15A4.637,4.637,0,0,1,656.344,6180.45Zm-1.223.12h-0.335c-1.894,0-2.949-.81-2.949-1.63,0-.14.143-1.03,1.51-1.03,1.127,0,1.774.91,1.774,2.49v0.17ZM676.5,6167.4c0.12-1.44.168-2.91,0.192-4.42a0.626,0.626,0,0,0-.672-0.62,0.639,0.639,0,0,0-.7.65c-0.024,1.46-.072,2.95-0.168,4.39-2.877,0-5.8.02-7.049,0.02a0.582,0.582,0,0,0-.6.62,0.555,0.555,0,0,0,.575.6c1.343,0,4.2-.04,6.977-0.04-0.551,5.47-2.3,10.39-8.032,12.76a0.621,0.621,0,0,0-.431.6,0.721,0.721,0,0,0,.719.72,0.922,0.922,0,0,0,.36-0.07c6.042-2.57,8.056-7.85,8.727-14.01H681.2c1.223,0.02,1.846.52,1.894,1.46,0.024,0.7.072,1.49,0.072,2.33,0,7.61-2.469,8.61-4.675,8.61a8.135,8.135,0,0,1-2.278-.36,1.074,1.074,0,0,0-.24-0.02,0.631,0.631,0,0,0-.623.67,0.654,0.654,0,0,0,.479.65,10.53,10.53,0,0,0,2.71.38c5.562,0,5.946-5.85,5.946-10.27,0-.77-0.024-1.51-0.048-2.21-0.048-1.56-1.151-2.44-3.093-2.44H676.5Zm19.365,0.04a15.781,15.781,0,0,1-3.692,5.74,0.875,0.875,0,0,0-.312.6,0.567,0.567,0,0,0,.6.53c0.432,0,.767-0.36,1.559-1.44a4.728,4.728,0,0,1,3.045-1.56c0.959,0,1.726.62,1.918,2.23-1.774.98-4.963,2.86-4.963,5.38,0,1.32,1.1,3.4,5.131,3.4a13.59,13.59,0,0,0,3.428-.43,0.864,0.864,0,0,0,.767-0.81,0.663,0.663,0,0,0-.719-0.65,1.257,1.257,0,0,0-.407.07,11.764,11.764,0,0,1-3.4.53c-3.141,0-3.525-1.78-3.525-2.26,0-1.68,2.158-3.02,3.765-3.96v0.7c0,0.62-.024,1.32-0.048,1.87v0.07a0.574,0.574,0,0,0,.551.65c0.767,0,.767-0.77.767-1.99,0-.67-0.024-1.39-0.048-1.97,1.151-.58,2.47-1.18,3.717-1.66,1.271-.48,1.75-0.62,2.445-0.93a0.8,0.8,0,0,0,.5-0.7,0.7,0.7,0,0,0-.719-0.67,1.192,1.192,0,0,0-.576.17c-0.695.38-1.438,0.67-2.038,0.93-1.079.48-2.3,1.04-3.452,1.64a2.824,2.824,0,0,0-2.854-2.64,4.708,4.708,0,0,0-1.822.4,24.613,24.613,0,0,0,1.7-3.52c2.109-.48,3.572-0.92,3.572-1.66a0.585,0.585,0,0,0-.6-0.57,0.72,0.72,0,0,0-.384.12,12.4,12.4,0,0,1-2.182.84,7.637,7.637,0,0,0,.456-2.12,0.616,0.616,0,0,0-.672-0.6,0.648,0.648,0,0,0-.7.56,10.605,10.605,0,0,1-.408,2.49,11.2,11.2,0,0,1-2.014.24,2.516,2.516,0,0,1-1.318-.29,1.042,1.042,0,0,0-.552-0.19,0.58,0.58,0,0,0-.623.58c0,0.69,1.079,1.05,2.3,1.05a10.573,10.573,0,0,0,1.534-.14Zm31.195,10.3c-0.024-.96,0-3.24-0.048-4.37-0.048-.89-0.528-1.92-2.494-1.99-1.007-.02-2.014-0.05-3.045-0.05-1.222,0-2.445.03-3.6,0.05-1.846.05-2.541,1.06-2.565,1.94-0.072,2.33-.12,6.03-0.144,9.12a0.582,0.582,0,0,0,.623.6,0.618,0.618,0,0,0,.647-0.62c0-1.06,0-2.52.024-3.98h9.375c0,0.52-.024.98-0.024,1.39-0.024,1.32-.575,1.77-1.87,1.77a10.735,10.735,0,0,1-1.8-.16h-0.12a0.569,0.569,0,0,0-.576.6c0,0.4.216,0.79,2.4,0.79,2.877,0,3.237-1.59,3.237-2.79v-0.12Zm3.117-11.88a0.565,0.565,0,0,0,0-1.13l-8.488.03,0.024-2.16a0.6,0.6,0,0,0-.647-0.58,0.607,0.607,0,0,0-.672.58v2.16l-8.247-.03a0.565,0.565,0,0,0,0,1.13l5.922-.02c-0.288.84-.863,2.28-1.223,3.04-1.079.05-2.206,0.1-3.309,0.12a0.6,0.6,0,0,0-.623.6,0.612,0.612,0,0,0,.671.6,107.062,107.062,0,0,0,13.091-1.32,9.237,9.237,0,0,1,1.367,1.4,0.714,0.714,0,0,0,.6.31,0.625,0.625,0,0,0,.624-0.63c0-1-4.076-3.67-4.844-3.67a0.62,0.62,0,0,0-.647.53,0.443,0.443,0,0,0,.288.38,16.2,16.2,0,0,1,1.558.89q-3.632.51-7.48,0.72c0.455-.86,1.1-2.33,1.342-2.97h0.12Zm-4.34,11.62h-9.375c0-.72.024-1.47,0.024-2.12h9.351v2.12Zm-9.327-3.08v-0.72c0.024-.67.432-1.27,1.631-1.29,0.983-.03,2.134-0.05,3.284-0.05,0.96,0,1.919.02,2.758,0.05,1.175,0.05,1.582.57,1.606,1.29,0,0.2.024,0.44,0.024,0.72h-9.3Zm21.919,2.36a5.812,5.812,0,0,0-.5,2.25c0,2.43,2.278,3.29,5.083,3.29,1.631,0,6.57-.24,6.57-4.82a11.625,11.625,0,0,0-.264-2.26,0.731,0.731,0,0,0-.719-0.67,0.668,0.668,0,0,0-.695.65,0.372,0.372,0,0,0,.024.16,9.464,9.464,0,0,1,.263,2.04c0,1.44-.527,3.63-5.2,3.63-1.2,0-3.836-.12-3.836-2.21a4.823,4.823,0,0,1,.432-1.73c0.383-.91.935-1.94,1.2-2.69a2.885,2.885,0,0,0,.167-0.98,2.381,2.381,0,0,0-.263-1.13,40.131,40.131,0,0,1,.216-4.15c2.085-.65,2.8-1.06,2.8-1.58a0.638,0.638,0,0,0-.624-0.63,0.731,0.731,0,0,0-.359.12,7.586,7.586,0,0,1-1.7.84c0.072-.67.144-1.65,0.144-2.3a0.8,0.8,0,0,0-.743-1.01,0.688,0.688,0,0,0-.7.77v0.07c0.048,0.53.072,0.99,0.072,1.49,0,0.38-.024.77-0.048,1.22v0.12H739.7a5.319,5.319,0,0,1-1.223.12,3.726,3.726,0,0,1-1.391-.24,0.782,0.782,0,0,0-.311-0.07,0.618,0.618,0,0,0-.576.65c0,0.45.456,0.89,2.062,0.89a7.732,7.732,0,0,0,1.391-.15l-0.192,2.76a3.652,3.652,0,0,0-1.175-.21,2.825,2.825,0,0,0-2.685,2.92,2.61,2.61,0,0,0,2.493,2.76,2.471,2.471,0,0,0,.384-0.02Zm-0.312-1.16a1.573,1.573,0,0,1-1.414-1.63,1.749,1.749,0,0,1,1.606-1.89,1.368,1.368,0,0,1,1.391,1.39C739.7,6174.24,739.151,6175.6,738.12,6175.6Zm14.458-4.99c0-1.1-2.9-2.95-4.6-2.95a0.65,0.65,0,0,0-.719.65,0.6,0.6,0,0,0,.648.57,4.65,4.65,0,0,1,3.356,2.12,0.646,0.646,0,0,0,.576.33A0.741,0.741,0,0,0,752.578,6170.61Zm-447.029,35.97a0.741,0.741,0,0,0,.719-0.74,0.7,0.7,0,0,0-.263-0.55,15.283,15.283,0,0,0-5.323-2.33,0.62,0.62,0,0,0-.648.6,0.574,0.574,0,0,0,.456.55,12.97,12.97,0,0,1,4.6,2.28A0.65,0.65,0,0,0,305.549,6206.58Zm8.727,9.82c0-.72-1.678-3.36-3.956-5.5a0.662,0.662,0,0,0-.479-0.19,0.638,0.638,0,0,0-.672.57,0.574,0.574,0,0,0,.192.41,15.086,15.086,0,0,1,3.477,5.04,0.64,0.64,0,0,0,.623.46A0.821,0.821,0,0,0,314.276,6216.4Zm-13.067,2.28a23.35,23.35,0,0,0,8.416-13.87,0.67,0.67,0,0,0-.695-0.65,0.639,0.639,0,0,0-.648.53,21.144,21.144,0,0,1-7.049,12.45c0.048-2.62.12-5.88,0.216-8.74v-0.02a0.6,0.6,0,0,0-.671-0.55,0.61,0.61,0,0,0-.672.6c-0.048,3.17-.167,6.93-0.191,9.69a18.967,18.967,0,0,1-5.515,2.57,0.7,0.7,0,0,0-.551.67,0.679,0.679,0,0,0,.695.68,18.783,18.783,0,0,0,5.371-2.45c0.048,2.71,2.349,2.81,4.387,2.81,3.5,0,5.587-.6,5.587-4.32a0.753,0.753,0,0,0-.768-0.89,0.625,0.625,0,0,0-.647.69c0,2.79-.911,3.34-4.292,3.34-2.014,0-2.973-.34-2.973-1.8v-0.74Zm-6.617-.87a15.963,15.963,0,0,0,3.045-6,0.656,0.656,0,0,0-.695-0.65,0.631,0.631,0,0,0-.624.51,12.943,12.943,0,0,1-2.9,5.33,0.749,0.749,0,0,0-.216.5,0.681,0.681,0,0,0,.72.65A0.913,0.913,0,0,0,294.592,6217.81Zm43.09-13.75a0.565,0.565,0,0,0,0-1.13H319.436a0.555,0.555,0,0,0-.576.58,0.549,0.549,0,0,0,.576.55l6.258-.02v2.35c-0.888,0-1.727.02-2.518,0.02-2.206.03-2.4,0.87-2.4,2.76,0,1.51.072,2.47,2.494,2.5,1.846,0.02,3.812.02,5.706,0.02,1.918,0,3.741,0,5.323-.02,1.678-.03,2.3-0.75,2.326-1.71,0.024-.26.024-0.62,0.024-1,0-1.54,0-2.52-2.35-2.55-0.863,0-1.8-.02-2.805-0.02v-2.35Zm0.407,11.38a0.536,0.536,0,0,0,.552-0.58,0.528,0.528,0,0,0-.552-0.55h-11.2c0.24-.65.456-1.27,0.648-1.87a0.329,0.329,0,0,0,.024-0.15,0.624,0.624,0,0,0-.672-0.53,0.6,0.6,0,0,0-.6.44c-0.216.69-.456,1.41-0.695,2.11h-6.57a0.565,0.565,0,1,0,0,1.13l6.162-.03a18.942,18.942,0,0,1-1.75,3.41,0.714,0.714,0,0,0-.12.34,0.561,0.561,0,0,0,.623.48,1.2,1.2,0,0,0,1.007-.89,22.1,22.1,0,0,1,4.292.53c-1.894,1.68-4.987,2.25-9.255,2.25H319.46a0.59,0.59,0,1,0,0,1.18h0.192c5.538,0,8.943-1.01,10.909-3.1a17.544,17.544,0,0,1,5.826,2.81,0.661,0.661,0,0,0,.432.17,0.691,0.691,0,0,0,.647-0.7,0.672,0.672,0,0,0-.288-0.55,19.59,19.59,0,0,0-5.922-2.62,9.108,9.108,0,0,0,1.3-3.28h5.538Zm-6.833-.03a6.931,6.931,0,0,1-1.223,3,28.376,28.376,0,0,0-4.6-.6c0.359-.74.743-1.58,1.055-2.4h4.771Zm2.805-7.97c1.391,0,1.391.63,1.391,1.73,0,1.01-.12,1.49-1.367,1.49-0.719,0-1.606.02-2.589,0.02v-3.24h2.565Zm-8.367,3.24c-0.864,0-1.655-.02-2.278-0.02-1.343,0-1.439-.48-1.439-1.61,0-1.32.264-1.61,1.415-1.61h2.3v3.24Zm4.627,0h-3.5v-3.26h3.5v3.26Zm0-4.29h-3.5v-2.35h3.5v2.35Zm17.617,4.37a28.024,28.024,0,0,1-4.627,8.95,1.018,1.018,0,0,0-.312.69,0.635,0.635,0,0,0,.7.6,1.029,1.029,0,0,0,.839-0.48,35.724,35.724,0,0,0,4.8-9.93c1.055-.12,1.7-0.17,2.062-0.17,1.438,0,1.726.91,1.726,2.45,0,1.73-.359,6.41-3.309,6.41a4.9,4.9,0,0,1-1.366-.22,0.791,0.791,0,0,0-.216-0.02,0.647,0.647,0,0,0-.671.64c0,0.72,1.246.96,2.182,0.96,2.421,0,4.651-2.06,4.651-7.89,0-1.83-.528-3.48-2.781-3.48-0.072,0-.1,0-1.966.17a27.43,27.43,0,0,0,.911-4.2,0.65,0.65,0,0,0-.672-0.65,0.672,0.672,0,0,0-.695.6,41.81,41.81,0,0,1-.935,4.39l-1.558.17c-0.888.07-1.631,0.07-2.422,0.09a0.643,0.643,0,0,0-.623.65,0.6,0.6,0,0,0,.647.6,22.731,22.731,0,0,0,2.493-.19Zm13.427,3.76a0.726,0.726,0,0,0,.695-0.76c0-1.52-3.836-5.21-4.987-5.21a0.612,0.612,0,0,0-.623.57,0.5,0.5,0,0,0,.288.44,9.267,9.267,0,0,1,4,4.48A0.66,0.66,0,0,0,361.365,6214.52Zm0.983-7.99a0.607,0.607,0,0,0,.575-0.62c0-.96-2.709-2.09-3.14-2.09a0.579,0.579,0,0,0-.624.51,0.475,0.475,0,0,0,.336.43,8.166,8.166,0,0,1,2.445,1.58A0.517,0.517,0,0,0,362.348,6206.53Zm-1.918,1.85a0.628,0.628,0,0,0,.575-0.62c0-.92-2.613-2.14-3.093-2.14a0.57,0.57,0,0,0-.6.5,0.44,0.44,0,0,0,.312.41,8,8,0,0,1,2.4,1.63A0.523,0.523,0,0,0,360.43,6208.38Zm17.886,2.71c2.637,0.36,3.98,2.07,3.98,4.01,0,2.28-1.846,4.87-5.659,6.02a0.746,0.746,0,0,0-.6.7,0.612,0.612,0,0,0,.671.58c0.552,0,6.977-2.09,6.977-7.23,0-2.52-1.8-4.77-5.083-5.18,0.072-.53.072-0.53,0.072-0.55a0.633,0.633,0,0,0-.671-0.63c-0.5,0-.623.34-0.719,1.11a10.4,10.4,0,0,0-3.716.74c0.095-1.01.263-2.09,0.431-3.26a25.935,25.935,0,0,0,4.6-1.13,0.74,0.74,0,0,0,.6-0.65,0.592,0.592,0,0,0-.623-0.57,0.719,0.719,0,0,0-.288.04,22.949,22.949,0,0,1-4.1,1.13c0.12-.79.288-1.63,0.431-2.49v-0.12a0.641,0.641,0,0,0-.671-0.6,0.666,0.666,0,0,0-.647.64c-0.144.94-.264,1.85-0.384,2.74a13.134,13.134,0,0,1-1.366.07,6.654,6.654,0,0,1-1.943-.24,2.05,2.05,0,0,0-.311-0.05,0.555,0.555,0,0,0-.576.58c0,0.55.768,0.84,2.782,0.84a10.992,10.992,0,0,0,1.27-.05c-0.168,1.32-.311,2.52-0.407,3.67-3.477,1.92-5.323,4.99-5.323,7.25,0,1.58.911,2.23,1.87,2.23,1.127,0,2.949-1.29,4-2.16,0.48,1.13.695,1.3,1.031,1.3a0.705,0.705,0,0,0,.647-0.75,0.794,0.794,0,0,0-.119-0.45,5.918,5.918,0,0,1-.5-1.06A16.628,16.628,0,0,0,378.316,6211.09Zm-5.754,6.19c-1.8,1.59-3.117,2.12-3.477,2.12a0.917,0.917,0,0,1-.863-1.11c0-1.85,1.87-4.51,4.076-5.83-0.024.5-.048,1.01-0.048,1.49A15.518,15.518,0,0,0,372.562,6217.28Zm4.435-6.26a14.491,14.491,0,0,1-3.357,5.26,13.791,13.791,0,0,1-.239-2.74c0-.53.024-1.1,0.072-1.7A10.49,10.49,0,0,1,377,6211.02Zm21.588,9.43v-0.17c0-2.32-1.415-3.4-3.069-3.4-1.918,0-2.614,1.15-2.614,2.06,0,1.44,1.607,2.74,4.412,2.74,3.86,0,6.641-2.55,6.641-5.52,0-2.24-1.822-4.13-5.082-4.13a9.252,9.252,0,0,0-4.2,1.01l3.308-3.44c2.686-2.8,2.83-3.14,2.83-3.6a1,1,0,0,0-1.151-.91,2.257,2.257,0,0,0-.552.08,54.526,54.526,0,0,1-5.682,1.1,0.679,0.679,0,0,0-.671.65,0.661,0.661,0,0,0,.719.64c0.144,0,4.2-.81,5.49-1.22a0.556,0.556,0,0,1,.168-0.02c0.048,0,.072.02,0.072,0.04a87.65,87.65,0,0,1-8.056,8.84,0.988,0.988,0,0,0-.335.67,0.719,0.719,0,0,0,.743.67,0.731,0.731,0,0,0,.6-0.31,8.194,8.194,0,0,1,6.378-3.15c2.11,0,4.076.96,4.076,3.15A4.637,4.637,0,0,1,398.585,6220.45Zm-1.223.12h-0.336c-1.894,0-2.949-.81-2.949-1.63,0-.14.144-1.03,1.511-1.03,1.127,0,1.774.91,1.774,2.49v0.17ZM415,6210.76a28,28,0,0,1-4.627,8.95,1.018,1.018,0,0,0-.312.69,0.635,0.635,0,0,0,.7.6,1.029,1.029,0,0,0,.839-0.48,35.724,35.724,0,0,0,4.8-9.93c1.055-.12,1.7-0.17,2.062-0.17,1.439,0,1.726.91,1.726,2.45,0,1.73-.359,6.41-3.308,6.41a4.905,4.905,0,0,1-1.367-.22,0.791,0.791,0,0,0-.216-0.02,0.648,0.648,0,0,0-.671.64c0,0.72,1.247.96,2.182,0.96,2.421,0,4.651-2.06,4.651-7.89,0-1.83-.527-3.48-2.781-3.48-0.072,0-.1,0-1.966.17a27.43,27.43,0,0,0,.911-4.2,0.65,0.65,0,0,0-.672-0.65,0.672,0.672,0,0,0-.695.6,41.81,41.81,0,0,1-.935,4.39l-1.558.17c-0.887.07-1.631,0.07-2.422,0.09a0.643,0.643,0,0,0-.623.65,0.6,0.6,0,0,0,.647.6,22.746,22.746,0,0,0,2.494-.19Zm13.427,3.76a0.726,0.726,0,0,0,.695-0.76c0-1.52-3.836-5.21-4.987-5.21a0.612,0.612,0,0,0-.623.57,0.5,0.5,0,0,0,.288.44,9.267,9.267,0,0,1,4,4.48A0.661,0.661,0,0,0,428.425,6214.52Zm0.983-7.99a0.607,0.607,0,0,0,.575-0.62c0-.96-2.709-2.09-3.14-2.09a0.579,0.579,0,0,0-.624.51,0.475,0.475,0,0,0,.336.43,8.166,8.166,0,0,1,2.445,1.58A0.517,0.517,0,0,0,429.408,6206.53Zm-1.918,1.85a0.628,0.628,0,0,0,.575-0.62c0-.92-2.613-2.14-3.093-2.14a0.57,0.57,0,0,0-.6.5,0.44,0.44,0,0,0,.312.41,8,8,0,0,1,2.4,1.63A0.523,0.523,0,0,0,427.49,6208.38Zm11.175,13.75c0-1.1-3.668-3.62-4.459-3.62a0.6,0.6,0,0,0-.624.6,0.616,0.616,0,0,0,.36.53,10.445,10.445,0,0,1,3.476,2.85,0.658,0.658,0,0,0,.552.31A0.673,0.673,0,0,0,438.665,6222.13Zm20.237-16.15a0.69,0.69,0,0,0,.648-0.72c0-1.2-4.364-2.71-5.179-2.71a0.671,0.671,0,0,0-.7.62,0.527,0.527,0,0,0,.432.51,11.172,11.172,0,0,1,4.316,2.11A0.7,0.7,0,0,0,458.9,6205.98Zm7.649,15.89a0.59,0.59,0,0,0,0-1.18l-8.728.03v-6.05l5.755,0.02a0.586,0.586,0,0,0,.623-0.6,0.575,0.575,0,0,0-.623-0.57l-5.755.02v-4.8l7.169,0.02a0.554,0.554,0,0,0,.6-0.57,0.561,0.561,0,0,0-.6-0.58h-15.8a0.575,0.575,0,1,0,.024,1.15l7.289-.02v4.8l-5.9-.02a0.585,0.585,0,1,0,0,1.17l5.9-.02v6.05l-8.8-.03a0.591,0.591,0,0,0-.6.6,0.562,0.562,0,0,0,.6.58h18.846Zm15.857,0.48a0.573,0.573,0,0,0,.623.55,0.566,0.566,0,0,0,.6-0.55v-4.87l2.853,0.02a0.527,0.527,0,0,0,.551-0.55,0.512,0.512,0,0,0-.551-0.55l-2.853.02v-1.01l-0.072-5.66a28.1,28.1,0,0,0,6.521,7.82,0.7,0.7,0,0,0,.48.19,0.706,0.706,0,0,0,.695-0.69,0.616,0.616,0,0,0-.263-0.51,24.511,24.511,0,0,1-7.026-8.04l5.851,0.08a0.545,0.545,0,0,0,.551-0.56,0.56,0.56,0,0,0-.575-0.6h-6.138v-4.67a0.627,0.627,0,0,0-1.247,0v4.67h-5.634a0.555,0.555,0,0,0-.576.58,0.562,0.562,0,0,0,.6.58l5.178-.08a23.058,23.058,0,0,1-6.5,8.55,0.611,0.611,0,0,0-.264.5,0.659,0.659,0,0,0,.648.63,0.636,0.636,0,0,0,.479-0.2,26.5,26.5,0,0,0,6.162-8.35l-0.1,5.79v0.98l-2.781-.02a0.548,0.548,0,0,0-.576.57,0.528,0.528,0,0,0,.576.53l2.781-.02v4.87Zm-9.207.07a0.542,0.542,0,0,0,.6.55,0.622,0.622,0,0,0,.671-0.6l0.264-14.9a20.491,20.491,0,0,0,2.134-4.44,0.735,0.735,0,0,0-.744-0.65,0.575,0.575,0,0,0-.575.43,23.107,23.107,0,0,1-5.826,9.12,0.68,0.68,0,0,0-.216.46,0.633,0.633,0,0,0,.623.6c0.216,0,.887-0.1,3.357-3.6L473.2,6222.4v0.02Zm24.842-16.13a1.967,1.967,0,0,0-2.206,1.9c-0.024,1.53-.024,3.62-0.024,5.69,0,1.51,0,3.02.024,4.27,0.048,2.06,1.846,2.11,3.405,2.11,1.63,0,3.4-.05,3.452-2.11,0.024-1.56.048-3.51,0.048-5.45,0-1.61-.024-3.19-0.048-4.56-0.048-1.85-1.822-1.87-3.165-1.87a24.98,24.98,0,0,0,1.127-3.36,0.672,0.672,0,0,0-.719-0.6,0.6,0.6,0,0,0-.624.55,21.435,21.435,0,0,1-.959,3.41Zm13.163,1.08c1.894,0,1.894,1.32,1.894,4.37,0,7.78-1.846,9.5-4.388,9.5a8.584,8.584,0,0,1-1.966-.26,0.71,0.71,0,0,0-.192-0.02,0.607,0.607,0,0,0-.623.64,0.638,0.638,0,0,0,.5.65,10.767,10.767,0,0,0,2.35.29c3.237,0,5.586-1.78,5.586-10.68,0-1.2-.047-2.3-0.1-3.14a2.582,2.582,0,0,0-2.83-2.5c-1.174,0-3.356.05-4.675,0.07a18.773,18.773,0,0,0,1.175-3.48,0.65,0.65,0,0,0-.695-0.6,0.541,0.541,0,0,0-.576.44,19.228,19.228,0,0,1-3.333,7.29,0.649,0.649,0,0,0-.167.41,0.607,0.607,0,0,0,.623.55c0.312,0,.887-0.17,2.47-3.53h4.939Zm-9.711,6.03c0,1.65-.024,3.31-0.048,4.56-0.024,1.12-.887,1.17-2.2,1.17-1.463,0-2.158-.19-2.182-1.17-0.024-1.16-.024-2.86-0.024-4.56H501.5Zm-4.459-1.06c0-1.54,0-2.98.024-3.96a1.115,1.115,0,0,1,1.27-1.08H500.3a1.077,1.077,0,0,1,1.151,1.08c0.024,1.08.048,2.5,0.048,3.96h-4.459Zm12.108,2.98a0.744,0.744,0,0,0,.695-0.75c0-1.05-3.572-3.09-4.172-3.09a0.645,0.645,0,0,0-.671.62,0.459,0.459,0,0,0,.288.41,9.932,9.932,0,0,1,3.428,2.59A0.51,0.51,0,0,0,509.144,6215.32Zm13.368,6.43a0.7,0.7,0,0,0,.672-0.77c0-.07-0.024-0.12-0.024-0.19v-0.12c0-1.25,1.1-3.31,1.7-4.39a0.68,0.68,0,0,0,.072-0.29,0.584,0.584,0,0,0-.575-0.58,0.525,0.525,0,0,0-.5.31c-0.1.17-.959,1.83-1.007,1.95a0.776,0.776,0,0,1-.288.41c-0.143,0-.431-0.56-0.431-2.26a52.625,52.625,0,0,1,1.342-9.58v-0.12a0.618,0.618,0,0,0-.647-0.59,0.658,0.658,0,0,0-.647.59c-0.216,1.47-.839,4.16-1.127,6.94-0.1.96-.168,1.94-0.168,2.9C520.882,6217.4,521.242,6221.75,522.512,6221.75Zm13.6-1.51a0.829,0.829,0,0,0,.671-0.8,0.648,0.648,0,0,0-.719-0.64,1.286,1.286,0,0,0-.264.02,13.413,13.413,0,0,1-3.093.38,5.494,5.494,0,0,1-3.788-1.17,0.671,0.671,0,0,0-.5-0.22,0.651,0.651,0,0,0-.672.63c0,0.64,1.7,2.16,5.323,2.16A13.755,13.755,0,0,0,536.107,6220.24Zm-0.887-11.14a0.651,0.651,0,0,0,.647-0.67c0-.43-0.216-0.96-3.333-0.96a15.511,15.511,0,0,0-3.836.45,0.653,0.653,0,0,0-.551.63,0.664,0.664,0,0,0,.623.67,0.359,0.359,0,0,0,.144-0.02,13.445,13.445,0,0,1,3.333-.44,12.545,12.545,0,0,1,2.805.32A0.556,0.556,0,0,0,535.22,6209.1Zm26.455,8.28c-0.048-2.3-.024-8.69-0.072-12.02a2.069,2.069,0,0,0-2.3-2.21c-1.007-.02-1.942-0.05-2.853-0.05-1.1,0-2.158.03-3.285,0.05-1.7.05-2.613,0.82-2.613,2.52v0.07c0.024,1.51.1,3.31,0.1,5.18,0,3.99-.312,8.31-2.086,11a0.5,0.5,0,0,0-.1.31,0.615,0.615,0,0,0,.647.55,0.725,0.725,0,0,0,.648-0.38c1.8-2.91,2.062-7.76,2.062-11.96,0-1.68-.048-3.28-0.048-4.58a1.405,1.405,0,0,1,1.558-1.63c0.983-.05,1.894-0.05,2.8-0.05s1.846,0,2.83.05a1.289,1.289,0,0,1,1.414,1.49c0.048,3.14.072,11.4,0.072,13.94,0,1.3-.551,1.73-1.558,1.73a9.448,9.448,0,0,1-1.751-.24h-0.12a0.569,0.569,0,0,0-.527.62,0.617,0.617,0,0,0,.48.63,9.974,9.974,0,0,0,1.87.21c2.325,0,2.877-1.29,2.877-2.66v-0.07Zm-19.373,3.1c0.048,1.58,1.295,1.63,2.877,1.63,1.535,0,3.093-.03,3.141-1.66,0.024-.53.024-1.13,0.024-1.7,0-.6,0-1.23-0.024-1.78a1.608,1.608,0,0,0-1.678-1.44c-0.552-.02-1.007-0.05-1.487-0.05-1.558,0-2.8.03-2.853,1.64,0,0.52-.024,1.05-0.024,1.6S542.3,6219.85,542.3,6220.48Zm11.053-2.36c0.048,1.28,1.439,1.37,2.446,1.37,2.853,0,2.925-.48,2.925-2.71,0-2.86-.144-3.19-2.542-3.19-1.582,0-2.781.02-2.829,1.34,0,0.51-.024,1.06-0.024,1.59C553.331,6217.07,553.355,6217.6,553.355,6218.12Zm5.611-6.4a0.5,0.5,0,0,0,.5-0.53,0.5,0.5,0,0,0-.5-0.51l-2.374.03v-2.33l2.134,0.02a0.515,0.515,0,0,0,0-1.03l-2.134.03v-1.78a0.546,0.546,0,0,0-.576-0.55,0.553,0.553,0,0,0-.6.55v1.78l-2.014-.03a0.515,0.515,0,1,0,0,1.03l2.014-.02v2.33l-2.254-.03a0.52,0.52,0,1,0,0,1.04h5.8Zm-15.585,5.64c0.048-.87.575-0.89,1.87-0.89,1.7,0,1.942.14,1.966,0.89,0.024,0.36.024,0.88,0.024,1.41s0,1.06-.024,1.42c-0.024.74-.527,0.86-1.99,0.86-1.51,0-1.822-.19-1.846-0.81,0-.39-0.024-0.92-0.024-1.47C543.357,6218.24,543.381,6217.69,543.381,6217.36Zm12.516,1.12c-0.864,0-1.439-.09-1.487-0.72,0-.31-0.024-0.76-0.024-1.22s0.024-.94.024-1.27a0.71,0.71,0,0,1,.791-0.72,7,7,0,0,1,.839-0.03c1.631,0,1.631.03,1.631,1.97S557.647,6218.48,555.9,6218.48Zm-7.169-11.35a0.566,0.566,0,1,0,0-1.13h-6.45a0.576,0.576,0,0,0-.6.58,0.54,0.54,0,0,0,.6.55h6.45Zm-0.959,3.17a0.54,0.54,0,1,0,0-1.08h-4.652a0.542,0.542,0,0,0-.551.55,0.508,0.508,0,0,0,.551.53h4.652Zm-0.048-6.5a0.531,0.531,0,0,0,.551-0.55,0.521,0.521,0,0,0-.551-0.53h-4.652a0.542,0.542,0,0,0-.551.55,0.513,0.513,0,0,0,.551.53h4.652Zm0.048,9.62a0.521,0.521,0,0,0,.551-0.53,0.527,0.527,0,0,0-.551-0.53h-4.652a0.533,0.533,0,0,0-.551.56,0.5,0.5,0,0,0,.551.5h4.652Zm35.793-4.13a0.639,0.639,0,0,0,.6-0.65c0-.91-2.614-2.3-3.237-2.3a0.572,0.572,0,0,0-.623.53,0.466,0.466,0,0,0,.335.43,8.44,8.44,0,0,1,2.47,1.75A0.543,0.543,0,0,0,583.562,6209.29Zm-2.062,1.83a0.62,0.62,0,0,0,.6-0.63c0-.96-2.829-2.33-3.213-2.33a0.569,0.569,0,0,0-.6.51,0.473,0.473,0,0,0,.311.43,8.189,8.189,0,0,1,2.446,1.78A0.569,0.569,0,0,0,581.5,6211.12Zm4.388,8.25a0.769,0.769,0,0,0,.36-1.46,38.737,38.737,0,0,1-5.131-3.43c-1.655-1.25-3.237-2.69-4.819-3.82a4.493,4.493,0,0,0-2.542-.98,4.252,4.252,0,0,0-2.493.98,33.828,33.828,0,0,1-3.717,2.47,0.818,0.818,0,0,0-.5.7,0.707,0.707,0,0,0,.743.65c0.647,0,3.165-1.95,4.22-2.79a2.951,2.951,0,0,1,1.75-.77c1.007,0,2.014.77,6.474,4.61C582.412,6217.43,585.145,6219.37,585.888,6219.37Zm10,2.76c0-1.1-3.668-3.62-4.459-3.62a0.6,0.6,0,0,0-.624.6,0.616,0.616,0,0,0,.36.53,10.459,10.459,0,0,1,3.477,2.85,0.655,0.655,0,0,0,.551.31A0.672,0.672,0,0,0,595.888,6222.13Zm19.686-12.77c2.206,3.41,3.021,4.71,3.021,5.38,0,0.17-.12.24-0.36,0.24a1.749,1.749,0,0,1-.311-0.02,27.421,27.421,0,0,0-3.741-.29c-3.836,0-5.97,1.13-5.97,3.24,0,3.12,4.843,4.05,7.745,4.05a0.831,0.831,0,0,0,.959-0.76,0.767,0.767,0,0,0-.912-0.7c-0.263.02-.5,0.02-0.767,0.02-3.356,0-5.73-1.12-5.73-2.61,0-2.04,3.692-2.09,4.483-2.09,1.295,0,3.957.19,4.892,0.89a1.431,1.431,0,0,0,.815.31,0.757,0.757,0,0,0,.7-0.91,9.512,9.512,0,0,0-1.774-4.18c-0.6-.91-1.271-1.92-1.894-2.93,2.3-.79,3-1.17,3-1.75a0.623,0.623,0,0,0-.648-0.62,1.027,1.027,0,0,0-.431.09c-0.36.15-.48,0.29-0.815,0.46a16.949,16.949,0,0,1-1.8.72,16.6,16.6,0,0,1-1.654-3.29,0.808,0.808,0,0,0-.767-0.6,0.582,0.582,0,0,0-.6.6c0,0.63,1.655,3.29,1.871,3.63a10.764,10.764,0,0,1-2.854.43,6.3,6.3,0,0,1-3-.72,1,1,0,0,0-.407-0.12,0.617,0.617,0,0,0-.624.62c0,1.06,2.95,1.47,3.909,1.47A15.492,15.492,0,0,0,615.574,6209.36Zm22.669,11.69c2.709-1.65,3.908-3.65,3.908-5.28,0-1.8-1.463-3.14-3.908-3.14-2.542,0-5.011,1.39-7.073,2.66a1.274,1.274,0,0,1-.528.27c-0.287,0-.287-0.7-0.287-1.08a20.24,20.24,0,0,1,.287-2.76c0.192-1.18.48-2.6,0.624-3.63v-0.12a0.546,0.546,0,0,0-.576-0.55,0.664,0.664,0,0,0-.671.58c-0.168,1.05-.48,2.61-0.671,4.17a24.687,24.687,0,0,0-.216,2.83c0,1.8.431,2.38,1.1,2.38a1.928,1.928,0,0,0,1.2-.6c1.27-1.1,4.219-2.98,6.737-2.98,1.343,0,2.589.56,2.589,2,0,1.24-1.031,2.83-3.4,4.22a12.878,12.878,0,0,1-3.453,1.13,0.765,0.765,0,0,0-.743.72,0.722,0.722,0,0,0,.791.67A12.559,12.559,0,0,0,638.243,6221.05Zm-1.918-15.5c-0.024-.58-0.863-1.1-1.559-1.54a19.28,19.28,0,0,1-1.726-1.1,0.948,0.948,0,0,0-.528-0.19,0.577,0.577,0,0,0-.623.55c0,0.38.12,0.46,1.846,1.56a1.287,1.287,0,0,1,.7.62,1.18,1.18,0,0,1-.911.6,0.408,0.408,0,0,0-.288.43,0.613,0.613,0,0,0,.623.6,1.205,1.205,0,0,0,.264-0.04C636.085,6206.46,636.325,6206.22,636.325,6205.55Zm14.61,16.2a0.7,0.7,0,0,0,.672-0.77c0-.07-0.024-0.12-0.024-0.19v-0.12c0-1.25,1.1-3.31,1.7-4.39a0.68,0.68,0,0,0,.072-0.29,0.585,0.585,0,0,0-.576-0.58,0.524,0.524,0,0,0-.5.31c-0.1.17-.959,1.83-1.007,1.95a0.776,0.776,0,0,1-.288.41c-0.144,0-.431-0.56-0.431-2.26a52.625,52.625,0,0,1,1.342-9.58v-0.12a0.618,0.618,0,0,0-.647-0.59,0.658,0.658,0,0,0-.647.59c-0.216,1.47-.84,4.16-1.127,6.94-0.1.96-.168,1.94-0.168,2.9C649.3,6217.4,649.665,6221.75,650.935,6221.75Zm13.6-1.51a0.829,0.829,0,0,0,.671-0.8,0.648,0.648,0,0,0-.719-0.64,1.286,1.286,0,0,0-.264.02,13.413,13.413,0,0,1-3.093.38,5.494,5.494,0,0,1-3.788-1.17,0.671,0.671,0,0,0-.5-0.22,0.651,0.651,0,0,0-.671.63c0,0.64,1.7,2.16,5.323,2.16A13.755,13.755,0,0,0,664.53,6220.24Zm-0.887-11.14a0.651,0.651,0,0,0,.647-0.67c0-.43-0.216-0.96-3.333-0.96a15.511,15.511,0,0,0-3.836.45,0.653,0.653,0,0,0-.551.63,0.663,0.663,0,0,0,.623.67,0.359,0.359,0,0,0,.144-0.02,13.445,13.445,0,0,1,3.333-.44,12.545,12.545,0,0,1,2.805.32A0.556,0.556,0,0,0,663.643,6209.1Zm14.759-3.84a19.834,19.834,0,0,0,.887-2.85,0.66,0.66,0,0,0-.743-0.6,0.612,0.612,0,0,0-.671.45c-0.1.55-.456,1.99-0.768,3-0.767,0-1.462.03-1.942,0.05-2.062.07-3.045,1.15-3.069,2.71-0.024,1.8-.048,4.18-0.048,6.46,0,1.87.024,3.64,0.048,4.99,0.048,1.87,1.127,2.71,3.309,2.78,1.127,0.05,2.709.07,4.268,0.07,1.127,0,2.229-.02,3.141-0.04,2.133-.08,3.236-1.01,3.284-2.86,0.048-1.34.072-3.48,0.072-5.66,0-2.21-.024-4.42-0.1-5.88a2.675,2.675,0,0,0-2.9-2.57C682.07,6205.26,680.152,6205.26,678.4,6205.26Zm-5.131,5.26c0-.84.024-1.59,0.048-2.19,0.048-1.13.575-1.87,2.206-1.94,0.743-.05,2.038-0.05,3.428-0.05,1.367,0,2.806,0,3.765.05,2.158,0.09,2.158,1.08,2.158,4.13H673.271Zm11.605,5.08H673.271c0-1.29-.024-2.68-0.024-3.98h11.629v3.98Zm-0.024,1.11c0,0.93,0,1.77-.024,2.42-0.048,2.09-1.391,2.09-5.563,2.09-4.651,0-5.874,0-5.946-2.06-0.024-.63-0.048-1.49-0.048-2.45h11.581Zm17.212-4.9c1.175,0,2.277.03,3.165,0.03,1.294,0,1.414.88,1.414,1.68,0,5.54-.887,7.58-3.5,7.58a8.344,8.344,0,0,1-2.038-.31,0.539,0.539,0,0,0-.216-0.03,0.641,0.641,0,0,0-.624.7,0.593,0.593,0,0,0,.432.6,9.381,9.381,0,0,0,2.35.34c4.483,0,4.915-4.08,4.915-9.39a2.161,2.161,0,0,0-2.422-2.28c-1.007-.02-2.158-0.02-3.308-0.02-1.583,0-3.213,0-4.6.02a0.576,0.576,0,0,0-.6.58,0.532,0.532,0,0,0,.575.55c0.911,0,2.014-.02,3.141-0.02-0.432,4.15-2.254,8.04-7.433,9.62a0.668,0.668,0,0,0-.5.6,0.693,0.693,0,0,0,.719.67C693.624,6222.73,701.009,6221.36,702.064,6211.81Zm0.863-7.56h0.12a1.764,1.764,0,0,1,1.8,1.06c1.942,4.17,6.018,8.11,7.1,8.11a0.774,0.774,0,0,0,.767-0.77,0.747,0.747,0,0,0-.407-0.65,17.332,17.332,0,0,1-6.5-7.55,2.577,2.577,0,0,0-2.565-1.4h-0.12l-3.717.1a0.626,0.626,0,0,0,0,1.25h0.024Zm-10.07,9.6c0.935,0,4.459-3.07,6.234-6.67a0.845,0.845,0,0,0,.072-0.31,0.712,0.712,0,0,0-.7-0.7,0.671,0.671,0,0,0-.623.43,14.016,14.016,0,0,1-5.347,6A0.663,0.663,0,0,0,692.857,6213.85Zm34.115-6.38c3.429,0,6.4,2.35,6.4,5.71,0,3.62-2.877,5.86-6.114,6.55a0.764,0.764,0,0,0-.719.7,0.731,0.731,0,0,0,.815.67c0.839,0,7.385-1.92,7.385-7.82,0-4.23-3.621-6.87-7.745-6.87a8.915,8.915,0,0,0-9.183,8.47c0,2.84,1.87,4.47,3.117,4.47,3.213,0,6.378-9.03,6.378-11.26A0.661,0.661,0,0,0,726.972,6207.47Zm-0.791.05a0.818,0.818,0,0,0-.24.6c-0.335,4.03-3.308,9.79-4.939,9.79-0.959,0-1.942-1.49-1.942-3.12A7.771,7.771,0,0,1,726.181,6207.52Zm33.2,2.3a0.549,0.549,0,0,0,.576-0.55,0.533,0.533,0,0,0-.576-0.55l-5.2.02c2.23-1.85,4.532-4.32,4.532-4.85a0.707,0.707,0,0,0-.7-0.67,0.543,0.543,0,0,0-.455.24,27.741,27.741,0,0,1-5.179,5.28h-2.589v-2.93l3.908,0.03a0.517,0.517,0,0,0,.551-0.55,0.508,0.508,0,0,0-.551-0.53h-3.908l0.024-2.11a0.6,0.6,0,0,0-.648-0.58,0.578,0.578,0,0,0-.623.58v2.11h-5.035a0.528,0.528,0,0,0-.576.53,0.538,0.538,0,0,0,.576.55l5.035-.03,0.024,2.93-7.217-.02a0.532,0.532,0,0,0-.575.55,0.548,0.548,0,0,0,.575.55l9.638-.05a30.328,30.328,0,0,1-10.549,4.68,0.6,0.6,0,1,0,.1,1.2,26.758,26.758,0,0,0,7-2.61,27.084,27.084,0,0,1-1.535,4.87,0.688,0.688,0,0,0-.047.19,0.554,0.554,0,0,0,.623.48,0.632,0.632,0,0,0,.623-0.38l0.432-1.25c1.366-.03,3.237-0.05,4.819-0.05,2.35,0,2.877.02,2.877,0.79a5.037,5.037,0,0,1-1.031,2.45,4.033,4.033,0,0,1-3.237,1.22,12.856,12.856,0,0,1-3.188-.48,0.974,0.974,0,0,0-.24-0.02,0.6,0.6,0,0,0-.6.62,0.578,0.578,0,0,0,.408.56,13.89,13.89,0,0,0,3.453.5,5.421,5.421,0,0,0,4.507-1.85,6.727,6.727,0,0,0,1.2-3.17c0-1-.647-1.63-2.182-1.63-2.038,0-4.7,0-6.449.03l0.479-1.64a62.607,62.607,0,0,0,8.152-1.29,0.654,0.654,0,0,0,.575-0.63,0.616,0.616,0,0,0-.623-0.62,0.687,0.687,0,0,0-.24.05,51.937,51.937,0,0,1-7.6,1.44l0.216-.91a40.212,40.212,0,0,0,3.932-2.55Zm7.07,10.49c1.007-1.39,2.158-2.14,3.093-2.14a1.669,1.669,0,0,1,1.559,1.15c0.695,1.59,1.51,2.28,2.853,2.48a4.769,4.769,0,0,0,.791.07h0.288a13.229,13.229,0,0,0,4.243-.72,0.916,0.916,0,0,0,.7-0.82,0.661,0.661,0,0,0-.7-0.67,1,1,0,0,0-.455.1,11,11,0,0,1-4.052.84,2.592,2.592,0,0,1-2.566-1.85,2.4,2.4,0,0,0-2.205-1.54,2.96,2.96,0,0,0-1.151.24c2.829-2.9,5.083-5.45,6.234-6.72a1.288,1.288,0,0,0,.359-0.86,1.056,1.056,0,0,0-1.175-1.06,9.79,9.79,0,0,0-2.637.77,31.279,31.279,0,0,1-4.364,1.15,0.688,0.688,0,0,0-.623.67,0.746,0.746,0,0,0,.815.7,30.2,30.2,0,0,0,6.09-1.97,0.965,0.965,0,0,1,.264-0.07c0.024,0,.048,0,0.048.02a94.467,94.467,0,0,1-6.713,7.56c-0.816.77-1.943,1.95-2.758,2.88a0.96,0.96,0,0,0-.287.63,0.67,0.67,0,0,0,.743.57,1.357,1.357,0,0,0,1.031-.62Zm8.56-14.64a0.684,0.684,0,0,0-.552-0.62,14.267,14.267,0,0,1-3.572-1.83,0.771,0.771,0,0,0-.456-0.17,0.669,0.669,0,0,0-.671.63,0.611,0.611,0,0,0,.264.5c0.815,0.65,3.428,2.21,4.2,2.21A0.772,0.772,0,0,0,775.008,6205.67Zm15.145,1.77a15.781,15.781,0,0,1-3.692,5.74,0.875,0.875,0,0,0-.312.6,0.567,0.567,0,0,0,.6.53c0.432,0,.767-0.36,1.559-1.44a4.728,4.728,0,0,1,3.045-1.56c0.959,0,1.726.62,1.918,2.23-1.774.98-4.963,2.86-4.963,5.38,0,1.32,1.1,3.4,5.131,3.4a13.59,13.59,0,0,0,3.428-.43,0.864,0.864,0,0,0,.767-0.81,0.663,0.663,0,0,0-.719-0.65,1.257,1.257,0,0,0-.407.07,11.764,11.764,0,0,1-3.4.53c-3.141,0-3.525-1.78-3.525-2.26,0-1.68,2.158-3.02,3.765-3.96v0.7c0,0.62-.024,1.32-0.048,1.87v0.07a0.574,0.574,0,0,0,.551.65c0.767,0,.767-0.77.767-1.99,0-.67-0.024-1.39-0.048-1.97,1.151-.58,2.47-1.18,3.717-1.66,1.271-.48,1.75-0.62,2.445-0.93a0.8,0.8,0,0,0,.5-0.7,0.7,0.7,0,0,0-.719-0.67,1.192,1.192,0,0,0-.576.17c-0.695.38-1.438,0.67-2.038,0.93-1.079.48-2.3,1.04-3.452,1.64a2.824,2.824,0,0,0-2.854-2.64,4.708,4.708,0,0,0-1.822.4,24.613,24.613,0,0,0,1.7-3.52c2.109-.48,3.572-0.92,3.572-1.66a0.585,0.585,0,0,0-.6-0.57,0.72,0.72,0,0,0-.384.12,12.4,12.4,0,0,1-2.182.84,7.637,7.637,0,0,0,.456-2.12,0.616,0.616,0,0,0-.672-0.6,0.648,0.648,0,0,0-.7.56,10.605,10.605,0,0,1-.408,2.49,11.2,11.2,0,0,1-2.014.24,2.516,2.516,0,0,1-1.318-.29,1.042,1.042,0,0,0-.552-0.19,0.58,0.58,0,0,0-.623.58c0,0.69,1.079,1.05,2.3,1.05a10.573,10.573,0,0,0,1.534-.14Zm-477.1,36.33a0.632,0.632,0,0,0,.143-0.38,0.684,0.684,0,0,0-.671-0.67,0.651,0.651,0,0,0-.527.29,15.578,15.578,0,0,1-6.186,4.82,0.583,0.583,0,0,0-.36.53,0.626,0.626,0,0,0,.647.6C306.724,6248.96,310.512,6247.04,313.054,6243.77Zm0.383,5.71a0.561,0.561,0,0,0,.12-0.38,0.681,0.681,0,0,0-.671-0.65,0.639,0.639,0,0,0-.552.31,15.106,15.106,0,0,1-6.785,5.52,0.58,0.58,0,0,0,.24,1.13C306.268,6255.41,310.44,6253.71,313.437,6249.48Zm0.648,6.36a0.75,0.75,0,0,0,.143-0.43,0.685,0.685,0,0,0-.647-0.69,0.7,0.7,0,0,0-.575.33,13.829,13.829,0,0,1-8.656,6.19,0.568,0.568,0,0,0-.479.56,0.637,0.637,0,0,0,.695.62A15.657,15.657,0,0,0,314.085,6255.84Zm-12.732,6.03a0.628,0.628,0,0,0,1.247,0l-0.024-10.35h2.565a0.523,0.523,0,0,0,.552-0.55,0.513,0.513,0,0,0-.552-0.55h-2.565v-5.69h1.918a0.542,0.542,0,0,0,.575-0.55,0.532,0.532,0,0,0-.575-0.55h-9.806a0.526,0.526,0,0,0-.552.55,0.537,0.537,0,0,0,.552.55H296.7c0.024,0.72.024,1.06,0.024,5.69H294.04a0.526,0.526,0,0,0-.551.55,0.537,0.537,0,0,0,.551.55h2.686c-0.072,4.16-1.007,7.32-3.549,9.96a0.7,0.7,0,0,0-.215.46,0.668,0.668,0,0,0,.695.6,0.888,0.888,0,0,0,.6-0.29c2.374-2.47,3.573-6.02,3.645-10.75h3.452v10.37Zm0-11.45H297.9c0-2.06.048-4.18,0.048-5.69h3.4v5.69Zm20.178,11.33a0.7,0.7,0,0,0,.672-0.77c0-.07-0.024-0.12-0.024-0.19v-0.12c0-1.25,1.1-3.31,1.7-4.39a0.68,0.68,0,0,0,.072-0.29,0.585,0.585,0,0,0-.576-0.58,0.524,0.524,0,0,0-.5.31c-0.1.17-.959,1.83-1.007,1.95a0.776,0.776,0,0,1-.288.41c-0.144,0-.431-0.56-0.431-2.26a52.625,52.625,0,0,1,1.342-9.58v-0.12a0.618,0.618,0,0,0-.647-0.59,0.658,0.658,0,0,0-.647.59c-0.216,1.47-.84,4.16-1.127,6.94-0.1.96-.168,1.94-0.168,2.9C319.9,6257.4,320.26,6261.75,321.531,6261.75Zm13.595-1.51a0.829,0.829,0,0,0,.671-0.8,0.648,0.648,0,0,0-.719-0.64,1.286,1.286,0,0,0-.264.02,13.413,13.413,0,0,1-3.093.38,5.494,5.494,0,0,1-3.788-1.17,0.671,0.671,0,0,0-.5-0.22,0.651,0.651,0,0,0-.671.63c0,0.64,1.7,2.16,5.323,2.16A13.755,13.755,0,0,0,335.126,6260.24Zm-0.887-11.14a0.651,0.651,0,0,0,.647-0.67c0-.43-0.216-0.96-3.333-0.96a15.505,15.505,0,0,0-3.836.45,0.652,0.652,0,0,0-.551.63,0.663,0.663,0,0,0,.623.67,0.359,0.359,0,0,0,.144-0.02,13.445,13.445,0,0,1,3.333-.44,12.545,12.545,0,0,1,2.805.32A0.556,0.556,0,0,0,334.239,6249.1Zm9.985-4.51v0.55c0,1.54-.144,3.6-0.216,5.04-0.1,2.23-.335,4.08-0.335,6.17,0,0.33,0,.67.024,1.03,0.1,3.05,2.157,4.44,4.8,4.44a11.767,11.767,0,0,0,7.121-2.83,0.872,0.872,0,0,0,.335-0.67,0.729,0.729,0,0,0-.695-0.77,0.936,0.936,0,0,0-.623.26,10.347,10.347,0,0,1-6.186,2.64,3.062,3.062,0,0,1-3.405-3.07c-0.024-.38-0.024-0.74-0.024-1.13,0-1.99.192-3.98,0.36-6.19,0.336-4.44.36-5.4,0.36-5.52a0.73,0.73,0,0,0-.792-0.67A0.68,0.68,0,0,0,344.224,6244.59Zm29.78,16.2a0.84,0.84,0,0,0-1.007-.75h-0.431c-4.292,0-6.33-2.78-6.33-5.78a7.953,7.953,0,0,1,4.388-6.84,12.283,12.283,0,0,1,3.74-.72c1.39-.07,1.846-0.14,1.846-0.79a0.741,0.741,0,0,0-.791-0.74,35.908,35.908,0,0,0-6.809,1.43c-2.518.72-4.652,1.2-5.851,1.52-0.791.19-2.253,0.48-2.781,0.6a0.774,0.774,0,0,0-.719.72,0.794,0.794,0,0,0,.863.72c0.312,0,4.292-1.06,7.121-2a1.2,1.2,0,0,1,.384-0.09c0.048,0,.071.02,0.071,0.05a1.192,1.192,0,0,1-.287.36,9.086,9.086,0,0,0-2.47,6.02c0,3.86,3,7.08,7.864,7.08C373.693,6261.58,374,6261.15,374,6260.79Zm25.925-8.14a0.522,0.522,0,0,0,.528-0.55,0.507,0.507,0,0,0-.528-0.55l-8.511.02v-2.35l6.066,0.02a0.541,0.541,0,0,0,0-1.08l-6.066.03v-2.21l7.456,0.02a0.5,0.5,0,0,0,.5-0.55,0.493,0.493,0,0,0-.5-0.52h-7.456v-1.97a0.615,0.615,0,0,0-.648-0.6,0.583,0.583,0,0,0-.623.6v1.97h-7.385a0.5,0.5,0,0,0-.527.52,0.506,0.506,0,0,0,.527.55l7.385-.02v2.21l-5.994-.03a0.54,0.54,0,0,0,0,1.08l5.994-.02v2.35l-8.392-.02a0.528,0.528,0,0,0-.575.53,0.574,0.574,0,0,0,.6.57l7.7-.02a29.512,29.512,0,0,1-8.728,4.7,0.508,0.508,0,0,0-.359.51,0.667,0.667,0,0,0,.647.67,28.24,28.24,0,0,0,6.282-3.05v4.92a37.35,37.35,0,0,1-4.508,1.01,0.7,0.7,0,0,0-.623.67,0.63,0.63,0,0,0,.671.62,46.465,46.465,0,0,0,9.063-2.59,0.626,0.626,0,0,0,.456-0.57,0.639,0.639,0,0,0-.863-0.56c-0.792.34-1.8,0.7-2.949,1.06v-5.4c0.791-.55,1.558-1.15,2.325-1.8a12.584,12.584,0,0,0,9.543,9.5,0.7,0.7,0,0,0,.719-0.69,0.6,0.6,0,0,0-.5-0.6,11.721,11.721,0,0,1-6.114-3.53,29.311,29.311,0,0,0,4.435-2.4,0.653,0.653,0,0,0,.36-0.55,0.706,0.706,0,0,0-.695-0.67,0.564,0.564,0,0,0-.384.14,19.86,19.86,0,0,1-4.412,2.64,11.277,11.277,0,0,1-1.846-4.03Zm23.981,5.81v0.19c0,2.14-.48,2.52-2.11,2.52-1.151,0-1.367-.38-1.367-1.32v-0.5c0-1.15.048-2.62,0.1-3.96l0.384-.03a2.279,2.279,0,0,0,2.469-2.2c0.072-1.37.1-2.74,0.1-4.13,0-1.37-.024-2.74-0.1-4.06a2.313,2.313,0,0,0-2.469-2.16c-0.983-.04-1.678-0.04-2.326-0.04s-1.294,0-2.206.04a2.3,2.3,0,0,0-2.469,2.21c-0.024,1.3-.048,2.69-0.048,4.08,0,1.37.024,2.76,0.048,4.08a2.2,2.2,0,0,0,2.445,2.18c0.888,0.03,1.511.05,2.182,0.05h0.744c-0.024.48-.072,2.71-0.072,4.68,0,0.94.1,2.19,2.685,2.19s3.237-1.18,3.237-3.51v-0.31a0.621,0.621,0,0,0-.672-0.48A0.484,0.484,0,0,0,423.91,6258.46Zm-16.016-2.18c-1.031.36-2.086,0.69-3.069,0.96a0.663,0.663,0,0,0-.528.64,0.583,0.583,0,0,0,.624.58,46.79,46.79,0,0,0,7.193-2.64,0.571,0.571,0,0,0,.383-0.55,0.529,0.529,0,0,0-.527-0.53,0.611,0.611,0,0,0-.288.07c-0.695.34-1.63,0.7-2.613,1.06v-5.43l2.23,0.03a0.522,0.522,0,0,0,.527-0.55,0.514,0.514,0,0,0-.527-0.56h-2.23v-4.7l2.733,0.03a0.524,0.524,0,0,0,.527-0.56,0.511,0.511,0,0,0-.527-0.55h-6.641a0.55,0.55,0,0,0-.552.58,0.527,0.527,0,0,0,.552.53l2.733-.03v4.7H405.52a0.55,0.55,0,0,0-.551.58,0.513,0.513,0,0,0,.551.53l2.374-.03v5.84Zm14.314-4.9c0,1.9,0,2.9-1.559,2.95-0.791.03-1.438,0.03-2.062,0.03-2.493,0-3.5-.03-3.5-1.4v-1.58h7.121Zm0-.98h-7.145v-2.76h7.145v2.76Zm-7.145-3.75c0-.5,0-0.98.024-1.41a1.425,1.425,0,0,1,1.534-1.37c0.743-.02,1.415-0.05,2.11-0.05,3.477,0,3.477.12,3.477,2.83h-7.145Zm2.493,10.08a0.554,0.554,0,0,0,.048-0.19,0.687,0.687,0,0,0-.719-0.62,0.614,0.614,0,0,0-.6.48c-0.983,3.19-3.165,4.7-7.025,5.18a0.568,0.568,0,0,0-.5.58,0.64,0.64,0,0,0,.695.64h0.168C414.08,6262.16,416.31,6260.19,417.556,6256.73Zm21.152-7.37c2.206,3.41,3.021,4.71,3.021,5.38,0,0.17-.12.24-0.36,0.24a1.765,1.765,0,0,1-.312-0.02,27.394,27.394,0,0,0-3.74-.29c-3.836,0-5.97,1.13-5.97,3.24,0,3.12,4.843,4.05,7.744,4.05a0.83,0.83,0,0,0,.959-0.76,0.767,0.767,0,0,0-.911-0.7c-0.263.02-.5,0.02-0.767,0.02-3.357,0-5.73-1.12-5.73-2.61,0-2.04,3.692-2.09,4.483-2.09,1.3,0,3.956.19,4.891,0.89a1.436,1.436,0,0,0,.816.31,0.757,0.757,0,0,0,.695-0.91,9.512,9.512,0,0,0-1.774-4.18c-0.6-.91-1.271-1.92-1.894-2.93,2.3-.79,3-1.17,3-1.75a0.623,0.623,0,0,0-.648-0.62,1.021,1.021,0,0,0-.431.09c-0.36.15-.48,0.29-0.816,0.46a16.848,16.848,0,0,1-1.8.72,16.6,16.6,0,0,1-1.654-3.29,0.808,0.808,0,0,0-.767-0.6,0.582,0.582,0,0,0-.6.6c0,0.63,1.655,3.29,1.87,3.63a10.749,10.749,0,0,1-2.853.43,6.3,6.3,0,0,1-3-.72,1,1,0,0,0-.407-0.12,0.617,0.617,0,0,0-.624.62c0,1.06,2.949,1.47,3.908,1.47A15.492,15.492,0,0,0,438.708,6249.36Zm24.726-3.71c0.024,0.86.048,2.78,0.048,3.64v0.84c-2.422.39-4.867,0.89-6.665,1.3v-1.03c0.023-1.13.023-2.33,0.023-3.1a0.656,0.656,0,0,0-.695-0.7,0.706,0.706,0,0,0-.743.7v0.05c0.048,1.08.072,2.13,0.1,3.57,0,0.24.024,0.51,0.024,0.8-0.456.09-.815,0.19-1.079,0.26l-4,.96a0.827,0.827,0,0,0-.743.77,0.691,0.691,0,0,0,.743.67c0.168,0,1.846-.48,4.1-1.15l1.031-.29c0.216,5.76.5,8.5,5.586,8.5a14.205,14.205,0,0,0,3.836-.53,0.822,0.822,0,0,0,.648-0.75,0.619,0.619,0,0,0-.672-0.62,1.387,1.387,0,0,0-.287.02,15.846,15.846,0,0,1-3.884.58c-3.213,0-3.861-1.08-3.98-7.54,1.918-.48,4.291-0.98,6.593-1.32,0,0.12-.024.22-0.024,0.34-0.168,1.78-.767,3.72-1.678,3.72a2.15,2.15,0,0,1-1.439-1.2,0.53,0.53,0,0,0-.479-0.26,0.539,0.539,0,0,0-.552.55c0,0.24,1.1,2.23,2.47,2.23,0.863,0,2.589-.58,2.925-5.54l1.39-.17a28.616,28.616,0,0,1,2.9-.17c0.264,0,.528.02,0.792,0.02h0.072a0.749,0.749,0,0,0,.839-0.67c0-.55-0.648-0.62-1.391-0.62a38.7,38.7,0,0,0-4.531.43c0.12-3.58.12-3.82,0.12-4.25a0.643,0.643,0,0,0-.672-0.69,0.673,0.673,0,0,0-.719.62v0.03Zm19.06,14.8v-0.17c0-2.32-1.414-3.4-3.069-3.4-1.918,0-2.613,1.15-2.613,2.06,0,1.44,1.606,2.74,4.412,2.74,3.86,0,6.641-2.55,6.641-5.52,0-2.24-1.822-4.13-5.083-4.13a9.258,9.258,0,0,0-4.2,1.01l3.309-3.44c2.685-2.8,2.829-3.14,2.829-3.6a1,1,0,0,0-1.151-.91,2.256,2.256,0,0,0-.551.08,54.526,54.526,0,0,1-5.682,1.1,0.68,0.68,0,0,0-.672.65,0.662,0.662,0,0,0,.72.64c0.143,0,4.2-.81,5.49-1.22a0.556,0.556,0,0,1,.168-0.02c0.048,0,.072.02,0.072,0.04a87.65,87.65,0,0,1-8.056,8.84,0.99,0.99,0,0,0-.336.67,0.72,0.72,0,0,0,.743.67,0.733,0.733,0,0,0,.6-0.31,8.192,8.192,0,0,1,6.377-3.15c2.11,0,4.076.96,4.076,3.15A4.637,4.637,0,0,1,482.494,6260.45Zm-1.222.12h-0.336c-1.894,0-2.949-.81-2.949-1.63,0-.14.144-1.03,1.51-1.03,1.127,0,1.775.91,1.775,2.49v0.17Zm30.631-13.53a0.582,0.582,0,0,0,.6-0.6,0.562,0.562,0,0,0-.6-0.6h-8.416v-3.12a0.606,0.606,0,0,0-.671-0.58,0.615,0.615,0,0,0-.695.58l0.024,3.12h-8.536a0.6,0.6,0,0,0-.6.62,0.562,0.562,0,0,0,.6.58l8.1-.03c-0.455,5.81-2.685,11.31-8.871,14.31a0.7,0.7,0,0,0-.431.6,0.716,0.716,0,0,0,.719.67,0.944,0.944,0,0,0,.407-0.1,16.324,16.324,0,0,0,8.68-10.8c1.127,0,2.589-.07,3.836-0.07,1.3,0,1.942.22,1.942,1.32a18.089,18.089,0,0,1-.839,5.59,3.428,3.428,0,0,1-3.429,2.55,8.067,8.067,0,0,1-2.613-.53,0.961,0.961,0,0,0-.264-0.05,0.689,0.689,0,0,0-.647.72,0.594,0.594,0,0,0,.431.62,11.072,11.072,0,0,0,3.117.51,4.615,4.615,0,0,0,4.747-3.55,21.023,21.023,0,0,0,.864-5.96c0-2.3-1.823-2.32-3.333-2.32-1.2,0-2.47.02-3.525,0.04a27.858,27.858,0,0,0,.552-3.55Zm24.316,6.04a0.56,0.56,0,1,0,0-1.12l-6.353.02v-4.27l4.963,0.02a0.565,0.565,0,1,0,0-1.13l-4.963.03,0.024-3.41a0.607,0.607,0,0,0-.648-0.62,0.614,0.614,0,0,0-.671.62v3.41l-4.531-.03a0.566,0.566,0,1,0,0,1.13l4.555-.02v4.27l-5.874-.02a0.56,0.56,0,1,0,0,1.12l5.059-.02a43.75,43.75,0,0,1-2.422,7.27c-0.983.1-1.918,0.19-2.829,0.24a0.619,0.619,0,0,0-.575.65,0.631,0.631,0,0,0,.647.65,76.59,76.59,0,0,0,11.652-1.9,13.114,13.114,0,0,1,.959,1.75,0.69,0.69,0,0,0,.624.46,0.741,0.741,0,0,0,.719-0.74c0-.96-3-4.56-4.388-5.88a0.622,0.622,0,0,0-1.078.38,0.5,0.5,0,0,0,.167.36,22.14,22.14,0,0,1,2.35,2.74c-2.086.45-4.555,0.86-6.953,1.15a47.9,47.9,0,0,0,2.493-7.13Zm-14.769-6.69a0.755,0.755,0,0,0,.695-0.74c0-.87-3.116-2.45-3.548-2.45a0.652,0.652,0,0,0-.647.6,0.465,0.465,0,0,0,.287.43,11.6,11.6,0,0,1,2.782,1.97A0.638,0.638,0,0,0,521.45,6246.39Zm-1.39,4.97a0.713,0.713,0,0,0,.671-0.72c0-1.2-3.812-1.88-3.812-1.88a0.669,0.669,0,0,0-.672.65,0.475,0.475,0,0,0,.384.48,10.4,10.4,0,0,1,3.045,1.35A0.694,0.694,0,0,0,520.06,6251.36Zm-1.8,10.51c1.463-1.73,3.621-5.76,3.621-6.48a0.6,0.6,0,0,0-.624-0.6,0.6,0.6,0,0,0-.575.36,21.024,21.024,0,0,1-3.6,5.93,0.652,0.652,0,0,0-.167.45,0.715,0.715,0,0,0,.7.7A0.9,0.9,0,0,0,518.261,6261.87Zm28.4-11.11a28,28,0,0,1-4.627,8.95,1.018,1.018,0,0,0-.312.69,0.635,0.635,0,0,0,.7.6,1.029,1.029,0,0,0,.839-0.48,35.724,35.724,0,0,0,4.795-9.93c1.055-.12,1.7-0.17,2.062-0.17,1.439,0,1.726.91,1.726,2.45,0,1.73-.359,6.41-3.308,6.41a4.905,4.905,0,0,1-1.367-.22,0.791,0.791,0,0,0-.216-0.02,0.648,0.648,0,0,0-.671.64c0,0.72,1.247.96,2.182,0.96,2.421,0,4.651-2.06,4.651-7.89,0-1.83-.527-3.48-2.781-3.48-0.072,0-.1,0-1.966.17a27.43,27.43,0,0,0,.911-4.2,0.65,0.65,0,0,0-.671-0.65,0.672,0.672,0,0,0-.7.6,41.81,41.81,0,0,1-.935,4.39l-1.558.17c-0.887.07-1.631,0.07-2.422,0.09a0.643,0.643,0,0,0-.623.65,0.6,0.6,0,0,0,.647.6,22.746,22.746,0,0,0,2.494-.19Zm13.427,3.76a0.726,0.726,0,0,0,.695-0.76c0-1.52-3.836-5.21-4.987-5.21a0.612,0.612,0,0,0-.623.57,0.5,0.5,0,0,0,.288.44,9.267,9.267,0,0,1,4,4.48A0.661,0.661,0,0,0,560.085,6254.52Zm0.983-7.99a0.608,0.608,0,0,0,.576-0.62c0-.96-2.71-2.09-3.141-2.09a0.579,0.579,0,0,0-.624.51,0.475,0.475,0,0,0,.336.43,8.166,8.166,0,0,1,2.445,1.58A0.517,0.517,0,0,0,561.068,6246.53Zm-1.918,1.85a0.628,0.628,0,0,0,.575-0.62c0-.92-2.613-2.14-3.093-2.14a0.57,0.57,0,0,0-.6.5,0.44,0.44,0,0,0,.312.41,8,8,0,0,1,2.4,1.63A0.523,0.523,0,0,0,559.15,6248.38Zm15.961,3.43c1.175,0,2.277.03,3.165,0.03,1.294,0,1.414.88,1.414,1.68,0,5.54-.887,7.58-3.5,7.58a8.344,8.344,0,0,1-2.038-.31,0.539,0.539,0,0,0-.216-0.03,0.64,0.64,0,0,0-.623.7,0.592,0.592,0,0,0,.431.6,9.381,9.381,0,0,0,2.35.34c4.483,0,4.915-4.08,4.915-9.39a2.161,2.161,0,0,0-2.422-2.28c-1.007-.02-2.158-0.02-3.308-0.02-1.583,0-3.213,0-4.6.02a0.576,0.576,0,0,0-.6.58,0.532,0.532,0,0,0,.575.55c0.911,0,2.014-.02,3.141-0.02-0.432,4.15-2.254,8.04-7.433,9.62a0.668,0.668,0,0,0-.5.6,0.693,0.693,0,0,0,.719.67C566.671,6262.73,574.056,6261.36,575.111,6251.81Zm0.863-7.56h0.12a1.764,1.764,0,0,1,1.8,1.06c1.942,4.17,6.018,8.11,7.1,8.11a0.774,0.774,0,0,0,.767-0.77,0.747,0.747,0,0,0-.407-0.65,17.332,17.332,0,0,1-6.5-7.55,2.576,2.576,0,0,0-2.565-1.4h-0.12l-3.717.1a0.626,0.626,0,0,0,0,1.25h0.024Zm-10.07,9.6c0.935,0,4.459-3.07,6.234-6.67a0.845,0.845,0,0,0,.072-0.31,0.712,0.712,0,0,0-.7-0.7,0.671,0.671,0,0,0-.623.43,14.016,14.016,0,0,1-5.347,6A0.663,0.663,0,0,0,565.9,6253.85Zm29.008-3.09a28.024,28.024,0,0,1-4.627,8.95,1.1,1.1,0,0,0-.312.69,0.635,0.635,0,0,0,.7.6,1.037,1.037,0,0,0,.863-0.48,35.7,35.7,0,0,0,4.771-9.93c1.055-.12,1.7-0.17,2.062-0.17,1.438,0,1.726.91,1.726,2.45,0,1.73-.36,6.41-3.309,6.41a4.9,4.9,0,0,1-1.366-.22,0.791,0.791,0,0,0-.216-0.02,0.638,0.638,0,0,0-.647.62c0,0.84,1.558.98,2.181,0.98,3.525,0,4.652-4.05,4.652-7.94,0-2.69-1.295-3.43-2.8-3.43-0.072,0-.1,0-1.966.17a27.43,27.43,0,0,0,.911-4.2,0.65,0.65,0,0,0-.672-0.65,0.672,0.672,0,0,0-.7.6,41.81,41.81,0,0,1-.935,4.39l-1.558.17c-0.888.07-1.631,0.07-2.422,0.09a0.643,0.643,0,0,0-.623.65,0.6,0.6,0,0,0,.647.6,22.731,22.731,0,0,0,2.493-.19Zm13.427,3.76a0.726,0.726,0,0,0,.695-0.76c0-1.61-3.956-5.21-4.963-5.21a0.6,0.6,0,0,0-.623.57,0.474,0.474,0,0,0,.264.44,9.267,9.267,0,0,1,4,4.48A0.66,0.66,0,0,0,608.339,6254.52Zm16.43,6.53c2.71-1.65,3.909-3.65,3.909-5.28,0-1.8-1.463-3.14-3.909-3.14-2.541,0-5.011,1.39-7.073,2.66a1.266,1.266,0,0,1-.527.27c-0.288,0-.288-0.7-0.288-1.08a20.252,20.252,0,0,1,.288-2.76c0.192-1.18.479-2.6,0.623-3.63v-0.12a0.545,0.545,0,0,0-.575-0.55,0.663,0.663,0,0,0-.671.58c-0.168,1.05-.48,2.61-0.672,4.17a24.687,24.687,0,0,0-.216,2.83c0,1.8.432,2.38,1.1,2.38a1.923,1.923,0,0,0,1.2-.6c1.271-1.1,4.22-2.98,6.737-2.98,1.343,0,2.59.56,2.59,2,0,1.24-1.031,2.83-3.405,4.22a12.882,12.882,0,0,1-3.452,1.13,0.765,0.765,0,0,0-.744.72,0.723,0.723,0,0,0,.792.67A12.548,12.548,0,0,0,624.769,6261.05Zm-1.918-15.5c-0.024-.58-0.863-1.1-1.558-1.54a19,19,0,0,1-1.726-1.1,0.948,0.948,0,0,0-.528-0.19,0.576,0.576,0,0,0-.623.55c0,0.38.12,0.46,1.846,1.56a1.288,1.288,0,0,1,.7.62,1.18,1.18,0,0,1-.911.6,0.408,0.408,0,0,0-.288.43,0.613,0.613,0,0,0,.624.6,1.188,1.188,0,0,0,.263-0.04C622.612,6246.46,622.851,6246.22,622.851,6245.55Zm23.06,11.73a10,10,0,0,0-2.445-.36c-2.422,0-4.1,1.13-4.1,2.5,0,1.42,1.678,2.64,3.692,2.64a3.883,3.883,0,0,0,3.98-2.71l0.048-.31a8.069,8.069,0,0,1,2.326,1.89,0.725,0.725,0,0,0,.575.31,0.7,0.7,0,0,0,.671-0.72c0-.79-1.75-2.08-3.524-2.8,0-.32-0.048-0.65-0.048-0.94-0.024-.84-0.072-1.92-0.072-2.83v-0.41a7.478,7.478,0,0,1,.12-1.34v-0.15a0.581,0.581,0,0,0-.6-0.6c-0.576,0-.72.39-0.72,2.11,0,0.96.1,2.24,0.1,3.17v0.55Zm-5.371-9.52a40.582,40.582,0,0,1-4.411,7.63,0.823,0.823,0,0,0-.168.48,0.6,0.6,0,0,0,.623.6,0.9,0.9,0,0,0,.744-0.46,51.592,51.592,0,0,0,4.555-8.49c1.678-.51,3.261-1.06,3.261-1.75a0.588,0.588,0,0,0-.6-0.58,0.521,0.521,0,0,0-.359.12,8.754,8.754,0,0,1-1.918.93,16.177,16.177,0,0,0,.6-2.49,0.592,0.592,0,0,0-.647-0.58,0.623,0.623,0,0,0-.648.53,17.325,17.325,0,0,1-.623,2.86,9.292,9.292,0,0,1-2.254.28,6.09,6.09,0,0,1-1.678-.21,1.288,1.288,0,0,0-.312-0.05,0.58,0.58,0,0,0-.6.6c0,0.82,1.534.84,2.23,0.84A10.555,10.555,0,0,0,640.54,6247.76Zm5.347,10.72c-0.024.17-.048,0.36-0.1,0.56a2.677,2.677,0,0,1-2.757,1.92c-1.295,0-2.494-.72-2.494-1.52,0-.96,1.679-1.41,2.878-1.41A7.672,7.672,0,0,1,645.887,6258.48Zm5.467-8.06a0.66,0.66,0,0,0,.623-0.67c0-1.13-3.285-1.63-4.364-1.63-1.126,0-1.342.26-1.342,0.69a0.506,0.506,0,0,0,.551.51h0.048c0.168,0,.336-0.03.5-0.03a6.817,6.817,0,0,1,3.716,1.06A0.592,0.592,0,0,0,651.354,6250.42Zm23.431,4.8a0.866,0.866,0,0,0,.815-0.91c0-2.09-3-5.74-4.052-5.74a0.6,0.6,0,0,0-.623.6,0.58,0.58,0,0,0,.264.51,7.752,7.752,0,0,1,2.949,4.94A0.644,0.644,0,0,0,674.785,6255.22Zm-10.142.41c-0.887,2.3-1.7,2.42-1.99,2.42-0.719,0-3.236-1.49-3.236-8.42,0-1.39-.024-1.87-0.7-1.87-0.647,0-.7.52-0.7,1.27,0,0.55.024,1.05,0.1,2.11,0.431,6.91,3.332,8.42,4.555,8.42,2.182,0,3.285-3.52,3.285-3.67a0.758,0.758,0,0,0-.719-0.72A0.676,0.676,0,0,0,664.643,6255.63Z" transform="translate(-292.969 -6161.81)"/>
</svg>
