<svg xmlns="http://www.w3.org/2000/svg" width="582" height="387.31" viewBox="0 0 582 387.31">
  <metadata><?xpacket begin="﻿" id="W5M0MpCehiHzreSzNTczkc9d"?>
<x:xmpmeta xmlns:x="adobe:ns:meta/" x:xmptk="Adobe XMP Core 5.6-c142 79.160924, 2017/07/13-01:06:39        ">
   <rdf:RDF xmlns:rdf="http://www.w3.org/1999/02/22-rdf-syntax-ns#">
      <rdf:Description rdf:about=""/>
   </rdf:RDF>
</x:xmpmeta>
<?xpacket end="w"?></metadata>
<defs>
    <style>
      .cls-1 {
        fill: #cdd4e5;
        fill-opacity: 0;
        stroke: #009055;
        stroke-linejoin: round;
        stroke-width: 2px;
        fill-rule: evenodd;
      }
    </style>
  </defs>
  <path id="長方形_17_のコピー" data-name="長方形 17 のコピー" class="cls-1" d="M646,3258H396.529c-6.394,7.18-7.372,18.08,7.467,29.33-23.119-8.36-34.691-19.35-43.361-29.33H106a20,20,0,0,1-20-20V2922a20,20,0,0,1,20-20H646a20,20,0,0,1,20,20v316A20,20,0,0,1,646,3258Z" transform="translate(-85 -2901)"/>
</svg>
