<svg id="お問い合わせ" xmlns="http://www.w3.org/2000/svg" width="240" height="90" viewBox="0 0 240 90">
  <metadata><?xpacket begin="﻿" id="W5M0MpCehiHzreSzNTczkc9d"?>
<x:xmpmeta xmlns:x="adobe:ns:meta/" x:xmptk="Adobe XMP Core 5.6-c142 79.160924, 2017/07/13-01:06:39        ">
   <rdf:RDF xmlns:rdf="http://www.w3.org/1999/02/22-rdf-syntax-ns#">
      <rdf:Description rdf:about=""/>
   </rdf:RDF>
</x:xmpmeta>
                                                                                                    
                                                                                                    
                                                                                                    
                                                                                                    
                                                                                                    
                                                                                                    
                                                                                                    
                                                                                                    
                                                                                                    
                                                                                                    
                                                                                                    
                                                                                                    
                                                                                                    
                                                                                                    
                                                                                                    
                                                                                                    
                                                                                                    
                                                                                                    
                                                                                                    
                                                                                                    
                           
<?xpacket end="w"?></metadata>
<defs>
    <style>
      .cls-1 {
        fill: #04287e;
      }

      .cls-2 {
        fill: #fff;
        fill-rule: evenodd;
      }
    </style>
  </defs>
  <rect id="長方形_2" data-name="長方形 2" class="cls-1" width="240" height="90"/>
  <path id="お問い合わせ_のコピー" data-name="お問い合わせ のコピー" class="cls-2" d="M513.668,54.879a6.527,6.527,0,0,0,4.529-1.5,5.318,5.318,0,0,0,1.67-4.172,4.683,4.683,0,0,0-2.39-4.172,10.911,10.911,0,0,0-5.907-1.5,18.371,18.371,0,0,0-3.867.41v-3.7h6.117V38.707H507.7V35.086h-1.922v3.8h-5.789v1.535h5.836v4.031a12.387,12.387,0,0,0-4.611,2.625,4.977,4.977,0,0,0-1.846,3.656,3.555,3.555,0,0,0,1.483,2.924,5.438,5.438,0,0,0,3.439,1.154q3.409,0,3.41-2.25V45.516a16.939,16.939,0,0,1,3.9-.445,8.7,8.7,0,0,1,4.7,1.078,3.893,3.893,0,0,1,.433,6.07,5.31,5.31,0,0,1-3.445,1.02,8.365,8.365,0,0,1-3-.539l-0.434,1.441a8.3,8.3,0,0,0,3.809.738h0ZM505.875,52.1q0,1.078-1.523,1.078a4.013,4.013,0,0,1-2.233-.65,2.117,2.117,0,0,1-1-1.893,3.467,3.467,0,0,1,1.371-2.531,11.15,11.15,0,0,1,3.387-2.027V52.1Zm12.568-13.881a28.061,28.061,0,0,0-3.228-2.467l-1.231,1.09a27.054,27.054,0,0,1,5.743,5.227l1.511-1.078A24.578,24.578,0,0,0,518.443,38.221Zm14.493,4.623V35.063h-8.391V55.5H526.3V42.844h6.633ZM526.3,36.281h4.922v2.109H526.3V36.281Zm4.922,5.332H526.3V39.492h4.922v2.121Zm12.621,13.125a1.543,1.543,0,0,0,.621-1.219V35.063H535.9v7.781h6.785v9.938a0.764,0.764,0,0,1-.293.568,1.03,1.03,0,0,1-.715.264h-2.273l0.269,1.641h2.766A2.143,2.143,0,0,0,543.846,54.738Zm-6.234-18.457h5.074v2.109h-5.074V36.281Zm5.074,5.332h-5.074V39.492h5.074v2.121Zm-3.633,10.219V45.094h-9.422v7.395h1.77V51.832h7.652ZM531.4,46.395h5.894v4.09H531.4v-4.09Zm26.17,0.668a26.734,26.734,0,0,1-1.851,3.6q-1.032,1.67-1.641,1.67a2.424,2.424,0,0,1-1.19-1.172,8.762,8.762,0,0,1-1.242-2.795,14.4,14.4,0,0,1-.427-3.662,31.648,31.648,0,0,1,.292-3.7q0.329-2.625.375-3.68h-1.968q-0.024,1.16-.3,3.68a35.62,35.62,0,0,0-.269,3.715,16.194,16.194,0,0,0,.292,3.012,13.874,13.874,0,0,0,.909,2.959A8.06,8.06,0,0,0,551.9,52.91,6.349,6.349,0,0,0,553.1,54a1.946,1.946,0,0,0,1.042.281A2.488,2.488,0,0,0,556,53.209a15.866,15.866,0,0,0,1.758-2.678,20.776,20.776,0,0,0,1.259-2.719Zm7.3-9.48-1.442.914a19.046,19.046,0,0,1,3.211,5.859,20.672,20.672,0,0,1,1.125,6.75v0.211l1.969-.059a20.368,20.368,0,0,0-4.863-13.676h0Zm30.752,4.629a26,26,0,0,1-5.689-3.275,24.178,24.178,0,0,1-4.963-4.67h-2.59a21.046,21.046,0,0,1-4.377,4.488,31.461,31.461,0,0,1-5.982,3.809l0.785,1.289a29.128,29.128,0,0,0,6.234-3.768,23.828,23.828,0,0,0,4.711-4.647,30.31,30.31,0,0,0,5.256,4.887,27.13,27.13,0,0,0,5.654,3.387Zm-5.683-.68H577.73v1.418h12.211V41.531Zm0.375,13.688h1.851V46.16h-16.91v9.129h1.84V54.117h13.219v1.1ZM577.1,47.578h13.219V52.7H577.1V47.578Zm25.139,7.289h1.758l-0.012-11.144a14.549,14.549,0,0,1,4.037-3.223,9.316,9.316,0,0,1,4.424-1.219,4.455,4.455,0,0,1,3.58,1.793,6.351,6.351,0,0,1,1.436,4.1q0,7.242-9.036,7.84L608.81,54.6q5.742-.5,8.139-3.006a9,9,0,0,0,2.408-6.463,7.387,7.387,0,0,0-2-5.268,6.7,6.7,0,0,0-5.062-2.139,9.776,9.776,0,0,0-4.237,1.055,15.727,15.727,0,0,0-4.072,2.848V34.8h-1.746v3.809h-4.324v1.535h4.324v2.707a32.45,32.45,0,0,1-2.32,4.055A44.411,44.411,0,0,1,597,50.93l1.23,1.2q2.708-3.808,4.008-5.754v8.5Zm39.119-2.016q-2.039.188-5.05,0.188a55.329,55.329,0,0,1-5.578-.182,3.6,3.6,0,0,1-2.151-.844,2.9,2.9,0,0,1-.662-2.115V42.258h10.524a26.856,26.856,0,0,1-.293,4.178,1.053,1.053,0,0,1-1.043.99,7.518,7.518,0,0,1-3.622-1.582L632.789,47.2q2.778,2,4.535,2a2.6,2.6,0,0,0,1.846-.639,4.023,4.023,0,0,0,.855-2.555q0.171-1.916.229-3.756h3.809V40.723h-3.786v-0.4a47.007,47.007,0,0,0-.222-4.8l-1.817.141q0.211,2.1.211,5.063H627.914v-4.91h-1.851v4.91h-3.645v1.535h3.645v7.664a4.569,4.569,0,0,0,.955,3.182,4.456,4.456,0,0,0,2.671,1.313,43.115,43.115,0,0,0,5.924.275q2.859,0,5.742-.117V52.852Z" transform="translate(-456)"/>
  <path id="シェイプ_1" data-name="シェイプ 1" class="cls-2" d="M674.607,43.889q-4.638-4.262-9.273-8.524c-1.273-1.17-3.17.731-1.893,1.9q4.126,3.8,8.253,7.586-4.148,3.923-8.294,7.853c-1.259,1.193.638,3.092,1.894,1.9l9.313-8.819A1.359,1.359,0,0,0,674.607,43.889Z" transform="translate(-456)"/>
</svg>
