<svg xmlns="http://www.w3.org/2000/svg" width="400" height="190" viewBox="0 0 400 190">
  <metadata><?xpacket begin="﻿" id="W5M0MpCehiHzreSzNTczkc9d"?>
<x:xmpmeta xmlns:x="adobe:ns:meta/" x:xmptk="Adobe XMP Core 5.6-c142 79.160924, 2017/07/13-01:06:39        ">
   <rdf:RDF xmlns:rdf="http://www.w3.org/1999/02/22-rdf-syntax-ns#">
      <rdf:Description rdf:about=""/>
   </rdf:RDF>
</x:xmpmeta>
                                                                                                    
                                                                                                    
                                                                                                    
                                                                                                    
                                                                                                    
                                                                                                    
                                                                                                    
                                                                                                    
                                                                                                    
                                                                                                    
                                                                                                    
                                                                                                    
                                                                                                    
                                                                                                    
                                                                                                    
                                                                                                    
                                                                                                    
                                                                                                    
                                                                                                    
                                                                                                    
                           
<?xpacket end="w"?></metadata>
<defs>
    <style>
      .cls-1 {
        fill: #fff33f;
      }

      .cls-2 {
        fill: #fff;
      }

      .cls-2, .cls-3 {
        fill-rule: evenodd;
      }

      .cls-3 {
        fill: #009055;
      }
    </style>
  </defs>
  <rect id="長方形_24" data-name="長方形 24" class="cls-1" width="399.625" height="190"/>
  <path id="シェイプ_9" data-name="シェイプ 9" class="cls-2" d="M28.586,36.413l2.829-2.829,17,16-2.828,2.828Z"/>
  <path id="シェイプ_10" data-name="シェイプ 10" class="cls-2" d="M55,23h4V41H55V23Z"/>
  <path id="シェイプ_11" data-name="シェイプ 11" class="cls-2" d="M20,66V62H40v4H20Z"/>
  <path id="シェイプ_13" data-name="シェイプ 13" class="cls-3" d="M318.36,94.769a9.493,9.493,0,0,1,9.485-9.479H340V45.343A9.35,9.35,0,0,0,330.644,36H252V158h78.644A9.35,9.35,0,0,0,340,148.65v-44.4H327.845A9.493,9.493,0,0,1,318.36,94.769Zm9.485-6.036a6.038,6.038,0,0,0-6.04,6.036h0a6.039,6.039,0,0,0,6.04,6.036H344V88.733H327.845Z"/>
  <path id="シェイプ_12" data-name="シェイプ 12" class="cls-3" d="M227.408,59H62.592A3.607,3.607,0,0,0,59,62.622v69.756A3.607,3.607,0,0,0,62.592,136H227.408A3.607,3.607,0,0,0,231,132.378V62.622A3.607,3.607,0,0,0,227.408,59ZM144.044,69.73H155.9V81.686H144.044V69.73ZM149.065,86V97.96H137.208V86h11.857Zm-20.7-16.273h11.857V81.686H128.369V69.73ZM133.39,86V97.96H121.533V86H133.39Zm-20.7-16.273h11.857V81.686H112.694V69.73ZM117.715,86V97.96H105.858V86h11.857ZM97.019,69.73h11.857V81.686H97.019V69.73ZM102.04,86V97.96H90.184V86H102.04ZM81.345,69.73H93.2V81.686H81.345V69.73Zm-15.675,0H77.526V81.686H65.67V69.73Zm19.742,44.5H65.67V102.276H85.412v11.957Zm0-16.273H65.67V86H85.412V97.96ZM155.9,114.233H90.184V102.276H155.9v11.957Zm15.675,0H159.719V102.276h11.856v11.957Zm0-16.273H153.2V86h18.373V97.96Zm0-16.273H159.719V69.73h11.856V81.686Zm21.283,32.547H181V102.276h11.856v11.957Zm0-16.273H181V86h11.856V97.96Zm0-16.273H181V69.73h11.856V81.686Zm15.675,32.547H196.676V102.276h11.857v11.957Zm0-16.273H196.676V86h11.857V97.96Zm0-16.273H196.676V69.73h11.857V81.686Zm15.675,32.547H212.351V102.276h11.857v11.957Zm0-16.273H212.351V86h11.857V97.96Zm0-16.273H212.351V69.73h11.857V81.686Z"/>
</svg>
