<svg id="title_application_sample4_sp" xmlns="http://www.w3.org/2000/svg" width="570" height="140" viewBox="0 0 570 140">
  <metadata><?xpacket begin="﻿" id="W5M0MpCehiHzreSzNTczkc9d"?>
<x:xmpmeta xmlns:x="adobe:ns:meta/" x:xmptk="Adobe XMP Core 5.6-c142 79.160924, 2017/07/13-01:06:39        ">
   <rdf:RDF xmlns:rdf="http://www.w3.org/1999/02/22-rdf-syntax-ns#">
      <rdf:Description rdf:about=""/>
   </rdf:RDF>
</x:xmpmeta>
                                                                                                    
                                                                                                    
                                                                                                    
                                                                                                    
                                                                                                    
                                                                                                    
                                                                                                    
                                                                                                    
                                                                                                    
                                                                                                    
                                                                                                    
                                                                                                    
                                                                                                    
                                                                                                    
                                                                                                    
                                                                                                    
                                                                                                    
                                                                                                    
                                                                                                    
                                                                                                    
                           
<?xpacket end="w"?></metadata>
<defs>
    <style>
      .cls-1 {
        fill: #009055;
      }

      .cls-2, .cls-3 {
        fill: #fff;
      }

      .cls-3, .cls-4 {
        fill-rule: evenodd;
      }

      .cls-4 {
        fill: #333;
      }
    </style>
  </defs>
  <rect id="長方形_755" data-name="長方形 755" class="cls-1" width="140" height="140"/>
  <rect id="長方形_755-2" data-name="長方形 755" class="cls-2" x="140" width="430" height="140"/>
  <path id="活用例_4_のコピー" data-name="活用例 4 のコピー" class="cls-3" d="M139.874,9730.24a1.457,1.457,0,1,0,0-2.89h-6.963v-4.3c5.157-.82,5.781-1.25,5.781-2.47a1.48,1.48,0,0,0-1.478-1.51,2.455,2.455,0,0,0-.624.1,41.453,41.453,0,0,1-12.284,1.78,1.35,1.35,0,0,0-1.347,1.44,1.442,1.442,0,0,0,1.511,1.51c0.46,0,3.416-.2,5.288-0.43v3.88h-6.766a1.451,1.451,0,1,0,0,2.89h6.766v4.14c-0.887,0-1.741.03-2.431,0.06-2.233.1-3.613,1.32-3.711,3.22-0.033.69-.066,1.45-0.066,2.24,0,0.92.033,1.87,0.066,2.82,0.131,3.29,2.824,3.45,7.817,3.45,1.478,0,2.956-.03,3.941-0.13,2.5-.2,3.777-1.48,3.876-3.42,0.033-.72.033-1.47,0.033-2.23,0-.95,0-1.94-0.066-2.86-0.1-1.84-1.839-3.02-3.843-3.09-0.722-.03-1.576-0.06-2.463-0.06v-4.14h6.963Zm-20.265-5.65a1.814,1.814,0,0,0,1.675-1.77c0-1.91-4.5-3.98-5.058-3.98a1.652,1.652,0,0,0-1.643,1.48,1.216,1.216,0,0,0,.625,1.02,13.794,13.794,0,0,1,3.317,2.69A1.4,1.4,0,0,0,119.609,9724.59Zm-1.61,7a1.744,1.744,0,0,0,1.511-1.81,1.68,1.68,0,0,0-.69-1.38,11.978,11.978,0,0,0-4.828-1.94,1.619,1.619,0,0,0-1.576,1.58,1.082,1.082,0,0,0,.821,1.08,12.959,12.959,0,0,1,3.843,2.11A1.38,1.38,0,0,0,118,9731.59Zm-1.116,13.63c2.5-3.25,4.467-8.21,4.467-8.94a1.577,1.577,0,0,0-1.643-1.51,1.391,1.391,0,0,0-1.314.89,29.742,29.742,0,0,1-4.4,7.82,1.568,1.568,0,0,0-.394.98,1.706,1.706,0,0,0,1.741,1.61A1.893,1.893,0,0,0,116.883,9745.22Zm19.181-5.09c0,3.22,0,3.22-4.631,3.22-3.515,0-4.6,0-4.664-1.58-0.033-.59-0.033-1.31-0.033-2,0-1.94,0-2.63,1.511-2.73,0.755-.03,1.9-0.07,3.087-0.07,3.975,0,4.533,0,4.664,1.35C136.031,9738.91,136.064,9739.54,136.064,9740.13Zm34.331,1.44c0,1.12-.493,1.81-2.168,1.81a11.028,11.028,0,0,1-2.069-.23,1.342,1.342,0,0,0-.328-0.03,1.4,1.4,0,0,0-1.413,1.51c0,1.67,1.675,1.93,3.843,1.93,3.974,0,5.354-2.1,5.354-4.4v-0.06l-0.066-4.5c-0.066-3.61,0-10.15-.1-14.98a3.787,3.787,0,0,0-3.909-3.64c-2.595-.07-4.927-0.1-7.226-0.1-2.627,0-5.222.03-8.047,0.1-2.989.06-4.27,1.28-4.27,4v0.1c0.033,1.81.1,3.97,0.1,6.31,0,5.32-.427,11.33-2.989,14.78a1.651,1.651,0,0,0-.328.95,1.612,1.612,0,0,0,1.675,1.51c2.627,0,4.072-5.88,4.5-10.21h6.931v8.14a1.594,1.594,0,0,0,3.186,0v-8.14H170.4v5.15Zm-7.357-15.24v-4.63c1.773,0,3.547,0,5.321.07a1.754,1.754,0,0,1,1.905,1.9c0.032,0.79.032,1.71,0.065,2.66h-7.291Zm7.357,7.29h-7.324l-0.033-4.5H170.4v4.5Zm-10.478-7.29h-6.7v-2.95a1.424,1.424,0,0,1,1.577-1.61c1.74-.04,3.448-0.07,5.123-0.07v4.63Zm-0.032,7.29h-6.734c0.066-1.51.1-3.05,0.1-4.5h6.667Zm49.505-13.82a1.544,1.544,0,0,0-1.61-1.58,1.5,1.5,0,0,0-1.576,1.51v0.07c0.1,3.08.1,7.55,0.1,11.66,0,5.48-.032,10.28-0.032,10.28,0,1.44-.624,1.84-1.511,1.84a8.439,8.439,0,0,1-1.708-.27,0.994,0.994,0,0,0-.3-0.03,1.359,1.359,0,0,0-1.248,1.51c0,1.28.821,1.81,3.285,1.81,3.35,0,4.7-1.97,4.7-4.01v-0.13c-0.032-1.15-.1-4.14-0.1-4.66v-18Zm-8.146,18.85a1.456,1.456,0,0,0,2.891,0v-16.92a1.446,1.446,0,0,0-2.891,0v16.92Zm-2.069-16.42a1.381,1.381,0,1,0,0-2.76h-7.686a1.38,1.38,0,1,0,0,2.76H192.8a29.176,29.176,0,0,1-4.2,11.49,1.433,1.433,0,0,0-.263.82,1.4,1.4,0,0,0,1.478,1.32,1.7,1.7,0,0,0,1.478-.96,33.66,33.66,0,0,0,2.891-6.73c0.854,0,1.97-.03,1.97-0.03a0.7,0.7,0,0,1,.723.72,36.574,36.574,0,0,1-.657,3.94,7.076,7.076,0,0,0-2.036-.75,1.748,1.748,0,0,0-1.577,1.74,1.168,1.168,0,0,0,.887,1.15,12.024,12.024,0,0,1,1.806.75,18.129,18.129,0,0,1-6.043,8.28,1.6,1.6,0,0,0-.755,1.31,1.529,1.529,0,0,0,1.543,1.48,1.98,1.98,0,0,0,1.281-.49c7.456-6.08,8.638-17.11,8.638-18.16a2.483,2.483,0,0,0-2.759-2.63c-0.1,0-1.149.03-2.3,0.03,0.263-1.08.493-2.2,0.657-3.28h3.613ZM184.3,9745.48a1.409,1.409,0,0,0,1.478,1.45,1.543,1.543,0,0,0,1.61-1.48l0.427-20.46a28.453,28.453,0,0,0,2.463-5.39,1.8,1.8,0,0,0-1.839-1.61,1.332,1.332,0,0,0-1.347.99,31.286,31.286,0,0,1-6.207,11,1.665,1.665,0,0,0-.427,1.05,1.463,1.463,0,0,0,1.51,1.41c0.887,0,1.084-.23,2.694-2.36l-0.362,15.37v0.03ZM169.8,9798.71c1.588,0,2.9-.05,3.559-0.05a2.951,2.951,0,0,0,3.177-2.85,2.643,2.643,0,0,0-2.793-2.68h-0.164c-0.274,0-1.753.05-3.779,0.11,0-4.06.164-6.14,0.164-8.71a2.833,2.833,0,0,0-2.847-3.12,2.872,2.872,0,0,0-2.958,2.95v0.22c0.055,0.72.055,1.7,0.055,2.91,0,1.64,0,3.72-.055,5.91-3.23.05-6.516,0.16-8.378,0.16-1.369,0-2.245,0-2.245-.65,0-.39,0-0.44,16.045-21.31a3.37,3.37,0,0,0,.767-2.08,3.252,3.252,0,0,0-3.231-3.12,2.625,2.625,0,0,0-2.246,1.21c-3.942,5.47-12.978,18.12-16.264,22.78a7.55,7.55,0,0,0-1.533,4.21c0,2.41,1.862,4.22,5.531,4.22,0.547,0,6.188,0,11.5-.05,0,2.24-.055,4.49-0.055,6.4a2.839,2.839,0,0,0,3.012,2.91,2.7,2.7,0,0,0,2.9-2.8v-0.11C169.911,9802.71,169.8,9800.52,169.8,9798.71Z" transform="translate(-91 -9694)"/>
  <path id="生徒の考えを共有して_双方向型授業に活用_のコピー" data-name="生徒の考えを共有して 双方向型授業に活用 のコピー" class="cls-4" d="M289.022,9755.08a1.526,1.526,0,0,0,1.62-1.62,1.577,1.577,0,0,0-1.62-1.66l-12.022.04v-6.48l7.271,0.04a1.609,1.609,0,1,0,0-3.21l-7.271.04v-5.51l9.719,0.04a1.609,1.609,0,1,0,0-3.21l-9.719.04v-6.41a1.858,1.858,0,1,0-3.708,0v6.41l-4.787-.04c0.54-1.18,1.044-2.41,1.512-3.67a1.569,1.569,0,0,0,.108-0.54,1.865,1.865,0,0,0-2.016-1.65,1.633,1.633,0,0,0-1.656,1.22,32.3,32.3,0,0,1-6.407,11.77,1.841,1.841,0,0,0-.468,1.15,1.685,1.685,0,0,0,1.728,1.62,2.035,2.035,0,0,0,1.584-.82,42.9,42.9,0,0,0,4-5.87l6.407-.04v5.51l-6.767-.04a1.638,1.638,0,0,0-1.692,1.66,1.536,1.536,0,0,0,1.692,1.55l6.767-.04v6.48l-12.274-.04a1.677,1.677,0,0,0-1.692,1.73,1.536,1.536,0,0,0,1.692,1.55h28Zm34.953-8.82a1.51,1.51,0,1,0,0-3.02h-5.9v-4.36h7.7a1.455,1.455,0,0,0,0-2.91l-7.739.03v-3.71h5.8a1.51,1.51,0,1,0,0-3.02h-5.8v-2.91a1.578,1.578,0,0,0-1.692-1.59,1.6,1.6,0,0,0-1.692,1.59v2.91h-5.291a1.512,1.512,0,1,0,0,3.02h5.291l0.036,3.71-6.947-.03a1.458,1.458,0,1,0,0,2.91h6.983l-0.036,12.42a8.2,8.2,0,0,1-3.383-5.18,26.355,26.355,0,0,0,.539-3.53,1.636,1.636,0,0,0-1.763-1.58,1.515,1.515,0,0,0-1.656,1.47,19.51,19.51,0,0,1-3.78,11.02,1.718,1.718,0,0,0-.432,1.04,1.789,1.789,0,0,0,1.872,1.58,1.9,1.9,0,0,0,1.548-.75,18.244,18.244,0,0,0,2.556-5.19c1.547,3.71,4.535,5.73,10.978,5.73a39.778,39.778,0,0,0,4.86-.29,1.7,1.7,0,0,0,1.619-1.73,1.448,1.448,0,0,0-1.439-1.55H326.1c-1.836.11-3.672,0.29-5.364,0.29a20.3,20.3,0,0,1-2.663-.18v-6.19h5.9Zm-18.07-18.9a1.916,1.916,0,0,0,.36-1.08,1.82,1.82,0,0,0-1.8-1.76,1.675,1.675,0,0,0-1.439.9,19.724,19.724,0,0,1-6.912,6.98,2.04,2.04,0,0,0-1.187,1.69,1.724,1.724,0,0,0,1.8,1.62C298.85,9735.71,303.638,9730.64,305.9,9727.36Zm-6.335,27.61v0.07a1.536,1.536,0,0,0,1.656,1.55,1.674,1.674,0,0,0,1.8-1.62l0.432-16.45c3.527-3.96,3.6-4.79,3.6-5.11a1.99,1.99,0,0,0-1.908-1.84,1.562,1.562,0,0,0-1.332.83,25.122,25.122,0,0,1-8.386,8.64,1.632,1.632,0,0,0-.864,1.44,1.79,1.79,0,0,0,1.727,1.8c0.648,0,1.368-.36,3.708-2.37Zm48.724-21.16a9.252,9.252,0,0,1,4.464,1.44c3.563,2.26,4.535,6.98,1.98,11.01-1.188,1.87-3.96,3.42-6.7,4.03-3.095.72-1.979,4.36,1.188,3.53,3.564-.94,7.091-3.17,8.783-5.94,3.132-5.15,2.232-11.77-3.347-15.12-4.536-2.73-11.123-2.23-15.551.83-4.823,3.35-7.235,10.04-4.967,14.51,1.584,3.09,4.608,4.5,7.379,1.94,3.456-3.2,6.695-10.01,7.271-14.58A1.789,1.789,0,0,0,348.294,9733.81Zm-2.843.18a2.5,2.5,0,0,0-.324,1.11c-0.36,3.89-2.88,9.61-5.58,11.99-0.9.79-1.835,0.25-2.375-.79-1.512-2.77.288-7.56,3.635-10.15A11.844,11.844,0,0,1,345.451,9733.99Zm50.6,3.16a1.424,1.424,0,0,0,1.512-1.47,1.457,1.457,0,0,0-1.548-1.48h-5.651a41.975,41.975,0,0,0,5.255-5.47,1.225,1.225,0,0,0,.288-0.83,1.984,1.984,0,0,0-1.907-1.83,1.4,1.4,0,0,0-1.188.65,40.59,40.59,0,0,1-7.127,7.52h-3.132v-2.99l4.788,0.04a1.468,1.468,0,0,0,1.583-1.48,1.445,1.445,0,0,0-1.583-1.47l-4.752.03V9726a1.578,1.578,0,0,0-1.728-1.52,1.523,1.523,0,0,0-1.691,1.52v2.37l-6.624-.03a1.465,1.465,0,0,0-1.583,1.47,1.489,1.489,0,0,0,1.583,1.48l6.624-.04v2.99l-9.827-.04a1.489,1.489,0,0,0-1.584,1.48,1.434,1.434,0,0,0,1.548,1.47h0.036l12.418-.1a44.563,44.563,0,0,1-13.858,5.65,1.715,1.715,0,0,0-1.476,1.62,1.566,1.566,0,0,0,1.656,1.55,39.261,39.261,0,0,0,9.395-3.32,44.816,44.816,0,0,1-1.764,5.4,1.3,1.3,0,0,0,1.44,1.87c1.008,0,1.548-.36,2.052-2.01,1.511-.04,3.131-0.04,4.715-0.04,1.548,0,3.024,0,4.175.04,0.828,0,1.152.25,1.152,0.83,0,0.97-.792,4.42-5.8,4.42a13.97,13.97,0,0,1-4.247-.72,2.493,2.493,0,0,0-.684-0.1,1.58,1.58,0,0,0-.432,3.09,18.581,18.581,0,0,0,5.291.83c7.343,0,9.323-5.36,9.323-8.1,0-1.91-1.116-2.95-3.42-2.99-0.936-.03-1.907-0.03-2.915-0.03-2.2,0-4.5.03-6.372,0.07,0.144-.47.288-0.97,0.432-1.44a87.181,87.181,0,0,0,11.627-1.73,1.636,1.636,0,0,0,1.4-1.51,1.547,1.547,0,0,0-1.584-1.55,3.478,3.478,0,0,0-.5.07,70.482,70.482,0,0,1-10.223,1.88l0.072-.18a53.687,53.687,0,0,0,5.58-3.6l9.214,0.1h0.036Zm21.292-5.22c2.484,0.87,4.212-2.37,1.584-3.27a21.539,21.539,0,0,1-4.5-2.16c-2.124-1.33-4.284,1.01-2.448,2.48A22.457,22.457,0,0,0,417.342,9731.93Zm-5.579,15.48c1.8-1.8,7.235-6.8,8.927-8.6,1.872-1.94-.324-4.64-3.312-4.25a13.181,13.181,0,0,0-2.807.94,37.723,37.723,0,0,1-6.336,1.69c-2.483.36-1.979,4.1,1.08,3.42a35.971,35.971,0,0,0,7.415-2.84c0.324-.15.576-0.22,0.18,0.25-1.8,2.09-4.139,4.5-5.8,6.12-1.152,1.11-2.16,2.23-3.42,3.34a58.522,58.522,0,0,0-4.319,4.54c-1.584,1.8.036,2.99,1.224,2.92,0.72-.04,1.764-0.22,3.023-2.24,2.34-3.74,5-3.45,5.8-1.51a5.485,5.485,0,0,0,4.715,3.71,19.135,19.135,0,0,0,8.171-.86c2.88-1.08,1.584-4.79-1.152-3.57a17.923,17.923,0,0,1-5.687,1.15c-1.728.08-2.592-1.04-3.2-2.37A3.408,3.408,0,0,0,411.763,9747.41Zm34.729-17.89a6.739,6.739,0,0,0,.288-2.08c-0.072-1.77-3.456-1.98-3.6.18a14.938,14.938,0,0,1-.4,3.02c-0.18.03-.4,0.03-0.54,0.07-1.26.22-2.7,0.4-3.383-.07-2.52-1.69-4.284,1.69-1.692,2.99a7.3,7.3,0,0,0,4.463.39,29.916,29.916,0,0,1-1.692,3.21,17.9,17.9,0,0,1-2.915,3.38c-2.16,1.94.468,4,2.448,2.23a7.763,7.763,0,0,0,.827-0.93c0.036-.04.108-0.11,0.144-0.15,2.34-2.7,5.112-3.06,6.084-.03-0.684.39-1.26,0.79-1.764,1.11-6.515,4.28-7.379,9.14-2.52,11.88,2.808,1.58,7.7,1.04,9.827.5,3.312-.86,2.3-4.75-0.864-3.78-1.692.54-5.219,1.26-7.127,0.29-2.016-1.01-2.556-3.17,1.908-6.04,0.288-.18.612-0.36,0.936-0.54,0,0.75-.036,1.58-0.072,2.33a1.658,1.658,0,0,0,1.619,2.06,2.14,2.14,0,0,0,1.908-2.24,28.612,28.612,0,0,0-.072-3.95c1.44-.69,3.06-1.41,4.572-1.98a41.091,41.091,0,0,0,3.887-1.48c2.3-1.15.684-4.75-2.016-3.24a27.6,27.6,0,0,1-2.807,1.33c-1.4.61-2.916,1.37-4.392,2.13a5.246,5.246,0,0,0-6.047-3.14,36.021,36.021,0,0,0,1.728-3.63,20.786,20.786,0,0,0,3.959-1.19c2.664-1.33.72-4.32-1.26-3.13a12.55,12.55,0,0,1-1.511.65Zm47.871,16.42a1.568,1.568,0,0,0,0-3.13l-7.271.03v-6.91l5.471,0.04a1.589,1.589,0,0,0,0-3.17l-5.471.03v-5.79a1.8,1.8,0,0,0-3.564,0v5.79h-6.551v-5.79a1.8,1.8,0,0,0-3.564,0v5.79l-5.147-.03a1.585,1.585,0,1,0,0,3.17l5.147-.04v6.91l-6.947-.03a1.566,1.566,0,1,0,0,3.13h27.9Zm1.152,8.31a1.925,1.925,0,0,0-1.62-1.83,22.447,22.447,0,0,1-8.5-4.54,1.808,1.808,0,0,0-3.024,1.33,1.68,1.68,0,0,0,.648,1.33c3.312,2.92,9.071,5.66,10.439,5.66A2.013,2.013,0,0,0,495.515,9754.25Zm-18.034-3.6a1.735,1.735,0,0,0,.612-1.29,1.959,1.959,0,0,0-1.872-1.91,1.721,1.721,0,0,0-1.188.5,20.631,20.631,0,0,1-8.279,4.75,1.97,1.97,0,0,0-1.656,1.8,1.9,1.9,0,0,0,1.98,1.84C469.31,9756.34,475.429,9752.45,477.481,9750.65Zm6.047-7.81h-6.551v-6.91h6.551v6.91Zm44.186,5c-0.036-1.47,0-7.81-.072-9.46s-1.368-2.95-4.284-3.06c-1.044-.04-2.2-0.07-3.419-0.07-1.872,0-3.852.03-5.544,0.07,0.54-.97,1.08-1.95,1.584-2.95h14.542a1.616,1.616,0,0,0,1.692-1.66,1.578,1.578,0,0,0-1.692-1.58h-13.1c1.008-2.45,1.08-2.85,1.08-3.13a1.874,1.874,0,0,0-1.98-1.62,1.633,1.633,0,0,0-1.656,1.22,34.222,34.222,0,0,1-1.224,3.53h-9.718a1.6,1.6,0,0,0-1.728,1.62,1.618,1.618,0,0,0,1.728,1.62h8.243a31.319,31.319,0,0,1-9.395,11.26,1.837,1.837,0,0,0-.864,1.48,1.755,1.755,0,0,0,1.8,1.65c1.691,0,5.075-3.67,6.155-4.93-0.144,5.22-.252,12.46-0.252,13.54a1.592,1.592,0,0,0,1.692,1.65,1.646,1.646,0,0,0,1.727-1.69v-6.23h11.411c0,2.74,0,4-2.736,4a14.471,14.471,0,0,1-2.411-.25,1.334,1.334,0,0,0-.4-0.04,1.591,1.591,0,0,0-1.584,1.66c0,1.37.936,1.98,4.031,1.98,4.86,0,6.444-2.67,6.444-4.86v-0.07Zm-14.579-6.83c0-.62.036-1.12,0.036-1.55,0.072-1.37.936-1.37,6.048-1.37,4,0,5.111,0,5.183,1.37,0,0.36.036,0.86,0.036,1.55h-11.3Zm11.339,5.43H513.063v-2.77h11.411v2.77Zm36.194,4.25a2,2,0,1,0-2.484-3.13c-6.263,4.93-12.67,5.29-12.886.03-0.144-3.49.4-6.76,0.648-10.58,0.18-2.41.432-5.83,0.5-8.1,0.072-2.37-4-2.59-3.924.07,0.072,2.23-.18,5.76-0.288,8.1-0.18,3.82-.576,6.88-0.432,10.66C542.13,9757.46,553.649,9756.41,560.668,9750.69Zm25.276,4.07c3.816,0.03,3.6-4.22-.18-4.07-8.063.29-10.475-7.27-7.307-12.56a10.347,10.347,0,0,1,4.607-4.22,15.482,15.482,0,0,1,5.364-1c2.519,0.14,3.311-.58,3.527-1.19a2.121,2.121,0,0,0-2.447-2.77,48.286,48.286,0,0,0-9.827,2.12c-3.672,1.04-6.8,1.76-8.567,2.2-1.152.28-3.24,0.68-4,.86-2.879.61-1.943,4.75,1.224,3.89,1.08-.29,2.088-0.65,3.24-1.08a47.41,47.41,0,0,1,4.535-1.8c0.684-.22.864-0.25,0.288,0.5a12.521,12.521,0,0,0-1.152,1.87C571.33,9744.75,575.073,9754.72,585.944,9754.76Zm-304.7,43.88c3.06,4.57,6.624,6.87,7.919,6.87a2.062,2.062,0,0,0,2.016-2.05,1.691,1.691,0,0,0-1.044-1.58,17.947,17.947,0,0,1-6.731-6.01c4.536-6.38,5.939-13.04,5.939-14.98,0-2.37-1.583-3.6-4.067-3.63-1.044,0-2.268-.04-3.564-0.04-1.871,0-3.887.04-5.9,0.07a1.677,1.677,0,0,0-1.728,1.69,1.508,1.508,0,0,0,1.62,1.55h0.072c1.764-.07,3.6-0.07,5.291-0.07,1.332,0,2.592,0,3.6.03a0.906,0.906,0,0,1,.972.98,27.262,27.262,0,0,1-4.032,11.19,35.854,35.854,0,0,1-2.771-10.11,1.342,1.342,0,0,0-1.44-1.16,1.706,1.706,0,0,0-1.8,1.66,36.668,36.668,0,0,0,3.852,12.6,23.177,23.177,0,0,1-9.287,6.77,1.723,1.723,0,0,0-1.3,1.62,1.921,1.921,0,0,0,1.98,1.8C272.033,9805.84,276.892,9803.6,281.247,9798.64Zm-19.581-18.04c1.8-.03,6.875-0.21,6.875-0.21h0.144a0.7,0.7,0,0,1,.864.79,38.123,38.123,0,0,1-1.26,6.91c-3.816-2.66-4.463-2.7-4.787-2.7a1.7,1.7,0,0,0-1.62,1.66,1.549,1.549,0,0,0,.828,1.33,39.163,39.163,0,0,1,4.5,3.06c-1.512,4.1-3.851,8.06-7.451,10.69a1.937,1.937,0,0,0-.9,1.58,1.809,1.809,0,0,0,1.836,1.77,2.386,2.386,0,0,0,1.476-.58,27.676,27.676,0,0,0,7.595-11.16,15.248,15.248,0,0,1,1.836,2.16,1.629,1.629,0,0,0,1.367.79,1.973,1.973,0,0,0,1.908-1.94c0-.76-0.432-1.69-3.851-4.57a50.325,50.325,0,0,0,2.159-9.94c0-2.91-2.735-3.02-3.851-3.02-1.764,0-6.3.07-7.631,0.14a1.63,1.63,0,0,0-1.656,1.66,1.527,1.527,0,0,0,1.584,1.58h0.036Zm64.39,2.59a1.548,1.548,0,0,0,1.619-1.65,1.6,1.6,0,0,0-1.619-1.69H314.573v-3.49a1.891,1.891,0,0,0-3.743,0v3.49H299.167a1.7,1.7,0,0,0-1.692,1.76,1.526,1.526,0,0,0,1.656,1.58h0.036l11.051-.07c-0.54,7.92-4.248,15.7-12.491,19.58a1.827,1.827,0,0,0-1.188,1.62,1.932,1.932,0,0,0,1.98,1.88,2.349,2.349,0,0,0,1.044-.26,25.642,25.642,0,0,0,12.958-15.8h5.688a1.209,1.209,0,0,1,1.331,1.33c0,10.41-4.067,11.16-5.831,11.16a9.931,9.931,0,0,1-3.563-.79,1.629,1.629,0,0,0-.684-0.14,1.814,1.814,0,0,0-1.656,1.94,1.559,1.559,0,0,0,1.08,1.55,16.3,16.3,0,0,0,4.859.86c5.831,0,9.107-4.07,9.395-14.97v-0.18a3.5,3.5,0,0,0-3.744-3.78c-1.943,0-4.1,0-6.083.03a37.3,37.3,0,0,0,.576-4.03Zm36.309,13c-0.072-4.07-.072-8.03-0.144-12.1a4.322,4.322,0,0,0-4.391-4.21c-3.24-.07-6.551-0.1-9.791-0.1a15.677,15.677,0,0,0,1.332-3.86c0-1.04-1.116-1.58-2.124-1.58a1.613,1.613,0,0,0-1.8,1.15,33.279,33.279,0,0,1-1.116,4.32c-1.763,0-3.527.04-5.219,0.07-2.7.04-4.463,1.62-4.5,3.93-0.144,7.09-.144,14.54-0.216,21.23v0.04a1.8,1.8,0,0,0,3.563-.04v-9.79c0-3.24.036-6.51,0.108-9.79,0.036-1.83.612-2.41,2.664-2.45,2.448-.03,4.967-0.07,7.559-0.07,2.556,0,5.183.04,7.811,0.07,1.764,0.04,2.484.4,2.556,2.45,0.036,0.65.108,3.06,0.108,15.19,0,1.62-1.26,2.09-2.844,2.09a14.067,14.067,0,0,1-2.376-.25,1.853,1.853,0,0,0-.468-0.04,1.573,1.573,0,0,0-1.655,1.59c0,1.8,2.051,2.08,4.319,2.08,4.931,0,6.695-2.66,6.695-4.78v-0.08Zm-20.625-.65a3.233,3.233,0,0,0,2.987,3.35c1.008,0.03,2.2.07,3.384,0.07s2.412-.04,3.42-0.07a3.445,3.445,0,0,0,3.347-3.38c0.036-.83.072-1.91,0.072-3.03,0-1.08-.036-2.19-0.072-3.09a3.255,3.255,0,0,0-3.239-2.88c-1.152-.04-2.556-0.08-3.924-0.08-1.116,0-2.2.04-3.06,0.08a3.016,3.016,0,0,0-2.915,3.09c0,0.9-.036,2.02-0.036,3.1C341.7,9793.74,341.74,9794.79,341.74,9795.54Zm9.935-.72c-0.036,1.01-.828,1.15-3.24,1.15-3.132,0-3.564-.1-3.6-1.11-0.036-.58-0.036-1.55-0.036-2.49,0-2.19.036-2.98,1.188-3.06,0.648-.03,1.62-0.03,2.556-0.03,2.124,0,3.06,0,3.132,1.19,0.036,0.61.036,1.65,0.036,2.59C351.711,9793.78,351.711,9794.43,351.675,9794.82Zm46.769-8.42v-9.83a1.531,1.531,0,0,0-1.619-1.55,1.513,1.513,0,0,0-1.62,1.55v2.16c0,3.6-.036,9.68-0.036,11.16-0.036,1.44-.684,1.8-1.512,1.8a6.678,6.678,0,0,1-1.656-.29,2.521,2.521,0,0,0-.468-0.07,1.622,1.622,0,0,0-1.548,1.73c0,1.37,1.332,1.91,3.672,1.91,3.636,0,4.859-2.34,4.859-4.43v-0.07Zm-10.078,2.52a1.591,1.591,0,0,0,3.167,0v-10.58a1.53,1.53,0,0,0-1.62-1.55,1.488,1.488,0,0,0-1.547,1.55v10.58Zm9.466,16.66a1.412,1.412,0,0,0,1.584-1.4,1.542,1.542,0,0,0-1.584-1.55l-11.59.04v-3.28l8.279,0.04a1.45,1.45,0,1,0,0-2.88l-8.279.03v-2.23a1.653,1.653,0,0,0-1.728-1.69,1.864,1.864,0,0,0-1.3.51l-0.036-6.66H386.1a1.4,1.4,0,0,0,1.4-1.48,1.378,1.378,0,0,0-1.4-1.48h-0.036l-2.88.04-0.036-4.1h1.908a1.378,1.378,0,0,0,1.4-1.48,1.4,1.4,0,0,0-1.44-1.47H371.736a1.5,1.5,0,0,0-1.62,1.51,1.46,1.46,0,0,0,1.584,1.44h1.979c0.036,0.54.036,1.04,0.036,1.58,0,0.5,0,1.04-.036,1.62l-0.036.9-3.023-.04h-0.036a1.489,1.489,0,0,0-1.584,1.48,1.447,1.447,0,0,0,1.584,1.48h2.88c-0.324,2.44-1.152,4.1-3.672,6.3a1.544,1.544,0,0,0-.612,1.18,1.477,1.477,0,0,0,1.584,1.44c1.656,0,4.967-3.16,5.8-8.96h3.492l-0.036,7.02a1.42,1.42,0,0,0,1.583,1.37,1.843,1.843,0,0,0,1.152-.36v2.08l-8.567-.03a1.45,1.45,0,1,0,0,2.88l8.6-.04v3.28l-11.806-.04a1.545,1.545,0,0,0-1.692,1.48,1.521,1.521,0,0,0,1.692,1.47h26.852Zm-17.781-21.99h-3.24v-0.79c0-.97.036-2.13,0.036-3.35h3.2v4.14Zm54.2-6.41a1.706,1.706,0,0,0-1.728-1.58,1.221,1.221,0,0,0-.36.04,58.357,58.357,0,0,1-11.015,1.04c-0.936,0-1.835-.04-2.7-0.07h-0.108a1.445,1.445,0,0,0-1.584,1.47c0,1.55,1.4,1.55,2.628,1.55a77.494,77.494,0,0,0,13.426-1.04A1.493,1.493,0,0,0,434.254,9777.18Zm-6.911,5.94s-0.576-3.34-2.376-3.34a1.432,1.432,0,0,0-1.584,1.15,0.982,0.982,0,0,0,.144.5,6.442,6.442,0,0,1,.9,2.27,1.152,1.152,0,0,0,1.188.97A1.669,1.669,0,0,0,427.343,9783.12Zm5.939,8.14a1.444,1.444,0,0,0,1.584,1.37,1.6,1.6,0,0,0,1.727-1.44c0.036-.44.036-0.94,0.036-1.48,0-.5,0-1.04-0.036-1.51a3.526,3.526,0,0,0-3.635-3.31c-0.4,0-.864-0.04-1.368-0.04,0.936-1.37,2.232-3.6,2.232-4.21a1.758,1.758,0,0,0-1.872-1.4,1.208,1.208,0,0,0-1.26.79,20.357,20.357,0,0,1-2.376,4.78c-2.3,0-4.787,0-6.767.04a1.7,1.7,0,0,0,.864-1.4c0-1.01-1.548-3.17-2.7-3.17a1.59,1.59,0,0,0-1.656,1.33,1.14,1.14,0,0,0,.288.76,5.122,5.122,0,0,1,1.26,1.94,1.5,1.5,0,0,0,.431.58h-0.791c-2.412.07-3.6,1.26-3.636,3.06v1a1.3,1.3,0,0,0-1.116-.75,4.113,4.113,0,0,0-1.152.5v-3.71h1.944a1.58,1.58,0,1,0,0-3.16H413.34v-5.62a1.593,1.593,0,0,0-1.655-1.69,1.653,1.653,0,0,0-1.728,1.69l0.036,5.62h-3.024a1.58,1.58,0,1,0,0,3.16h3.024v5.26c-1.224.47-2.52,0.94-4,1.44a1.473,1.473,0,0,0-1.044,1.44,1.7,1.7,0,0,0,1.656,1.76c0.252,0,.684-0.07,3.384-1.18v7.88a1.224,1.224,0,0,1-1.476,1.19,5.721,5.721,0,0,1-1.152-.15,1.187,1.187,0,0,0-.324-0.03,1.508,1.508,0,0,0-1.4,1.65c0,1.41.972,1.95,3.24,1.95,3.095,0,4.571-1.77,4.571-4.04v-0.14c-0.036-1.26-.144-4.54-0.144-5.11,0-.54.036-2.38,0.036-4.79a8.777,8.777,0,0,0,2.268-1.62v0.79a1.439,1.439,0,0,0,1.548,1.44,1.412,1.412,0,0,0,1.548-1.4v-1.84c0.108-1.8.144-1.83,5.9-1.83,2.484,0,5.291.03,6.767,0.07,1.872,0.04,1.908.18,1.908,3.49v0.04Zm-12.959,1.62c1.98-.04,3.708-0.07,5.544-0.07h2.015c0.216,0,.756.03,0.756,0.43a10.546,10.546,0,0,1-2.735,4.35,17.419,17.419,0,0,1-2.484-3.31,1.453,1.453,0,0,0-1.3-.72,1.567,1.567,0,0,0-1.656,1.41c0,0.79,1.62,2.91,3.24,4.6a18.738,18.738,0,0,1-8.135,3.64,1.58,1.58,0,0,0-1.512,1.51,1.759,1.759,0,0,0,1.8,1.69,21.024,21.024,0,0,0,10.187-4.71c3.959,3.09,7.811,4.35,9.035,4.35a1.812,1.812,0,0,0,1.943-1.76,1.706,1.706,0,0,0-1.439-1.66,21.04,21.04,0,0,1-7.272-3.02c2.34-2.41,4.212-5.36,4.212-6.77,0-1.44-1.08-2.77-3.492-2.81-1.583-.03-3.095-0.03-4.535-0.03-1.476,0-2.844,0-4.248.03a1.434,1.434,0,0,0,.036,2.85h0.036Zm51.6,4.28a1.235,1.235,0,0,0,1.3-1.33,1.275,1.275,0,0,0-1.332-1.37l-11.77.07,0.036-1.58,8.062,0.04a1.21,1.21,0,1,0,0-2.42l-8.026.04v-1.55l9.862,0.04a1.315,1.315,0,1,0,0-2.63l-6.263.04a7.263,7.263,0,0,0,.648-1.77,1.405,1.405,0,0,0-.9-1.19l8.675,0.04a1.424,1.424,0,0,0,1.476-1.51,1.387,1.387,0,0,0-1.44-1.48h-0.036l-4.895.07c1.727-2.19,1.727-2.91,1.727-3.02a1.82,1.82,0,0,0-1.871-1.62,1.585,1.585,0,0,0-1.512,1.08,21,21,0,0,1-1.8,3.6l-1.224.04,0.072-4.79v-0.04a1.479,1.479,0,0,0-1.584-1.47,1.5,1.5,0,0,0-1.619,1.51v4.79h-2.088v-4.79a1.517,1.517,0,0,0-1.62-1.51,1.461,1.461,0,0,0-1.584,1.47v0.04l0.036,4.79-1.26-.04a11.312,11.312,0,0,0-2.915-4.32,1.361,1.361,0,0,0-.828-0.21,1.77,1.77,0,0,0-1.8,1.44,1.153,1.153,0,0,0,.324.75,14.5,14.5,0,0,1,1.872,2.3l-4.716-.07h-0.036a1.416,1.416,0,0,0-1.475,1.48,1.454,1.454,0,0,0,1.511,1.51l8.243-.04a1.111,1.111,0,0,0-.9.94,0.814,0.814,0,0,0,.18.54,9.638,9.638,0,0,1,.72,1.48l-6.3-.04a1.316,1.316,0,1,0,0,2.63l9.935-.04v1.55l-8.1-.04a1.21,1.21,0,1,0,0,2.42l8.135-.04,0.036,1.58-11.771-.07a1.325,1.325,0,0,0-1.367,1.37,1.264,1.264,0,0,0,1.331,1.33h0.036l8.747-.18h1.188a36.106,36.106,0,0,1-11.194,5.8,1.614,1.614,0,0,0-1.26,1.44,1.745,1.745,0,0,0,1.835,1.62c1.152,0,7.991-3.1,12.455-6.7l-0.072,6.16v0.03a1.478,1.478,0,0,0,1.692,1.37,1.523,1.523,0,0,0,1.692-1.37v-0.03l-0.072-6.2c5.471,4.25,11.734,6.59,12.454,6.59a2,2,0,0,0,1.908-1.98,1.448,1.448,0,0,0-1.116-1.4c-4.1-1.37-7.883-2.67-11.627-5.33h1.08l9.071,0.18h0.036Zm-10.295-13.61a0.914,0.914,0,0,0-.36.62,10.491,10.491,0,0,1-.756,2.34h-3.959l-0.036-.11a4.166,4.166,0,0,0-1.836-2.85h6.947Zm41.148,2.74c2.447,0.54,3.131-2.84.611-3.46a21.789,21.789,0,0,0-9.466.22,1.7,1.7,0,1,0,.5,3.35A18.179,18.179,0,0,1,502.777,9786.29Zm1.943,16.41c2.376-.61,2.2-4.42-0.72-3.81-2.807.57-7.127,1.15-9.071-.61a1.78,1.78,0,0,0-2.555,2.48C494.965,9803.57,500.869,9803.68,504.72,9802.7Zm-19.041,1.73c0.9-.79.468-1.91,0.684-2.88a18.188,18.188,0,0,1,2.123-5.04,1.441,1.441,0,0,0-2.519-1.4c-0.144.25-.54,0.97-0.612,1.15-0.144.32-.288,0.43-0.4-0.04-0.864-3.34,1.3-11.8,1.872-14.72,0.395-2.08-3.1-2.88-3.492-.21-0.648,4.28-3.492,14.93-.612,22.03C483.447,9805.08,484.779,9805.22,485.679,9804.43Zm56.9-16.12a1.6,1.6,0,1,0,0-3.17h-7.632v-4.72c5.652-.9,6.336-1.36,6.336-2.7a1.619,1.619,0,0,0-1.62-1.65,2.191,2.191,0,0,0-.684.11,45.258,45.258,0,0,1-13.462,1.94,1.481,1.481,0,0,0-1.476,1.58,1.586,1.586,0,0,0,1.656,1.66c0.5,0,3.743-.22,5.795-0.47v4.25h-7.415a1.591,1.591,0,1,0,0,3.17h7.415v4.53c-0.972,0-1.908.04-2.664,0.07-2.447.11-3.959,1.44-4.067,3.53-0.036.76-.072,1.58-0.072,2.45,0,1.01.036,2.05,0.072,3.09,0.144,3.6,3.1,3.78,8.567,3.78,1.619,0,3.239-.03,4.319-0.14,2.736-.22,4.14-1.62,4.248-3.74,0.036-.8.036-1.62,0.036-2.45,0-1.05,0-2.13-.072-3.13-0.108-2.02-2.016-3.31-4.212-3.39-0.792-.03-1.728-0.07-2.7-0.07v-4.53h7.632Zm-22.21-6.2a1.988,1.988,0,0,0,1.836-1.94c0-2.09-4.931-4.35-5.543-4.35a1.8,1.8,0,0,0-1.8,1.62,1.332,1.332,0,0,0,.684,1.11,14.917,14.917,0,0,1,3.635,2.95A1.553,1.553,0,0,0,520.368,9782.11Zm-1.763,7.67a1.906,1.906,0,0,0,1.655-1.98,1.841,1.841,0,0,0-.756-1.51,13.069,13.069,0,0,0-5.291-2.12,1.774,1.774,0,0,0-1.728,1.72,1.189,1.189,0,0,0,.9,1.19,13.952,13.952,0,0,1,4.212,2.31A1.533,1.533,0,0,0,518.605,9789.78Zm-1.224,14.94c2.735-3.56,4.895-9,4.895-9.79a1.731,1.731,0,0,0-1.8-1.66,1.513,1.513,0,0,0-1.44.98,32.492,32.492,0,0,1-4.823,8.56,1.729,1.729,0,0,0-.432,1.08,1.878,1.878,0,0,0,1.908,1.77A2.083,2.083,0,0,0,517.381,9804.72Zm21.021-5.58c0,3.53,0,3.53-5.075,3.53-3.852,0-5.04,0-5.112-1.73-0.036-.65-0.036-1.44-0.036-2.2,0-2.12,0-2.87,1.656-2.98,0.828-.04,2.088-0.07,3.384-0.07,4.355,0,4.967,0,5.111,1.47C538.366,9797.81,538.4,9798.49,538.4,9799.14Zm35.8,1.58c0,1.23-.54,1.98-2.376,1.98a11.677,11.677,0,0,1-2.267-.25,1.612,1.612,0,0,0-.36-0.03,1.537,1.537,0,0,0-1.548,1.65c0,1.84,1.836,2.13,4.211,2.13,4.356,0,5.868-2.31,5.868-4.83v-0.07l-0.072-4.93c-0.072-3.96,0-11.12-.108-16.41a4.163,4.163,0,0,0-4.284-4c-2.843-.07-5.4-0.11-7.919-0.11-2.879,0-5.723.04-8.819,0.11-3.275.07-4.679,1.4-4.679,4.39v0.11c0.036,1.98.108,4.35,0.108,6.91,0,5.83-.468,12.42-3.276,16.2a1.825,1.825,0,0,0-.36,1.04,1.766,1.766,0,0,0,1.836,1.66c2.88,0,4.464-6.45,4.931-11.2h7.6V9804a1.746,1.746,0,0,0,3.491,0v-8.93H574.2v5.65Zm-8.063-16.7v-5.07c1.944,0,3.888,0,5.831.07a1.932,1.932,0,0,1,2.088,2.09c0.036,0.86.036,1.87,0.072,2.91h-7.991Zm8.063,7.99h-8.027l-0.036-4.93H574.2v4.93Zm-11.482-7.99h-7.344v-3.24a1.566,1.566,0,0,1,1.728-1.76c1.908-.04,3.78-0.07,5.616-0.07v5.07Zm-0.036,7.99h-7.38c0.072-1.65.108-3.34,0.108-4.93h7.308Z" transform="translate(-91 -9694)"/>
</svg>
