<svg id="title_utilize_sp" xmlns="http://www.w3.org/2000/svg" width="451" height="218.5" viewBox="0 0 451 218.5">
  <metadata><?xpacket begin="﻿" id="W5M0MpCehiHzreSzNTczkc9d"?>
<x:xmpmeta xmlns:x="adobe:ns:meta/" x:xmptk="Adobe XMP Core 5.6-c142 79.160924, 2017/07/13-01:06:39        ">
   <rdf:RDF xmlns:rdf="http://www.w3.org/1999/02/22-rdf-syntax-ns#">
      <rdf:Description rdf:about=""/>
   </rdf:RDF>
</x:xmpmeta>
                                                                                                    
                                                                                                    
                                                                                                    
                                                                                                    
                                                                                                    
                                                                                                    
                                                                                                    
                                                                                                    
                                                                                                    
                                                                                                    
                                                                                                    
                                                                                                    
                                                                                                    
                                                                                                    
                                                                                                    
                                                                                                    
                                                                                                    
                                                                                                    
                                                                                                    
                                                                                                    
                           
<?xpacket end="w"?></metadata>
<defs>
    <style>
      .cls-1 {
        fill: #fff33f;
      }

      .cls-1, .cls-2 {
        fill-rule: evenodd;
      }

      .cls-2 {
        fill: #333;
      }
    </style>
  </defs>
  <path id="長方形_16" data-name="長方形 16" class="cls-1" d="M231,2665.91H521.969v6H231v-6Zm-80,81.01H602v6H151v-6Zm80,78.98H521.969v6H231v-6Z" transform="translate(-151 -2613.41)"/>
  <path id="タブレットを_どう活用してよいか_分からない_のコピー" data-name="タブレットを どう活用してよいか 分からない のコピー" class="cls-2" d="M260.855,2647.31a32.125,32.125,0,0,1,3.36,3.03,2.682,2.682,0,0,0,3.976.16,3.027,3.027,0,0,0,.112-4.25,20.886,20.886,0,0,0-4.032-3.53c2.184-3.19,4.256-6.67,6.328-10.42,2.184-3.97,1.176-8.01-4.592-7.84-2.688.11-5.768,0.39-8.512,0.62,0.392-.56.728-1.07,1.008-1.52,1.96-3.24-3.808-6.72-5.768-1.96-2.016,4.82-9.519,14.29-14.951,17.65-3.808,2.35-.5,7.22,3.248,4.64,3.752-2.63,8.9-8.51,12.823-13.66,1.9-.22,7.672-0.78,9.912-0.84,1.456-.06,1.68.22,0.616,2.52a54.946,54.946,0,0,1-4.7,8.01,36.912,36.912,0,0,0-7.056-2.91c-3.919-1.12-5.375,3.64-2.239,4.48a24.4,24.4,0,0,1,5.879,2.68,43.516,43.516,0,0,1-18.7,12.77c-4.256,1.4-2.072,6.67,2.408,4.93C249.6,2658.18,255.871,2653.3,260.855,2647.31Zm67.071-26.94c1.9,2.13,5.1-1.4,2.856-3.64a17.751,17.751,0,0,0-5.656-3.19c-2.632-.84-4.7,2.52-1.848,3.64A20.8,20.8,0,0,1,327.926,2620.37Zm-5.152,4.99c1.848,2.18,5.152-1.24,2.968-3.59a17.394,17.394,0,0,0-5.544-3.36c-2.576-.95-4.816,2.41-1.96,3.59A19.249,19.249,0,0,1,322.774,2625.36Zm-27.608,35.67c15.68-5.99,22.512-16.86,26.432-28.06,1.624-4.59-1.568-8.01-6.1-8.06-7.112-.11-17.584-0.06-24.976.28a2.773,2.773,0,1,0,.112,5.54c8.064-.28,16.912-0.61,22.4-0.44,2.072,0.05,2.24,1.45,1.792,2.96a34.643,34.643,0,0,1-22.232,22.35C288.335,2656.94,290.406,2662.82,295.166,2661.03Zm80.622-26.1a3.047,3.047,0,1,0-5.151-3.24,56.842,56.842,0,0,1-20.216,18.48c-1.344.73-2.8,0.17-2.744-1.4,0.168-4.26.336-16.8,0.224-20.78-0.112-3.75-6.048-4.2-5.88.11,0.168,3.75.056,17.36-.112,23.75-0.168,5.93,4.816,7.05,8.568,5.21C359.941,2652.35,371.309,2641.93,375.788,2634.93Zm30.241,6.5a23.806,23.806,0,0,0-3.36-5.54c-2.3-2.75-6.048.33-4.032,2.57a14.832,14.832,0,0,1,2.632,4.71A2.542,2.542,0,1,0,406.029,2641.43Zm-9.52,21.06c11.031-4.99,17.247-13.55,20.439-24.14,1.064-3.42-4.368-5.1-5.264-1.46a29.966,29.966,0,0,1-17.639,21.17,2.489,2.489,0,0,0-1.4,3.36C393.205,2662.66,394.605,2663.33,396.509,2662.49Zm1.792-18.71a20.987,20.987,0,0,0-4.144-4.98c-2.632-2.35-5.88,1.17-3.584,3.13a14.746,14.746,0,0,1,3.192,4.32C395.445,2649.55,400.093,2646.81,398.3,2643.78Zm46.648-4.59a34.534,34.534,0,0,1,10.92,4.54c3.192,2.35,6.384-2.52,3.472-4.99-3.024-2.57-10.3-4.37-13.44-4.87a5.38,5.38,0,0,0-.952-0.06c0.056-5.48.112-10.36,0.168-13.1,0.112-3.81-5.936-3.87-5.824-.06,0.224,8.07.056,30.02-.336,39.09-0.224,4.48,6.16,4.32,6.048-.22S444.893,2646.92,444.949,2639.19Zm49.6-17.08a10.626,10.626,0,0,0,.448-3.25c-0.112-2.74-5.376-3.08-5.6.28a23.282,23.282,0,0,1-.616,4.7c-0.28.06-.616,0.06-0.84,0.12-1.96.33-4.2,0.61-5.264-.12-3.92-2.63-6.664,2.64-2.632,4.65,1.792,0.9,3.92,1.07,6.944.62a45.5,45.5,0,0,1-2.632,4.98,27.994,27.994,0,0,1-4.536,5.27c-3.36,3.02.728,6.21,3.808,3.47a12.35,12.35,0,0,0,1.288-1.46c0.056-.05.168-0.16,0.224-0.22,3.64-4.2,7.952-4.76,9.464-.06-1.064.62-1.96,1.24-2.744,1.74-10.136,6.67-11.48,14.23-3.92,18.48,4.368,2.47,11.983,1.63,15.287.79,5.152-1.35,3.584-7.4-1.344-5.88-2.631.84-8.119,1.96-11.087,0.44-3.136-1.56-3.976-4.92,2.968-9.4,0.448-.28.952-0.56,1.456-0.84,0,1.17-.056,2.46-0.112,3.64-0.168,2.18,1.12,3.24,2.52,3.19s2.855-1.23,2.967-3.47a44.883,44.883,0,0,0-.112-6.17c2.24-1.06,4.76-2.18,7.112-3.08,2.968-1.12,4.256-1.4,6.048-2.29,3.584-1.79,1.064-7.39-3.136-5.04a42.967,42.967,0,0,1-4.368,2.07c-2.184.95-4.536,2.13-6.832,3.3-1.847-4.14-5.543-5.54-9.407-4.87a57.486,57.486,0,0,0,2.688-5.65,32.041,32.041,0,0,0,6.16-1.85c4.143-2.08,1.119-6.72-1.96-4.88a18.172,18.172,0,0,1-2.352,1.01Zm-295.821,77.94a17.987,17.987,0,0,0-5.208-3.87c-2.52-1.17-4.984,1.96-2.24,3.42a19.07,19.07,0,0,1,4.256,3.64C197.165,2705.59,200.693,2702.57,198.733,2700.05Zm-5.6,4.36a18.335,18.335,0,0,0-5.1-4.03c-2.464-1.29-5.04,1.79-2.352,3.31a19.393,19.393,0,0,1,4.144,3.86C191.4,2709.96,195.037,2706.99,193.133,2704.41Zm-24.471,13.73c-0.56.39-1.064,0.84-1.624,1.28-9.072,7.23-9.408,16.3-1.344,20.39,5.544,2.8,14.9,1.68,19.319.45,4.984-1.4,3.3-7.84-1.4-6.05-3.36,1.23-11.367,2.69-15.287.73-4.368-2.13-4.2-6.33,1.344-11.04,4.424-3.75,10.191-7,15.9-9.91,4.312-2.18,1.4-7.56-2.408-5.43a107.1,107.1,0,0,0-9.855,6.16,56.9,56.9,0,0,0-6.552-13.05c-2.24-3.19-7.728-.17-4.816,3.42A45.4,45.4,0,0,1,168.662,2718.14Zm57.293-14.68c4.144,0.79,5.992-4.87,1.4-5.65a37.645,37.645,0,0,1-8.68-2.47c-3.92-1.79-6.272,2.58-3.08,4.37A35.851,35.851,0,0,0,225.955,2703.46Zm-5.1,40.49c11.2-8.23,15.959-21.5,11.648-30.85-2.968-6.45-11.2-6.67-16.912-4.15-1.568.67-3.36,1.29-4.816,1.79-4.088,1.46-2.688,6.95,1.736,5.83a34.889,34.889,0,0,0,5.432-2.58c3.864-2.29,8.064-2.07,9.632,2.3,2.3,6.49-.784,16.41-10.808,23.46C213.467,2742.11,217.163,2746.7,220.859,2743.95Zm73.773-28.17a2.481,2.481,0,1,0,0-4.92H282.76v-7.34c8.792-1.4,9.856-2.13,9.856-4.2a2.52,2.52,0,0,0-2.52-2.58,3.887,3.887,0,0,0-1.064.17,70.419,70.419,0,0,1-20.943,3.02,2.313,2.313,0,0,0-2.3,2.47,2.458,2.458,0,0,0,2.576,2.57c0.784,0,5.824-.33,9.016-0.72v6.61H265.849a2.47,2.47,0,1,0,0,4.92h11.536v7.06c-1.512,0-2.968.06-4.144,0.11-3.808.17-6.16,2.24-6.328,5.49-0.056,1.18-.112,2.47-0.112,3.81,0,1.57.056,3.19,0.112,4.82,0.224,5.6,4.816,5.88,13.327,5.88,2.52,0,5.04-.06,6.72-0.23,4.256-.33,6.44-2.52,6.608-5.82,0.056-1.23.056-2.52,0.056-3.81,0-1.62,0-3.3-.112-4.87-0.168-3.14-3.136-5.16-6.552-5.27-1.232-.05-2.688-0.11-4.2-0.11v-7.06h11.872Zm-34.551-9.63a3.1,3.1,0,0,0,2.856-3.02c0-3.25-7.672-6.78-8.624-6.78a2.811,2.811,0,0,0-2.8,2.52,2.074,2.074,0,0,0,1.064,1.74,23.271,23.271,0,0,1,5.656,4.59A2.414,2.414,0,0,0,260.081,2706.15Zm-2.744,11.93c1.4,0,2.576-1.51,2.576-3.08a2.849,2.849,0,0,0-1.176-2.35c-2.3-1.74-6.832-3.31-8.232-3.31a2.762,2.762,0,0,0-2.688,2.69,1.862,1.862,0,0,0,1.4,1.85,21.936,21.936,0,0,1,6.552,3.58A2.332,2.332,0,0,0,257.337,2718.08Zm-1.9,23.24c4.256-5.54,7.616-14,7.616-15.23a2.692,2.692,0,0,0-2.8-2.58,2.359,2.359,0,0,0-2.24,1.51,50.5,50.5,0,0,1-7.5,13.33,2.69,2.69,0,0,0-.672,1.68,2.911,2.911,0,0,0,2.968,2.75A3.206,3.206,0,0,0,255.433,2741.32Zm32.7-8.68c0,5.49,0,5.49-7.9,5.49-5.991,0-7.839,0-7.951-2.69-0.056-1.01-.056-2.24-0.056-3.41,0-3.31,0-4.49,2.576-4.65,1.288-.06,3.248-0.12,5.263-0.12,6.776,0,7.728,0,7.952,2.3C288.08,2730.57,288.136,2731.63,288.136,2732.64Zm55.579,2.47c0,1.9-.84,3.08-3.7,3.08a18.308,18.308,0,0,1-3.528-.4,2.344,2.344,0,0,0-.56-0.05,2.392,2.392,0,0,0-2.408,2.57c0,2.86,2.856,3.31,6.552,3.31,6.776,0,9.128-3.59,9.128-7.51V2736l-0.112-7.67c-0.112-6.16,0-17.31-.168-25.54-0.056-3.86-3.36-6.16-6.664-6.22-4.424-.11-8.4-0.16-12.32-0.16-4.479,0-8.9.05-13.719,0.16-5.1.12-7.28,2.19-7.28,6.84v0.16c0.056,3.08.168,6.78,0.168,10.76,0,9.07-.728,19.32-5.1,25.2a2.839,2.839,0,0,0-.56,1.62,2.747,2.747,0,0,0,2.856,2.58c4.48,0,6.944-10.02,7.672-17.42H325.8v13.89a2.717,2.717,0,0,0,5.431,0v-13.89h12.488v8.8Zm-12.544-25.99v-7.9c3.024,0,6.048,0,9.072.11,2.072,0.06,3.136,1.12,3.248,3.25,0.056,1.35.056,2.91,0.112,4.54H331.171Zm12.544,12.43H331.227l-0.056-7.67h12.544v7.67Zm-17.863-12.43H314.428v-5.04a2.438,2.438,0,0,1,2.688-2.75c2.968-.05,5.88-0.11,8.736-0.11v7.9Zm-0.056,12.43h-11.48c0.112-2.57.168-5.21,0.168-7.67h11.368Zm70.284,13.5c3.192-2.58-.224-7.73-3.864-4.87-9.744,7.67-19.711,8.23-20.047.05-0.224-5.43.616-10.53,1.008-16.46,0.28-3.75.672-9.08,0.784-12.6,0.112-3.7-6.216-4.04-6.1.11,0.112,3.47-.28,8.96-0.448,12.6-0.28,5.94-.9,10.7-0.672,16.58C367.241,2745.58,385.16,2743.95,396.08,2735.05Zm39.133,6.33c5.936,0.05,5.6-6.55-.28-6.33-12.543.45-16.3-11.31-11.367-19.55,1.231-2.07,4.031-5.43,7.167-6.55a24.067,24.067,0,0,1,8.344-1.57c3.92,0.23,5.152-.89,5.488-1.85,0.616-1.79-.336-4.53-3.808-4.31-4.928.34-9.52,1.68-15.288,3.31-5.711,1.62-10.583,2.74-13.327,3.41-1.792.45-5.04,1.07-6.216,1.35-4.48.95-3.024,7.39,1.9,6.05,1.68-.45,3.248-1.01,5.04-1.68,3.808-1.46,2.856-1.46,7.056-2.8,1.064-.34,1.344-0.4.448,0.78a19.432,19.432,0,0,0-1.792,2.91C412.478,2725.81,418.3,2741.32,435.213,2741.38Zm40.88-5.77a21.723,21.723,0,0,1,4.536,3.53c3.864,4.09,7.9-1.63,3.92-5.04a23.692,23.692,0,0,0-7.616-4.2c0.056-1.96.056-3.98,0-5.32-0.112-4.09-.28-7.56-0.392-10.7a11.2,11.2,0,0,0,2.464-.06c0.952-.11,2.184-0.22,3.416-0.44a12.663,12.663,0,0,0,3.528-1.18c3.808-2.13.168-7-3.36-4.99a12.25,12.25,0,0,1-4.144,1.29,20.567,20.567,0,0,1-2.072.12c-0.056-2.75,0-5.33.168-8.07,0.224-3.7-5.936-3.98-5.936,0-0.056,8.01.56,13.33,1.232,24.53a34.693,34.693,0,0,1,.056,3.47c-4.088-.73-8.176-0.67-11.144.45-6.439,2.41-6.327,8.68-.952,11.59C466.853,2744.35,474.077,2740.48,476.093,2735.61Zm-4.928-2.18c-1.176,3.52-5.88,4.48-8.9,2.85-1.512-.78-1.456-2.52.056-3.08A14.55,14.55,0,0,1,471.165,2733.43Zm74.5-10.42c-0.56-4.76-4.424-10.03-8.4-12.99-3.36-2.53-6.384,1.62-3.7,3.47,3.024,2.07,5.32,6.38,6.216,10.86C540.565,2728.22,546.109,2727.1,545.661,2723.01Zm-24.472,9.24a25.6,25.6,0,0,0,2.184-4.31c1.064-2.92-3.584-5.27-5.1-2.02a22.267,22.267,0,0,1-1.848,3.31c-1.232,1.68-1.96,1.51-3.416.11-3.136-3.03-4.2-8.57-4.424-14.45-0.112-2.58.112-2.69,0-4.87-0.168-4.21-5.6-3.48-5.712.05a55.793,55.793,0,0,0,.28,6.22c0.448,7.05,2.3,13.55,6.328,17.92C512.622,2737.57,517.606,2738.07,521.189,2732.25Zm79.558-11.59c-1.512-4.04-5.488-8.01-9.968-10.64-3.471-2.02-5.935,2.18-3.192,3.69,4.144,2.3,6.664,6.55,8.008,9.63C597.107,2726.82,602.147,2724.35,600.747,2720.66Zm-27.607-9.75a73.441,73.441,0,0,0,1.624-7.9c0.448-3.75-5.264-4.08-5.656-.44a59.778,59.778,0,0,1-1.736,8.9l-2.8.28c-2.016.17-3.752,0.11-5.488,0.28a2.693,2.693,0,1,0,.168,5.38,37.883,37.883,0,0,0,6.048-.79l0.672-.11c-2.576,7.51-6.048,13.89-9.912,18.2-3.64,4.09,2.184,7.34,4.872,3.53a82.416,82.416,0,0,0,10.864-22.51c0.9-.11,1.736-0.23,2.576-0.28,2.576-.23,3.752,1.4,3.752,4.81a24.986,24.986,0,0,1-1.792,9.69c-1.568,3.31-3.92,3.81-7.112,3.03-3.416-.84-5.208,4.31-0.784,5.6,5.376,1.57,10.864-1.18,13.16-6.72a33.371,33.371,0,0,0,1.9-12.49c-0.224-6.27-3.808-9.02-8.512-8.63Zm-303.189,70.6h0.28c1.568,0,2.632.45,3.192,1.74,5.264,10.98,13.72,18.98,16.856,18.98a3.381,3.381,0,0,0,3.3-3.3,3.055,3.055,0,0,0-1.624-2.69c-6.72-4.2-10.976-9.63-14.224-16.41-1.176-2.57-3.7-3.47-6.5-3.47h-0.224l-9.184.17a2.63,2.63,0,1,0,0,5.26h0.112Zm5.432,17.48c1.176,0,1.96.61,1.96,2.18v0.84c0,13.83-2.8,15.74-6.72,15.74a17.675,17.675,0,0,1-4.368-.67,4.052,4.052,0,0,0-.84-0.12,2.777,2.777,0,0,0-2.688,2.92,2.546,2.546,0,0,0,1.9,2.57,22.141,22.141,0,0,0,5.544.79c12.376,0,12.712-11.93,12.712-22.8,0-3.81-2.184-6.1-5.936-6.16-3.192-.05-7-0.05-10.7-0.05-2.688,0-5.32,0-7.671.05a3.129,3.129,0,0,0-.728.11c0.28-.33,4.535-5.99,4.535-7.84a3.011,3.011,0,0,0-3.024-2.85,2.919,2.919,0,0,0-2.575,1.73c-2.688,5.1-5.6,9.13-11.088,12.55a2.877,2.877,0,0,0-1.512,2.41,2.98,2.98,0,0,0,3.024,2.85c2.464,0,6.44-3.92,8.96-6.83v0.34a2.263,2.263,0,0,0,2.408,2.29c1.511,0,3.247-.05,5.039-0.05-1.232,8.51-5.151,15.96-15.623,19.21a2.638,2.638,0,0,0-2.128,2.52,2.756,2.756,0,0,0,2.8,2.74c1.792,0,17.639-4.48,20.551-24.47h6.16Zm72.933,1.68c-1.512-4.04-5.488-8.01-9.968-10.65-3.472-2.01-5.936,2.19-3.192,3.7,4.144,2.3,6.664,6.55,8.008,9.63C344.676,2806.83,349.716,2804.36,348.316,2800.67Zm-27.607-9.75a73.441,73.441,0,0,0,1.624-7.9c0.448-3.75-5.264-4.08-5.656-.44a59.778,59.778,0,0,1-1.736,8.9l-2.8.28c-2.016.17-3.752,0.11-5.488,0.28a2.693,2.693,0,1,0,.168,5.38,37.883,37.883,0,0,0,6.048-.79l0.672-.11c-2.576,7.51-6.048,13.89-9.912,18.2-3.64,4.09,2.184,7.34,4.872,3.53a82.416,82.416,0,0,0,10.864-22.51c0.9-.11,1.736-0.23,2.576-0.28,2.576-.23,3.752,1.4,3.752,4.81a24.986,24.986,0,0,1-1.792,9.69c-1.568,3.31-3.92,3.81-7.112,3.03-3.416-.84-5.208,4.31-0.784,5.6,5.376,1.57,10.863-1.18,13.159-6.72a33.371,33.371,0,0,0,1.9-12.49c-0.224-6.27-3.808-9.02-8.511-8.63Zm56.71-3.81c2.8-.45,3.64-2.29,3.528-3.92-0.112-1.68-1.568-3.02-3.192-4.09s-3.528-1.9-4.536-2.63c-2.8-2.01-6.5.95-4.088,3.59a20.02,20.02,0,0,0,3.976,2.63c0.392,0.28-.168.56-0.448,0.73-2.352,1.28-.336,4.87,2.352,4.2A24.388,24.388,0,0,1,377.419,2787.11Zm7.392,32.77c18.927-11.6,7-26.72-9.912-19.38-2.632,1.12-5.264,2.57-6.384,3.19-0.5.28-.784,0.28-0.952-0.17-0.392-1.01-.112-3.08.336-5.82,0.448-2.69,1.064-5.83,1.344-8.18,0.5-4.03-4.592-4.14-5.152-.56-0.448,2.86-1.176,7.17-1.624,11.26s-0.56,7.56.448,9.52,3.248,3.53,6.552.33a35.408,35.408,0,0,1,7.5-4.81c5.936-2.69,10.024-1.85,11.2.39s-0.5,6.1-6.664,9.69a26.2,26.2,0,0,1-7.5,2.41c-4.76.95-3.3,6.49,1.232,5.6A30.516,30.516,0,0,0,384.811,2819.88Zm59.695-24.37c2.744,1.74,5.656-2.91,1.848-5.21a17.79,17.79,0,0,0-10.3-1.96c-3.584.34-3.36,4.99-.28,4.82A14.379,14.379,0,0,1,444.506,2795.51Zm-25.255-5.6a109.435,109.435,0,0,1-9.184,15.29c-2.464,3.64,2.912,5.83,4.984,2.47a141.724,141.724,0,0,0,10.023-18.88,21.572,21.572,0,0,0,5.992-2.57c3.584-2.58.056-6.05-2.464-4.26a15.639,15.639,0,0,1-1.792.95,18.71,18.71,0,0,0,.784-3.41c0.112-3.2-4.815-3.81-5.319-.51a36.116,36.116,0,0,1-1.12,5.66,15,15,0,0,1-7.672.17c-3.976-1.29-5.04,3.86-1.624,4.81A15.271,15.271,0,0,0,419.251,2789.91Zm17.639,26.27a16.273,16.273,0,0,1,3.192,2.91c2.688,3.25,7.224-.73,4.032-4.25a20.324,20.324,0,0,0-6.832-4.49c-0.056-1.23-.168-2.4-0.224-3.47-0.056-1.62-.056-3.02-0.056-4.31a11.123,11.123,0,0,1,.336-2.63c0.56-3.36-4.368-4.09-5.04-1.01a16.668,16.668,0,0,0-.28,3.75c0.056,1.4.168,2.8,0.168,4.2v1.96a18.339,18.339,0,0,0-10.751,1.07c-5.768,2.57-5.152,8.62.056,11.25C428.266,2824.58,435.266,2820.66,436.89,2816.18Zm-4.984-2.63c-0.056.17,0,.39-0.056,0.56-0.616,3.02-5.152,4.65-8.511,2.97-1.68-.84-1.568-2.47-0.056-3.25A11.208,11.208,0,0,1,431.906,2813.55Zm71.416-10.53c-0.56-4.76-4.424-10.03-8.4-13-3.36-2.52-6.384,1.63-3.7,3.48,3.024,2.07,5.32,6.38,6.216,10.86C498.226,2808.23,503.77,2807.11,503.322,2803.02Zm-24.472,9.24a25.986,25.986,0,0,0,2.184-4.31c1.064-2.92-3.584-5.27-5.1-2.02a21.7,21.7,0,0,1-1.848,3.3c-1.232,1.68-1.96,1.52-3.415.12-3.136-3.03-4.2-8.57-4.424-14.45-0.112-2.58.112-2.69,0-4.88-0.168-4.2-5.6-3.47-5.712.06a55.793,55.793,0,0,0,.28,6.22c0.448,7.05,2.3,13.55,6.328,17.92C470.283,2817.58,475.266,2818.08,478.85,2812.26Z" transform="translate(-151 -2613.41)"/>
</svg>
