<svg id="title_flow_2" xmlns="http://www.w3.org/2000/svg" width="184.314" height="30" viewBox="0 0 184.314 30">
  <metadata><?xpacket begin="﻿" id="W5M0MpCehiHzreSzNTczkc9d"?>
<x:xmpmeta xmlns:x="adobe:ns:meta/" x:xmptk="Adobe XMP Core 5.6-c142 79.160924, 2017/07/13-01:06:39        ">
   <rdf:RDF xmlns:rdf="http://www.w3.org/1999/02/22-rdf-syntax-ns#">
      <rdf:Description rdf:about=""/>
   </rdf:RDF>
</x:xmpmeta>
                                                                                                    
                                                                                                    
                                                                                                    
                                                                                                    
                                                                                                    
                                                                                                    
                                                                                                    
                                                                                                    
                                                                                                    
                                                                                                    
                                                                                                    
                                                                                                    
                                                                                                    
                                                                                                    
                                                                                                    
                                                                                                    
                                                                                                    
                                                                                                    
                                                                                                    
                                                                                                    
                           
<?xpacket end="w"?></metadata>
<defs>
    <style>
      .cls-1 {
        fill: #009055;
      }

      .cls-1, .cls-2, .cls-3 {
        fill-rule: evenodd;
      }

      .cls-2 {
        fill: #fff;
      }

      .cls-3 {
        fill: #333;
      }
    </style>
  </defs>
  <path id="長方形_759" data-name="長方形 759" class="cls-1" d="M830.916,10185.7h29.973v30H830.916v-30Z" transform="translate(-830.906 -10185.7)"/>
  <path id="_2_のコピー" data-name="2 のコピー" class="cls-2" d="M849.478,10206.5a1.028,1.028,0,0,0,1.117-1,0.912,0.912,0,0,0-1.064-.9c-1.455,0-3.459.1-4.931,0.1,1.472-1.6,3.21-3.1,4.558-4.8a5.5,5.5,0,0,0,1.473-3.4c0-2.1-1.952-3.4-4.009-3.4-2.785,0-4.133,2.1-4.133,2.7a1.009,1.009,0,0,0,1.046.9,0.985,0.985,0,0,0,.923-0.5,2.763,2.763,0,0,1,2.182-1.4,1.772,1.772,0,0,1,1.844,1.8,3.5,3.5,0,0,1-.993,2.3c-1.561,1.9-3.619,4-4.843,5.4a1.8,1.8,0,0,0-.514,1.2,0.929,0.929,0,0,0,.993,1h6.351Z" transform="translate(-830.906 -10185.7)"/>
  <path id="設定サポート_のコピー" data-name="設定サポート のコピー" class="cls-3" d="M893.2,10194.4v0.2c0,0.9-.1,1.6-0.987,1.6a0.789,0.789,0,0,1-.831-0.9v-0.3c0-.8.052-1.4,0.052-2.3,0-2.8-.805-3.1-3.9-3.1-1.4,0-3.481.1-3.481,2.2h0c0,0.4.026,0.7,0.026,1,0,1.9-.286,2.9-1.792,3.9a0.924,0.924,0,0,0-.442.8,1.321,1.321,0,0,0,1.351,1.2,1.562,1.562,0,0,0,.883-0.3c2.078-1.6,2.338-3.5,2.338-5.9,0-.8.624-0.8,1.559-0.8,0.493,0,1.091,0,1.091.7,0,0.8-.026,1.9-0.026,2.9,0,2,.286,3,3.065,3,1.975,0,3.4-.6,3.4-3.8v-0.1a1.168,1.168,0,0,0-1.247-1,0.952,0.952,0,0,0-1.065.9v0.1Zm-13.222-2.6a1.027,1.027,0,0,0,1.091-1.1,1,1,0,0,0-1.091-1h-5.4a1.071,1.071,0,0,0-1.2,1,1.086,1.086,0,0,0,1.2,1.1h5.4Zm1.221,3.6a1.094,1.094,0,0,0,1.143-1.1,1.042,1.042,0,0,0-1.143-1.1h-7.69a1.056,1.056,0,0,0-1.143,1.1,1.11,1.11,0,0,0,1.143,1.1h7.69Zm-1.169,3.4a1.081,1.081,0,0,0,1.091-1.1,1.027,1.027,0,0,0-1.091-1.1h-5.4a1.035,1.035,0,0,0-1.117,1.1,1.087,1.087,0,0,0,1.117,1.1h5.4Zm3.013,2.7c1.429-.1,3.247-0.1,4.858-0.1h1.662c0.182,0,.572,0,0.572.3a9.517,9.517,0,0,1-2,3.7,11.963,11.963,0,0,1-1.741-2.8,1.036,1.036,0,0,0-.961-0.6,1.174,1.174,0,0,0-1.247,1.1,10.9,10.9,0,0,0,2.338,3.9,11.52,11.52,0,0,1-5.091,2.6,2.467,2.467,0,0,0,.1-0.6c0.026-.5.026-1.2,0.026-1.8,0-.7,0-1.3-0.026-1.9a2.14,2.14,0,0,0-2.156-1.9h-4.208a1.971,1.971,0,0,0-1.948,2c-0.026.6-.026,1.3-0.026,2,0,0.6,0,1.1.026,1.6a2.031,2.031,0,0,0,2,2.1c0.519,0,1.273.1,2,.1a7.286,7.286,0,0,0,3.2-.4,1.364,1.364,0,0,0,1.273,1.2,13.2,13.2,0,0,0,6.5-3.3c2.208,1.8,5.169,3,6.286,3a1.369,1.369,0,0,0,1.429-1.4,1.086,1.086,0,0,0-.987-1.1,14.069,14.069,0,0,1-5.066-2.2c1.507-1.7,3.092-4.2,3.092-5.7,0-1-.624-1.9-2.286-2h-7.664a1.117,1.117,0,0,0,.026,2.2h0.026Zm-3.013.6a1.027,1.027,0,0,0,1.091-1.1,1,1,0,0,0-1.091-1h-5.4a1.037,1.037,0,0,0-1.143,1,1.056,1.056,0,0,0,1.143,1.1h5.4Zm-0.78,6.3c-0.026.5-.467,0.7-1.948,0.7-1.325,0-1.818-.1-1.844-0.6,0-.4-0.026-0.9-0.026-1.3,0-1.3,0-1.8.753-1.8a4.325,4.325,0,0,1,1.117-.1c1.325,0,1.9.1,1.948,0.7,0.026,0.4.026,0.8,0.026,1.2S879.279,10208.1,879.253,10208.4Zm33.318-18.4a1.317,1.317,0,0,0-2.624,0v2c-1.974,0-3.922,0-5.845.1a2.7,2.7,0,0,0-2.961,2.5c0,0.5-.026.9-0.026,1.4,0,0.4.026,0.8,0.026,1.2a1.191,1.191,0,0,0,1.247,1.2,1.271,1.271,0,0,0,1.3-1.2h0v-1.6c0.078-.9.286-1.3,1.662-1.4h11.69c1.533,0.1,1.559.3,1.559,2.9v0.1a1.176,1.176,0,0,0,1.3,1.1,1.3,1.3,0,0,0,1.377-1.2c0.026-.2.026-0.6,0.026-0.9,0-.5,0-1-0.026-1.4a2.9,2.9,0,0,0-2.884-2.7c-1.922-.1-3.871-0.1-5.819-0.1v-2Zm5.689,14.4a1.125,1.125,0,0,0,1.2-1.1,1.16,1.16,0,0,0-1.2-1.2h-5.689v-3h4.572a1.117,1.117,0,0,0,1.169-1.1,1.064,1.064,0,0,0-1.169-1.1H905.219a1.056,1.056,0,0,0-1.143,1.1,1.11,1.11,0,0,0,1.143,1.1h4.806v8.9a6.711,6.711,0,0,1-2.883-4.1,11.837,11.837,0,0,0,.364-1.8,1.185,1.185,0,0,0-1.273-1.2,1.15,1.15,0,0,0-1.195,1.1c-0.442,3.1-1.533,5.9-4.65,7.8a1.025,1.025,0,0,0-.546.9,1.24,1.24,0,0,0,1.221,1.3c0.857,0,3.481-1.9,5.066-5.2,2.13,3.9,6.078,4.8,10.313,4.8,1.506,0,3.013-.1,4.52-0.2a1.3,1.3,0,0,0,1.247-1.3,1.155,1.155,0,0,0-1.169-1.2h-0.078c-1.637.1-3.4,0.3-5.118,0.3a17.29,17.29,0,0,1-3.273-.3v-4.5h5.689Zm23.649-5.5c1.689,0,3.325,0,4.936.1,1.818,0,2.364-2.6-.078-2.6-1.559,0-3.221.1-4.884,0.1,0-1.2,0-2.3.026-3.4a1.324,1.324,0,1,0-2.6.1c0.026,0.7.026,2,.026,3.3-1.4,0-2.779.1-4.182,0.1-0.026-1.3-.052-2.4-0.1-3.3a1.291,1.291,0,1,0-2.572.1c0.052,0.9.078,2,.1,3.2-1.636.1-3.273,0.1-4.832,0.2a1.221,1.221,0,1,0,.156,2.4c1.455-.1,3.066-0.2,4.7-0.2,0,1.4-.026,2.8-0.078,3.8a1.273,1.273,0,0,0,1.3,1.4,1.335,1.335,0,0,0,1.325-1.4c0.026-1,.026-2.4.026-3.9h4.156v0.6a10.352,10.352,0,0,1-5.819,9.7c-1.61.9-.571,3.3,1.507,2.1a13.1,13.1,0,0,0,6.884-11.9v-0.5Zm30.229-6.2a2.689,2.689,0,1,0-5.377,0A2.69,2.69,0,0,0,972.138,10192.7ZM971.7,10207a1.444,1.444,0,0,0,.415-1.9,15.648,15.648,0,0,0-4.468-3.8c-1.481-.9-2.728,1.1-1.455,1.8a13.766,13.766,0,0,1,3.793,3.6A1.128,1.128,0,0,0,971.7,10207Zm-10.158-8.1c0.026,2.7.026,5.7,0,7.5-0.026,1.5-1.169,1.3-2.234,1-1.584-.5-2.6,2.1-0.285,2.6,3.714,0.6,4.961-1,4.961-3,0-.7,0-1.1-0.026-2-0.078-1.8-.1-4-0.078-6.1,1.949,0,3.9,0,5.819.1a1.266,1.266,0,1,0,.1-2.5h-5.9c0.026-1.3.052-2.5,0.078-3.3a1.255,1.255,0,1,0-2.494.1c0.026,0.7.026,1.9,0.026,3.2-2.1.1-4.234,0.1-6.286,0.2a1.212,1.212,0,1,0,.052,2.4C957.357,10199,959.461,10199,961.539,10198.9Zm-6.7,8.8a15.783,15.783,0,0,0,3.949-4.7,1.167,1.167,0,1,0-2-1.2,12.16,12.16,0,0,1-3.455,3.7,1.341,1.341,0,0,0-.337,1.9A1.406,1.406,0,0,0,954.837,10207.7Zm15.9-15a1.3,1.3,0,1,1-1.3-1.3A1.321,1.321,0,0,1,970.735,10192.7Zm24.221,8.9a1.213,1.213,0,0,0,1.325-1.2,1.235,1.235,0,0,0-1.325-1.3H978.642a1.278,1.278,0,0,0-1.377,1.3,1.231,1.231,0,0,0,1.377,1.2h16.314Zm13.054-1.1a13.479,13.479,0,0,1,5.06,2.1c1.49,1.1,2.97-1.2,1.61-2.3-1.4-1.2-4.77-2.1-6.23-2.3h-0.44c0.02-2.6.05-4.8,0.08-6.1a1.35,1.35,0,1,0-2.7,0c0.1,3.7.02,13.9-.16,18.1a1.411,1.411,0,1,0,2.8-.1C1007.98,10207.8,1007.98,10204.1,1008.01,10200.5Z" transform="translate(-830.906 -10185.7)"/>
</svg>
