<svg id="グループ_15" data-name="グループ 15" xmlns="http://www.w3.org/2000/svg" width="500" height="133.03" viewBox="0 0 500 133.03">
  <metadata><?xpacket begin="﻿" id="W5M0MpCehiHzreSzNTczkc9d"?>
<x:xmpmeta xmlns:x="adobe:ns:meta/" x:xmptk="Adobe XMP Core 5.6-c142 79.160924, 2017/07/13-01:06:39        ">
   <rdf:RDF xmlns:rdf="http://www.w3.org/1999/02/22-rdf-syntax-ns#">
      <rdf:Description rdf:about=""/>
   </rdf:RDF>
</x:xmpmeta>
                                                                                                    
                                                                                                    
                                                                                                    
                                                                                                    
                                                                                                    
                                                                                                    
                                                                                                    
                                                                                                    
                                                                                                    
                                                                                                    
                                                                                                    
                                                                                                    
                                                                                                    
                                                                                                    
                                                                                                    
                                                                                                    
                                                                                                    
                                                                                                    
                                                                                                    
                                                                                                    
                           
<?xpacket end="w"?></metadata>
<defs>
    <style>
      .cls-1 {
        fill: #fff33f;
      }

      .cls-1, .cls-2 {
        fill-rule: evenodd;
      }

      .cls-2 {
        fill: #333;
      }
    </style>
  </defs>
  <path id="長方形_16" data-name="長方形 16" class="cls-1" d="M478,9088H978v6H478v-6Zm0-80H978v6H478v-6Z" transform="translate(-478 -8960.97)"/>
  <path id="導入や運用の対応が_教師だけでは難しい_のコピー_2" data-name="導入や運用の対応が 教師だけでは難しい のコピー 2" class="cls-2" d="M527.681,8969.93a1.825,1.825,0,1,0,0-3.64l-7.448.06c1.512-2.3,1.624-2.58,1.624-3.08a2.579,2.579,0,0,0-2.632-2.3,2.107,2.107,0,0,0-2.072,1.46,24.909,24.909,0,0,1-1.9,3.92h-3.584c-0.616-1.23-2.8-4.98-4.872-4.98a2.24,2.24,0,0,0-2.352,1.84,1.5,1.5,0,0,0,.448,1.07c0.616,0.73,1.176,1.34,1.68,2.07l-6.216-.06a1.822,1.822,0,1,0,0,3.64l9.912-.11c-0.112.56-.336,1.18-0.5,1.74-4.648,0-8.568,0-8.68,3.69-0.056,1.35-.056,2.75-0.056,4.2,0,1.4,0,2.8.056,4.15,0.112,2.46,1.624,3.69,5.1,3.81,2.016,0.05,4.592.05,7.168,0.05,10.024,0,12.04,0,12.376-3.86,0.112-1.35.168-2.86,0.168-4.37s-0.056-2.97-.168-4.26c-0.168-2.07-1.96-3.3-5.1-3.36-1.736-.05-3.92-0.05-6.16-0.05a11.117,11.117,0,0,0,.672-1.74Zm-33.543,1.91a2.878,2.878,0,0,0,2.519-2.91c0-2.86-6.1-5.88-7.615-5.88a2.618,2.618,0,0,0-2.576,2.4,1.765,1.765,0,0,0,1.008,1.57,17.421,17.421,0,0,1,4.984,3.98A2.153,2.153,0,0,0,494.138,8971.84Zm35.167,28.78a2.242,2.242,0,1,0-.056-4.48l-10.192.06L519,8994.46v-0.33c3.92-.12,7.616-0.45,10.248-0.68,1.792-.16,2.576-1.23,2.576-2.35a2.3,2.3,0,0,0-2.464-2.24h-0.28c-4.144.34-10.024,0.95-15.456,0.95-7.672,0-12.32-1.17-16.968-4.98,0.112-1.79.168-4.48,0.168-5.77,0-2.85-1.623-4.09-4.815-4.14-1.792-.06-3.752-0.06-5.712-0.06a2.242,2.242,0,0,0-.056,4.48h3.752c1.512,0.06,1.68.62,1.68,2.19,0,0.67,0,1.51-.056,2.96a23.053,23.053,0,0,1-6.776,4.65,2.316,2.316,0,0,0-1.512,2.07,2.717,2.717,0,0,0,2.688,2.64c0.56,0,2.464-.17,8.176-5.72,6.327,4.65,9.519,5.94,19.655,6.05,0,0.11-.056.17-0.056,0.28l0.056,1.74-28-.06a2.2,2.2,0,0,0-2.3,2.3,2.127,2.127,0,0,0,2.24,2.18h0.056l28.055-.28v3.53c0,2.07-1.176,2.63-2.8,2.63a19.708,19.708,0,0,1-2.856-.33,1.452,1.452,0,0,0-.5-0.06,2.307,2.307,0,0,0-2.184,2.41c0,2.07,1.512,2.74,5.432,2.74,6.216,0,8.176-3.69,8.176-6.44v-0.11l-0.056-4.09v-0.22l10.136,0.22H529.3Zm-26.824,7.23a2.8,2.8,0,0,0,2.576-2.75c0-3.25-7.84-4.37-8.12-4.37a2.451,2.451,0,0,0-2.351,2.41,1.535,1.535,0,0,0,1.176,1.57,14.62,14.62,0,0,1,5.319,2.58A2.151,2.151,0,0,0,502.481,9007.85Zm18.48-31.76H505.729v-0.5a1.526,1.526,0,0,1,1.736-1.29c1.848-.05,4.368-0.05,6.888-0.05,5.488,0,6.608,0,6.608,1.23v0.61Zm0.056,2.41c0,0.62.056,1.23,0.056,1.85H505.617v-1.85h15.4Zm-0.056,4.82c-0.112,1.34-.672,1.34-7.56,1.34-6.944,0-7.56,0-7.672-1.17l-0.056-.73h15.344Zm44.61-11.09h-0.056a30.94,30.94,0,0,1-.28-3.14c-0.112-3.02-2.744-4.87-6.1-4.92h-1.792c-2.52,0-5.04.05-7.28,0.11a2.749,2.749,0,0,0-.056,5.49h0.168l7.952-.4h0.168c1.512,0,1.68.79,1.848,2.92-1.176,11.92-7.112,25.2-20.72,32.2a3.074,3.074,0,0,0-1.9,2.74,3.167,3.167,0,0,0,3.192,3.08,3.648,3.648,0,0,0,1.792-.45c10.92-5.82,17.248-15.51,20.552-25.93,3.584,9.75,10.08,19.49,18.759,24.98a3.647,3.647,0,0,0,2.016.62,3.745,3.745,0,0,0,3.7-3.53,2.966,2.966,0,0,0-1.68-2.58c-11.2-6.1-18.7-19.77-20.327-30.97Zm49.98-1.23a10.453,10.453,0,0,0-3.3-4.59c-2.8-2.3-6.552.61-4.7,2.52a17.93,17.93,0,0,1,1.4,1.56,5.868,5.868,0,0,1,1.232,2.24C611.183,8976.32,616.559,8974.41,615.551,8971Zm-8.512,13.16a69.516,69.516,0,0,1,10.248-5.55c4.648-1.84,8.231-2.18,10.3-.67,1.96,1.46,2.016,3.81.56,5.77-2.744,3.75-8.959,4.54-12.263,2.24a2.788,2.788,0,0,0-4.144.73,2.733,2.733,0,0,0,.784,3.92c5.992,3.53,15.9,2.35,20.383-3.98,3.136-4.48,2.968-9.91-1.792-12.93-4.312-2.69-9.855-1.96-15.4.16a88.6,88.6,0,0,0-11.144,5.77c-0.224-.45-0.448-0.89-0.672-1.29-0.9-1.79-1.456-3.64-2.184-5.48a2.745,2.745,0,0,0-5.264,1.56,18.947,18.947,0,0,0,1.176,3.08c0.5,1.07,1.008,2.13,1.512,3.08,0.28,0.51.5,1.01,0.784,1.57a41.093,41.093,0,0,1-6.72,2.75c-4.536,1.34-2.184,6.55,1.344,5.48a40.4,40.4,0,0,0,7.952-3.52c1.288,2.35,2.688,4.92,4.032,7.5,2.688,5.1,5.1,10.19,5.936,13.55,0.616,2.47,2.52,3.25,3.976,2.75s2.52-2.3,1.68-4.82c-1.064-3.25-3.752-8.4-6.608-13.61C610.007,8989.48,608.439,8986.68,607.039,8984.16Zm78.573-11.43c0,1.29,1.232,1.96,2.52,1.96,2.576,0,2.688-1.79,2.688-2.74,0-1.01-.056-2.13-0.056-2.97-0.056-3.25-2.184-4.7-5.768-4.76-2.968-.05-6.608-0.11-10.248-0.11s-7.224.06-10.08,0.11c-5.711.06-5.767,2.97-5.767,6.22,0,0.78,0,1.62.056,2.35,0,1.34,1.288,2.02,2.52,2.02s2.463-.68,2.463-1.96v-2.64c0-1.4.336-1.79,2.52-1.84,1.848-.06,5.208-0.06,8.568-0.06s6.776,0,8.624.06c1.568,0,1.96.5,1.96,1.84v2.52Zm3.3,27.16a2.126,2.126,0,0,0,0-4.25l-12.04.05v-2.63c1.848,0,3.64,0,5.208-.05,5.432-.17,5.768-2.58,5.768-7.84,0-3.92-.168-7-5.432-7.23-1.624-.05-3.584-0.05-5.6-0.05v-2.19l6.384,0.06a1.994,1.994,0,1,0,0-3.98l-6.384.06v-1.12a2.384,2.384,0,0,0-4.76,0v1.12l-5.768-.06a1.992,1.992,0,1,0,0,3.98l5.768-.06v2.19c-8.9,0-10.751.05-10.751,7.28,0,7.84,1.344,7.89,10.7,7.89v2.63l-11.367-.05a2.125,2.125,0,1,0,0,4.25l11.367-.05v2.63a2.436,2.436,0,0,0,4.872,0v-2.63ZM654.7,8974.97a3.267,3.267,0,0,0,3.024-3.13c0-2.86-7-7.17-8.68-7.17a2.868,2.868,0,0,0-2.856,2.52,1.968,1.968,0,0,0,1.12,1.74,16.645,16.645,0,0,1,5.488,4.87A2.2,2.2,0,0,0,654.7,8974.97Zm-0.28,28.9c5.264,5.43,9.855,6.89,22.007,6.89,5.1,0,10.248-.34,13.776-0.67a2.748,2.748,0,0,0,2.8-2.75,2.619,2.619,0,0,0-2.688-2.69h-0.28c-4.256.34-10.36,0.96-15.96,0.96-7.784,0-13.551-1.18-17.079-5.66,0-3.58.112-7.45,0.112-10.7,0-3.58-1.68-5.15-5.264-5.26-1.848-.06-3.416-0.06-5.432-0.06a2.4,2.4,0,0,0-2.352,2.52c0,2.36,2.016,2.41,3.08,2.41h2.184c1.9,0,2.576.17,2.576,1.63v2.29c0,2.13-.056,4.31-0.112,6.83a26.816,26.816,0,0,1-7.5,5.83,2.4,2.4,0,0,0-1.4,2.13,3.161,3.161,0,0,0,3.08,2.96C648.149,9010.53,651.621,9007.01,654.421,9003.87Zm28.671-20.1H676.82v-2.52c5.88,0,6.16,0,6.216,1.9Zm-0.056,3.97c-0.056,1.85-1.232,1.85-6.16,1.85v-2.69h6.216ZM672,8983.77h-5.992v-0.4c0.112-2.12.84-2.12,6.048-2.12Zm0,5.82c-5.432,0-5.824-.06-5.992-1.79v-0.9H672v2.69Zm69.636,12.6c0,1.9-.84,3.08-3.7,3.08a18.191,18.191,0,0,1-3.528-.39,1.966,1.966,0,0,0-.56-0.06,2.4,2.4,0,0,0-2.408,2.58c0,2.85,2.856,3.3,6.552,3.3,6.776,0,9.128-3.58,9.128-7.5v-0.11l-0.112-7.68c-0.112-6.16,0-17.3-.168-25.53-0.056-3.87-3.36-6.16-6.664-6.22-4.424-.11-8.4-0.17-12.32-0.17-4.48,0-8.9.06-13.719,0.17-5.1.11-7.28,2.19-7.28,6.83v0.17c0.056,3.08.168,6.78,0.168,10.75,0,9.08-.728,19.32-5.1,25.2a2.844,2.844,0,0,0-.56,1.63,2.745,2.745,0,0,0,2.856,2.57c4.48,0,6.944-10.02,7.672-17.41H723.72v13.89a2.717,2.717,0,0,0,5.432,0V8993.4H741.64v8.79ZM729.1,8976.21v-7.9c3.024,0,6.048,0,9.072.11,2.072,0.06,3.136,1.12,3.248,3.25,0.056,1.34.056,2.91,0.112,4.54H729.1Zm12.544,12.43H729.152l-0.056-7.67H741.64v7.67Zm-17.864-12.43H712.353v-5.04a2.438,2.438,0,0,1,2.688-2.75c2.968-.05,5.88-0.11,8.735-0.11v7.9Zm-0.056,12.43H712.241c0.112-2.58.168-5.21,0.168-7.67h11.367Zm58.991-12.77a14.547,14.547,0,0,1,6.944,2.24c5.543,3.53,7.055,10.86,3.079,17.14-1.847,2.91-6.159,5.32-10.415,6.27-4.816,1.12-3.08,6.77,1.848,5.49,5.544-1.46,11.031-4.93,13.663-9.24,4.872-8.01,3.472-18.32-5.208-23.52-7.055-4.26-17.3-3.48-24.191,1.28-7.5,5.21-11.256,15.63-7.728,22.57,2.464,4.82,7.168,7,11.48,3.03,5.376-4.99,10.416-15.57,11.312-22.68A2.809,2.809,0,0,0,782.711,8975.87Zm-4.424.28a3.955,3.955,0,0,0-.5,1.74c-0.56,6.04-4.48,14.95-8.68,18.64-1.4,1.24-2.856.4-3.7-1.23-2.352-4.31.448-11.76,5.656-15.79A18.613,18.613,0,0,1,778.287,8976.15Zm63.666,18.93a2.946,2.946,0,0,0,2.856-2.86c0-3.13-7.784-8.01-9.744-8.01a2.376,2.376,0,0,0-2.464,2.24,2.179,2.179,0,0,0,1.232,1.96,20.188,20.188,0,0,1,6.1,5.55A2.454,2.454,0,0,0,841.953,8995.08Zm5.264,6.38c0,2.41-1.568,3.59-4.536,3.59a21.5,21.5,0,0,1-5.1-.79,4.389,4.389,0,0,0-.728-0.11,2.409,2.409,0,0,0-2.3,2.58,2.87,2.87,0,0,0,2.352,2.85,26.764,26.764,0,0,0,5.936.73c6.776,0,9.856-3.47,9.856-7.9v-0.11l-0.112-8.06v-15.4h4.816a2.474,2.474,0,1,0,0-4.93h-4.816v-9.46a2.688,2.688,0,0,0-5.376,0v9.46H834.785a2.732,2.732,0,0,0-1.568.45v-0.23a2.269,2.269,0,0,0-2.352-2.4h-5.824l0.056-7.62a2.493,2.493,0,0,0-2.744-2.35,2.443,2.443,0,0,0-2.687,2.35l0.056,7.62h-6.944a2.418,2.418,0,0,0-2.464,2.52,2.292,2.292,0,0,0,2.464,2.35h10.695a61.294,61.294,0,0,1-2.016,9.85c-4.983-2.8-5.879-2.85-6.327-2.85a2.637,2.637,0,0,0-2.632,2.46,2.076,2.076,0,0,0,1.4,1.96,46.936,46.936,0,0,1,5.88,3.42c-2.3,5.77-5.544,10.97-9.744,14.5a2.408,2.408,0,0,0-.952,1.85,2.844,2.844,0,0,0,2.912,2.63c3.024,0,8.512-7.5,11.927-15.79a20.008,20.008,0,0,1,2.408,2.52,2.623,2.623,0,0,0,2.072,1.12,3.047,3.047,0,0,0,2.856-2.97c0-.84-0.224-2.35-5.32-6.05a75.736,75.736,0,0,0,2.912-12.65h2.016a2.371,2.371,0,0,0,1.288-.39v0.22a2.358,2.358,0,0,0,2.632,2.41h12.432v22.62Zm52.058-18.09a2.746,2.746,0,0,0,1.624-4.87c-2.128-1.9-8.568-4.09-10.64-4.09a2.393,2.393,0,0,0-2.576,2.36,2.336,2.336,0,0,0,1.96,2.24,21.329,21.329,0,0,1,7.9,3.69A2.6,2.6,0,0,0,899.275,8983.37Zm16.3,14.68c0-2.8-8.232-10.25-10.64-10.25a2.6,2.6,0,0,0-2.687,2.35,2.184,2.184,0,0,0,1.063,1.85,22.2,22.2,0,0,1,6.832,7.61,2.533,2.533,0,0,0,2.3,1.52A3.275,3.275,0,0,0,915.57,8998.05Zm-4.144-25.32a2.455,2.455,0,0,0,2.632-2.46,2.388,2.388,0,0,0-2.632-2.41c-3.472-.05-10.023-0.11-16.743-0.11v-3.92a2.917,2.917,0,0,0-5.824,0v3.92c-4.48,0-8.624.06-11.48,0.11-5.1.11-7.28,2.41-7.28,6.95v0.16c0.056,2.36.112,4.93,0.112,7.62,0,8.4-.672,17.75-4.816,24.19a2.366,2.366,0,0,0-.336,1.18,2.614,2.614,0,0,0,2.744,2.35,3.088,3.088,0,0,0,2.632-1.57c5.488-8.79,4.928-23.18,5.04-33.43,0-1.57.728-2.52,2.688-2.58,3.36-.05,10.976-0.11,18.312-0.11,6.047,0,11.871.06,14.895,0.11h0.056Zm-4.2,28.23a2.769,2.769,0,0,0-2.968-2.58,2.491,2.491,0,0,0-2.631,2.63c0,4.2-2.3,4.54-5.992,4.54-3.136,0-4.032-.5-4.032-1.85,0.056-4.87.224-12.09,0.448-18.7v-0.11a2.533,2.533,0,0,0-2.744-2.36,2.459,2.459,0,0,0-2.688,2.41c-0.112,6.67-.392,14.45-0.392,19.32,0,4.65,2.912,6.11,9.072,6.11C900.731,9010.37,907.226,9009.97,907.226,9000.96Zm-30.407,3.13c4.2,0,7.392-11.03,7.392-12.54a2.351,2.351,0,0,0-2.52-2.41,2.467,2.467,0,0,0-2.52,1.85,20.946,20.946,0,0,1-4.144,8.79,3.054,3.054,0,0,0-.784,1.96A2.451,2.451,0,0,0,876.819,9004.09Zm92.814-33.04c2.016,2.02,4.983-1.62,2.632-3.75a18.683,18.683,0,0,0-5.88-2.91c-2.688-.73-4.48,2.86-1.568,3.81A19.6,19.6,0,0,1,969.633,8971.05Zm-4.872,5.21c1.96,2.07,4.984-1.45,2.688-3.64a17.809,17.809,0,0,0-5.712-3.13c-2.632-.84-4.648,2.63-1.736,3.69A19.226,19.226,0,0,1,964.761,8976.26Zm5.488,11.48c-1.512-4.03-5.488-8.01-9.968-10.64-3.472-2.01-5.936,2.19-3.192,3.7,4.144,2.29,6.664,6.55,8.008,9.63C966.609,8993.9,971.649,8991.44,970.249,8987.74ZM942.641,8978a73.441,73.441,0,0,0,1.624-7.9c0.448-3.75-5.264-4.09-5.656-.45a59.923,59.923,0,0,1-1.736,8.91l-2.8.28c-2.016.17-3.751,0.11-5.487,0.28a2.688,2.688,0,1,0,.168,5.37,37.668,37.668,0,0,0,6.047-.78l0.672-.11c-2.576,7.5-6.047,13.89-9.911,18.2-3.64,4.09,2.184,7.33,4.872,3.53a82.653,82.653,0,0,0,10.863-22.52c0.9-.11,1.736-0.22,2.576-0.28,2.576-.22,3.752,1.4,3.752,4.82a25.02,25.02,0,0,1-1.792,9.69c-1.568,3.3-3.92,3.81-7.112,3.02-3.416-.84-5.208,4.31-0.784,5.6,5.376,1.57,10.864-1.17,13.16-6.72a33.371,33.371,0,0,0,1.9-12.49c-0.224-6.27-3.808-9.01-8.512-8.62Zm-408.708,80.17a2.356,2.356,0,0,0,0-4.71l-13.551.06a56.008,56.008,0,0,0,2.687-9.02c0-1.45-1.456-2.35-2.855-2.35a2.253,2.253,0,0,0-2.408,1.96,49.584,49.584,0,0,1-7.448,18.98,2.559,2.559,0,0,0-.5,1.4,2.284,2.284,0,0,0,2.3,2.19c1.288,0,1.624-.39,3.024-2.47a45,45,0,0,0,4.48,13.05,28.061,28.061,0,0,1-11.648,8.46,2.691,2.691,0,0,0-1.9,2.46,2.785,2.785,0,0,0,2.8,2.69c1.4,0,8.12-2.91,13.551-9.3,4.592,6,10.08,8.74,11.368,8.74a3.215,3.215,0,0,0,2.968-3.14,2.445,2.445,0,0,0-1.568-2.29,28.554,28.554,0,0,1-9.856-7.34c3.528-5.65,5.264-12.32,5.824-19.37h2.744ZM500.614,9072a3.532,3.532,0,0,0-1.568-.45,2.342,2.342,0,0,0-2.52,1.96,1.725,1.725,0,0,0,1.12,1.51,4.169,4.169,0,0,1,1.456,1.18c-3.248.5-6.608,1.01-9.52,1.34a2.317,2.317,0,0,0-2.3,2.24,2.184,2.184,0,0,0,2.352,2.13c1.176,0,8.176-1.29,10.808-1.74v0.45c0,3.75-1.568,5.55-4.144,5.55a5.611,5.611,0,0,1-1.624-.23,3.825,3.825,0,0,0-.672-0.11,2.3,2.3,0,0,0-2.3,2.24c0,1.68,1.9,2.63,4.536,2.63,5.264,0,9.016-4.09,9.016-9.74,0-.56-0.056-1.12-0.112-1.68,2.576-.51,4.872-1.01,6.664-1.4a2.108,2.108,0,0,0,1.848-2.02,1.911,1.911,0,0,0-1.96-1.96,1.452,1.452,0,0,0-.5.06c-1.9.39-4.424,0.89-7.28,1.4-0.112-.23-0.28-0.45-0.392-0.67,4.76-3.25,6.048-4.43,6.048-6.33,0-1.35-1.008-2.63-3.528-2.69-1.848-.06-3.864-0.06-5.768-0.06a56.093,56.093,0,0,0,4.2-4.14l5.1,0.06h0.056a2.168,2.168,0,0,0,2.408-2.08,2.228,2.228,0,0,0-2.464-2.18H507.95c3.864-4.98,5.992-9.3,5.992-10.14a2.8,2.8,0,0,0-2.8-2.46,2.173,2.173,0,0,0-2.072,1.46,48,48,0,0,1-2.352,4.81,1.955,1.955,0,0,0-1.96-2.13H501.51l0.056-4.53a2.506,2.506,0,0,0-4.984,0v4.53h-5.6a2.136,2.136,0,1,0,0,4.26h5.656v4.2h-8.064a2.136,2.136,0,1,0,0,4.26l9.968-.06a47.267,47.267,0,0,1-10.92,7.56,2.505,2.505,0,0,0-1.512,2.18,2.306,2.306,0,0,0,2.3,2.3c1.736,0,6.832-3.75,7.168-4.03,2.408-.11,4.7-0.11,7.28-0.11a0.534,0.534,0,0,1,.448.44c0,0.12-2.352,2.19-2.464,2.3Zm25.535-13.83a37.927,37.927,0,0,1-3.808,14.89,36.522,36.522,0,0,1-3.527-14.95Zm-24.695-.9v-4.2h3.3a1.9,1.9,0,0,0,.84-0.17,48.106,48.106,0,0,1-3.136,4.37h-1.008Zm74.267,31.36a2.6,2.6,0,0,0,5.208,0l-0.056-27.16c3.416,0,4.815,0,4.927,2.18,0.112,4.15.112,13.28,0.112,13.28,0,2.07-.671,2.46-1.567,2.46a7.678,7.678,0,0,1-1.064-.11h-0.224c-1.12,0-1.736,1.17-1.736,2.35,0,1.68,1.008,2.86,4.087,2.86,3.64,0,5.6-2.64,5.6-6.5v-0.28c-0.056-2.07-.168-3.19-0.168-4.14v-10.81c-0.056-3.75-2.184-5.66-5.543-5.83-1.456-.05-2.912-0.11-4.424-0.11v-5.37h9.967a2.474,2.474,0,1,0,0-4.93h-23.8a2.467,2.467,0,1,0,0,4.93h8.736v5.43c-5.992,0-9.408,0-9.464,5.82,0,2.97-.056,6.39-0.056,9.91,0,3.48.056,7,.056,10.14a2.465,2.465,0,0,0,4.928,0v-0.06c-0.056-2.96-.056-6.49-0.056-9.91s0-6.72.056-9.13c0.112-2.12,1.064-2.12,4.48-2.12v27.1Zm-25.032-38.42c-3.192.12-4.76,1.57-4.76,4.32,0,3.8-.056,9.24-0.056,14.72,0,5.44.056,10.81,0.056,14.56,0,4.88,3.752,4.99,9.072,4.99,1.288,0,2.576-.06,3.976-0.17a5,5,0,0,0,4.7-4.59c0.112-1.35.112-2.8,0.112-4.2,0-1.46,0-2.91-.056-4.2-0.112-4.87-4.032-4.87-7.336-4.87-1.848,0-3.808,0-5.488.05v-4.31c1.4,0.06,2.856.11,4.256,0.11,6.328,0,8.288-.33,8.288-7.89,0-1.4-.112-2.97-0.224-4.54-0.28-4.03-4.256-4.03-6.72-4.03a31.6,31.6,0,0,0,1.736-5.49c0-1.51-1.568-2.52-3.024-2.52a2.422,2.422,0,0,0-2.52,2.18,44.982,44.982,0,0,1-1.288,5.88h-0.728Zm0.28,5.6c0-1.34.672-1.56,3.7-1.56,3.584,0,3.808.05,3.808,4.08,0,2.8,0,3.98-2.464,3.98-1.568,0-3.472-.17-5.04-0.22v-6.28Zm0,19.49c1.512-.11,3.136-0.22,4.536-0.22,3.192,0,3.416.45,3.416,3.47,0,1.29-.056,2.63-0.056,3.58,0,1.52-.784,1.91-3.976,1.91-2.8,0-3.92-.23-3.92-1.68v-7.06Zm93.038-25.98c1.9,2.13,5.1-1.35,2.856-3.59a18.108,18.108,0,0,0-5.656-3.24c-2.632-.84-4.648,2.57-1.792,3.69A20.258,20.258,0,0,1,644.007,9049.32Zm-5.1,5.09c1.848,2.19,5.152-1.23,2.968-3.58a17.394,17.394,0,0,0-5.544-3.36c-2.576-.95-4.816,2.46-1.96,3.64A19.31,19.31,0,0,1,638.911,9054.41Zm0.336,10.25c3.528,1.18,5.04-3.75,1.288-5.09a20.772,20.772,0,0,0-13.44-.28c-3.7,1.28-1.96,5.88.952,4.81C631.015,9062.98,636.111,9063.6,639.247,9064.66Zm0,22.68c3.7-.73,3.36-6.1-0.728-5.77-6.552.56-9.968,0.84-12.824-2.07-2.912-2.97-6.384,1.46-3.976,4.15C624.183,9086.39,631.127,9088.97,639.247,9087.34ZM618.359,9058a36.866,36.866,0,0,0,5.656-2.24c4.2-2.07.728-6.72-2.184-4.82-0.672.39-1.344,0.79-2.128,1.18a17.04,17.04,0,0,0-.056-4.48c-0.56-3.08-5.823-2.91-5.6.28a24.42,24.42,0,0,1,.056,6.05,15.01,15.01,0,0,1-7.728-.34c-4.2-1.51-4.76,3.58-1.9,4.82a16.378,16.378,0,0,0,8.176.78,173.04,173.04,0,0,1-9.8,24.3c-2.352,4.76,3.584,6.39,5.264,2.64A220.818,220.818,0,0,0,618.359,9058Zm71.674-4.09a27.034,27.034,0,0,0-.28-6.66c-0.672-3.08-6.215-3.31-5.768.84a35.6,35.6,0,0,1,.616,6.6v1.46a33.987,33.987,0,0,1-8.455.28c-4.312-.67-4.648,4.76-0.9,5.1a41.548,41.548,0,0,0,9.407-.4c0.056,1.52.112,3.08,0.168,4.82,0.224,9.58-2.015,16.41-9.183,21.06-3.472,2.24.056,6.6,3.3,4.31,8.735-6.16,11.647-14.28,11.143-25.48-0.112-2.24-.224-3.92-0.224-5.55,1.512-.28,2.968-0.61,4.424-0.95,4.76-1.01,2.576-5.88-1.008-4.87-0.952.28-2.072,0.5-3.3,0.78Zm-23.407,30.13c0.784-1.01.392-2.63,0.448-3.25a29.536,29.536,0,0,1,2.8-9.8,2.23,2.23,0,1,0-4.144-1.62c-0.28.67-.9,1.79-1.176,2.46-0.448,1.18-.784.78-0.952-0.17-0.84-5.54.784-10.36,1.456-15.06a73.39,73.39,0,0,0,.9-7.51c0-3.52-5.264-3.58-5.432-.11-0.112,2.41-.448,4.2-0.728,7.39-0.616,6.89-3.192,17.53,1.848,27.22A2.955,2.955,0,0,0,666.626,9084.04Zm85.388-20.27c2.016,2.24,5.32-1.46,2.968-3.81a18.393,18.393,0,0,0-5.936-3.36c-2.744-.9-4.928,2.69-1.9,3.86A19.627,19.627,0,0,1,752.014,9063.77Zm-5.768,5.09c1.96,2.3,5.432-1.29,3.136-3.75a18.294,18.294,0,0,0-5.88-3.53c-2.744-1.01-4.984,2.47-2.016,3.75A21.828,21.828,0,0,1,746.246,9068.86Zm-5.376,19.6c5.936,0.06,5.544-6.55-.336-6.33-12.543.45-16.295-11.31-11.367-19.54,1.231-2.07,4.087-5.43,7.223-6.55a23.736,23.736,0,0,1,8.288-1.57c3.92,0.22,5.152-.9,5.488-1.85,0.616-1.79-.336-4.53-3.808-4.31-4.928.34-9.464,1.68-15.232,3.3-5.711,1.63-10.639,2.75-13.383,3.42-1.792.45-5.04,1.06-6.216,1.34-4.48.96-2.968,7.4,1.96,6.05,1.68-.45,3.248-1.01,5.04-1.68,3.808-1.45,2.856-1.45,7.056-2.8,1.064-.33,1.344-0.39.448,0.79a18.939,18.939,0,0,0-1.792,2.91C718.135,9072.89,723.959,9088.41,740.87,9088.46Zm58.655-5.65a25.194,25.194,0,0,1,3.471,2.91c2.8,2.97,6.776-1.91,3.584-4.82a26.7,26.7,0,0,0-6.327-4.09c-0.056-1.79-.28-3.64-0.336-5.04-0.112-2.74-.28-7.11-0.336-11.48,1.344-.28,2.687-0.61,4.031-0.95,4.816-1.17,2.408-6.27-1.232-5.15-0.895.28-1.9,0.5-2.855,0.78,0-2.74.056-5.09,0.168-6.66,0.224-3.02-5.264-3.53-5.376.11-0.056,1.74,0,4.59.056,7.73a23.412,23.412,0,0,1-7.9.17c-4.312-.73-4.984,4.98-1.12,5.32a38.9,38.9,0,0,0,9.184-.39c0.168,4.42.28,8.73,0.448,11.03,0.056,1.06.168,1.9,0.168,2.8a15.938,15.938,0,0,0-9.856.67c-5.824,2.58-5.712,8.96-.84,11.76C790.565,9090.98,797.4,9087.23,799.525,9082.81Zm-27.552,5.43c1.4-1.35.672-2.91,1.12-4.48,0.224-.9.56-2.13,1.008-3.53a34.11,34.11,0,0,1,1.736-4.42c2.016-4.2-2.24-6.11-3.528-3.42-0.112.28-.5,1.29-0.672,1.62-0.56,1.12-.616.96-0.728-0.05-0.224-2.24.336-6.95,1.064-11.71s1.68-9.63,2.072-12.15c0.56-3.53-5.32-4.65-5.656-.11-0.28,3.64-1.512,9.91-2.24,16.69s-0.9,14,.9,19.65C768,9089.36,770.517,9089.58,771.973,9088.24Zm22.736-8.07c-0.9,3.31-5.432,4.48-8.12,2.97a1.867,1.867,0,0,1,.336-3.3c2.128-1.01,4.928-.73,7.728.33h0.056Zm44.744-29.06a1.994,1.994,0,0,0,2.016-2.13,1.9,1.9,0,0,0-2.016-2.01h-3.584v-2.58c0-1.29-1.176-1.9-2.352-1.9a2.054,2.054,0,0,0-2.3,1.9v2.63h-4.2v-2.63a2.054,2.054,0,0,0-2.3-1.9,2.024,2.024,0,0,0-2.3,1.9v2.58h-3.64a1.966,1.966,0,0,0-1.96,2.07,1.939,1.939,0,0,0,1.96,2.07l3.64-.06v1.57a2.1,2.1,0,0,0,2.3,1.96,2.068,2.068,0,0,0,2.3-1.96v-1.57h4.2v1.57a2.358,2.358,0,0,0,4.648,0v-1.57Zm24.135,33.54c-2.352.06-4.648,0.12-6.831,0.12v-7.45H861.4a2.045,2.045,0,1,0,0-4.09h-4.647v-5.88H861.4a2.045,2.045,0,1,0,0-4.09h-4.647v-6.66c1.9,0,3.919,0,5.935.05h0.056a2.112,2.112,0,0,0,2.184-2.18,2.066,2.066,0,0,0-2.128-2.18c-1.736,0-3.472-.06-5.208-0.06,2.352-4.87,2.912-6.33,2.912-7.22a2.712,2.712,0,0,0-2.8-2.52,2.2,2.2,0,0,0-2.239,1.9,62.633,62.633,0,0,1-2.52,7.84c-1.456,0-2.856.06-4.144,0.06,0.112-.34,2.464-5.83,2.464-7.68a2.453,2.453,0,0,0-2.576-2.35,2.214,2.214,0,0,0-2.3,1.85c-1.008,4.76-3.864,11.93-7.056,16.07-0.056.06-.112,0.17-0.168,0.23,0-5.49-1.232-5.49-9.016-5.49-2.632,0-5.376,0-6.944.05-4.592.12-4.648,3.08-4.648,5.66,0,5.26.168,6.5,8.12,6.5v2.24l-6.664-.06a1.878,1.878,0,0,0-1.96,1.96,1.91,1.91,0,0,0,1.96,1.96l6.5-.06a16.556,16.556,0,0,1-.392,2.41l-7.224-.05a1.985,1.985,0,0,0,0,3.97l6.048-.05a13.765,13.765,0,0,1-6.832,6.88,2.344,2.344,0,0,0-1.456,2.08,2.5,2.5,0,0,0,2.576,2.35c1.232,0,5.992-1.96,9.128-7.95l0.112,0.05a43.821,43.821,0,0,1,6.048,5.1,2.362,2.362,0,0,0,1.792.84,2.625,2.625,0,0,0,2.464-2.58,2.76,2.76,0,0,0-.9-1.96,36.281,36.281,0,0,0-7.784-4.81l8.512,0.05a1.985,1.985,0,1,0,0-3.97l-7.9.05c0.168-.78.224-1.62,0.336-2.41l6.44,0.06a1.925,1.925,0,0,0,2.016-1.96,1.893,1.893,0,0,0-2.016-1.96l-6.216.06c0-.73.056-1.52,0.056-2.19v-0.05c4.424,0,7.616-.34,7.84-3.64v-0.45a2.668,2.668,0,0,0,1.96.84,2.612,2.612,0,0,0,1.624-.56c-0.112,5.54-.168,11.7-0.168,16.97v3.36c0.056,4.03,2.24,5.48,5.264,5.6,2.24,0.11,4.7.11,7.112,0.11,2.911,0,5.879,0,8.623-.06a2.271,2.271,0,0,0,2.408-2.35,2.218,2.218,0,0,0-2.352-2.3h-0.056Zm-11.367-21.39h-4.872c0-4.81.056-6.61,1.68-6.61h2.8c0.112,0.06.28,0.12,0.392,0.17v6.44Zm0,9.97h-4.984c0-1.96.056-3.92,0.056-5.88h4.928v5.88Zm-21.056-14.78c3.7,0,3.864,0,3.864,2.8,0,2.24-.448,2.29-3.864,2.29v-5.09Zm21.056,26.32c-4.144,0-4.928-.4-4.928-2.47,0-1.57-.056-3.25-0.056-4.98h4.984v7.45Zm-25.368-21.23c-0.952,0-1.736-.05-2.3-0.05-1.344-.06-1.512-0.45-1.512-2.47,0-2.29,0-2.57,3.808-2.57v5.09Zm82.359,18.59c3.192-2.57-.224-7.72-3.864-4.87-9.744,7.67-19.712,8.23-20.048.06-0.224-5.43.616-10.53,1.008-16.47,0.28-3.75.672-9.07,0.784-12.6,0.112-3.69-6.216-4.03-6.1.12,0.112,3.47-.28,8.96-0.448,12.6-0.28,5.93-.9,10.69-0.672,16.57C880.372,9092.66,898.292,9091.04,909.212,9082.13Zm55.456-12.04c-0.56-4.76-4.424-10.02-8.4-12.99-3.36-2.52-6.384,1.63-3.7,3.47,3.024,2.08,5.32,6.39,6.215,10.87C959.572,9075.3,965.116,9074.18,964.668,9070.09Zm-24.471,9.24a25.215,25.215,0,0,0,2.184-4.31c1.064-2.91-3.584-5.26-5.1-2.01a22.189,22.189,0,0,1-1.848,3.3c-1.232,1.68-1.96,1.51-3.416.11-3.136-3.02-4.2-8.57-4.424-14.45-0.112-2.57.112-2.68,0-4.87-0.168-4.2-5.6-3.47-5.712.06a55.722,55.722,0,0,0,.28,6.21c0.448,7.06,2.3,13.56,6.328,17.92C931.629,9084.65,936.613,9085.16,940.2,9079.33Z" transform="translate(-478 -8960.97)"/>
</svg>
