<svg id="グループ_17" data-name="グループ 17" xmlns="http://www.w3.org/2000/svg" width="720" height="100" viewBox="0 0 720 100">
  <metadata><?xpacket begin="﻿" id="W5M0MpCehiHzreSzNTczkc9d"?>
<x:xmpmeta xmlns:x="adobe:ns:meta/" x:xmptk="Adobe XMP Core 5.6-c142 79.160924, 2017/07/13-01:06:39        ">
   <rdf:RDF xmlns:rdf="http://www.w3.org/1999/02/22-rdf-syntax-ns#">
      <rdf:Description rdf:about=""/>
   </rdf:RDF>
</x:xmpmeta>
                                                                                                    
                                                                                                    
                                                                                                    
                                                                                                    
                                                                                                    
                                                                                                    
                                                                                                    
                                                                                                    
                                                                                                    
                                                                                                    
                                                                                                    
                                                                                                    
                                                                                                    
                                                                                                    
                                                                                                    
                                                                                                    
                                                                                                    
                                                                                                    
                                                                                                    
                                                                                                    
                           
<?xpacket end="w"?></metadata>
<defs>
    <style>
      .cls-1 {
        fill: #009055;
      }

      .cls-2, .cls-3 {
        fill: #fff;
      }

      .cls-3, .cls-4 {
        fill-rule: evenodd;
      }

      .cls-4 {
        fill: #333;
      }
    </style>
  </defs>
  <rect id="長方形_755" data-name="長方形 755" class="cls-1" width="100" height="100"/>
  <rect id="長方形_755-2" data-name="長方形 755" class="cls-2" x="100" width="620" height="100"/>
  <path id="活用例_3_のコピー" data-name="活用例 3 のコピー" class="cls-3" d="M405.557,5869.05a0.883,0.883,0,1,0,0-1.75h-4.238v-2.62c3.139-.5,3.519-0.76,3.519-1.5a0.9,0.9,0,0,0-.9-0.92,1.359,1.359,0,0,0-.38.06,25.136,25.136,0,0,1-7.477,1.08,0.823,0.823,0,0,0-.819.88,0.879,0.879,0,0,0,.919.92c0.28,0,2.079-.12,3.219-0.26v2.36h-4.118a0.879,0.879,0,1,0,0,1.75H399.4v2.52c-0.54,0-1.06.02-1.48,0.04a2.083,2.083,0,0,0-2.259,1.96c-0.02.42-.04,0.88-0.04,1.36,0,0.56.02,1.14,0.04,1.72,0.08,2,1.72,2.1,4.758,2.1,0.9,0,1.8-.02,2.4-0.08,1.52-.12,2.3-0.9,2.359-2.08,0.02-.44.02-0.9,0.02-1.36,0-.58,0-1.18-0.04-1.74a2.2,2.2,0,0,0-2.339-1.88c-0.439-.02-0.959-0.04-1.5-0.04v-2.52h4.238Zm-12.335-3.43a1.107,1.107,0,0,0,1.02-1.08c0-1.16-2.739-2.42-3.079-2.42a1,1,0,0,0-1,.9,0.739,0.739,0,0,0,.38.62,8.351,8.351,0,0,1,2.019,1.64A0.861,0.861,0,0,0,393.222,5865.62Zm-0.979,4.25a1.059,1.059,0,0,0,.919-1.1,0.991,0.991,0,0,0-.419-0.83,7.3,7.3,0,0,0-2.939-1.18,0.986,0.986,0,0,0-.96.96,0.662,0.662,0,0,0,.5.65,7.8,7.8,0,0,1,2.339,1.28A0.834,0.834,0,0,0,392.243,5869.87Zm-0.68,8.3a17.355,17.355,0,0,0,2.719-5.44,0.961,0.961,0,0,0-1-.92,0.841,0.841,0,0,0-.8.54,18.1,18.1,0,0,1-2.679,4.76,0.961,0.961,0,0,0-.24.6,1.04,1.04,0,0,0,1.06.98A1.148,1.148,0,0,0,391.563,5878.17Zm11.675-3.1c0,1.96,0,1.96-2.819,1.96-2.139,0-2.8,0-2.838-.96-0.02-.36-0.02-0.8-0.02-1.22,0-1.18,0-1.6.919-1.66,0.46-.02,1.16-0.04,1.879-0.04,2.419,0,2.759,0,2.839.82C403.218,5874.33,403.238,5874.71,403.238,5875.07Zm20.9,0.88c0,0.68-.3,1.1-1.319,1.1a6.505,6.505,0,0,1-1.26-.14,0.75,0.75,0,0,0-.2-0.02,0.855,0.855,0,0,0-.859.92c0,1.02,1.019,1.18,2.339,1.18,2.419,0,3.258-1.28,3.258-2.68v-0.04l-0.04-2.74c-0.04-2.2,0-6.17-.06-9.11a2.311,2.311,0,0,0-2.379-2.22c-1.579-.04-3-0.06-4.4-0.06-1.6,0-3.178.02-4.9,0.06-1.819.04-2.6,0.78-2.6,2.44v0.06c0.02,1.1.06,2.42,0.06,3.83,0,3.24-.259,6.9-1.819,9a1.015,1.015,0,0,0-.2.58,0.981,0.981,0,0,0,1.02.92c1.6,0,2.479-3.58,2.739-6.22h4.218v4.96a0.97,0.97,0,0,0,1.939,0v-4.96h4.458v3.14Zm-4.478-9.27v-2.82c1.08,0,2.159,0,3.239.04a1.072,1.072,0,0,1,1.159,1.16c0.02,0.48.02,1.04,0.04,1.62H419.66Zm4.478,4.43H419.68l-0.02-2.74h4.478v2.74Zm-6.377-4.43h-4.078v-1.8a0.869,0.869,0,0,1,.959-0.98c1.06-.02,2.1-0.04,3.119-0.04v2.82Zm-0.02,4.43h-4.1c0.04-.92.06-1.86,0.06-2.74h4.058Zm30.136-8.41a0.938,0.938,0,0,0-.979-0.96,0.913,0.913,0,0,0-.96.92v0.04c0.06,1.88.06,4.6,0.06,7.09,0,3.34-.02,6.26-0.02,6.26,0,0.88-.38,1.12-0.92,1.12a5.054,5.054,0,0,1-1.039-.16,0.554,0.554,0,0,0-.18-0.02,0.828,0.828,0,0,0-.76.92c0,0.78.5,1.1,2,1.1,2.039,0,2.859-1.2,2.859-2.44v-0.08c-0.02-.7-0.06-2.52-0.06-2.84V5862.7Zm-4.958,11.47a0.886,0.886,0,0,0,1.759,0v-10.29a0.88,0.88,0,1,0-1.759,0v10.29Zm-1.259-9.99a0.841,0.841,0,1,0,0-1.68h-4.678a0.84,0.84,0,1,0,0,1.68h0.8a17.7,17.7,0,0,1-2.559,6.99,0.863,0.863,0,0,0-.159.5,0.852,0.852,0,0,0,.9.8,1.028,1.028,0,0,0,.9-0.58,20.755,20.755,0,0,0,1.759-4.09c0.52,0,1.2-.02,1.2-0.02a0.427,0.427,0,0,1,.44.43,22.163,22.163,0,0,1-.4,2.4,4.2,4.2,0,0,0-1.239-.46,1.064,1.064,0,0,0-.96,1.06,0.708,0.708,0,0,0,.54.7,7,7,0,0,1,1.1.46,11.029,11.029,0,0,1-3.679,5.04,0.976,0.976,0,0,0-.46.8,0.931,0.931,0,0,0,.94.9,1.2,1.2,0,0,0,.78-0.3c4.538-3.7,5.258-10.42,5.258-11.05a1.512,1.512,0,0,0-1.68-1.6c-0.06,0-.7.02-1.4,0.02,0.16-.66.3-1.34,0.4-2h2.2Zm-9.056,14.15a0.854,0.854,0,0,0,.9.88,0.937,0.937,0,0,0,.98-0.9l0.26-12.45a17.291,17.291,0,0,0,1.5-3.28,1.1,1.1,0,0,0-1.12-.98,0.813,0.813,0,0,0-.819.6,18.916,18.916,0,0,1-3.779,6.69,1.024,1.024,0,0,0-.259.64,0.892,0.892,0,0,0,.919.86c0.54,0,.66-0.14,1.639-1.44l-0.219,9.36v0.02Zm-14.855,26.66a1.67,1.67,0,0,0-1.664,1.66,1.732,1.732,0,0,0,1.7,1.7c0.128,0,.288-0.04.48-0.04h0.288c2.272,0,4.224,1,4.224,4.26a4.466,4.466,0,0,1-4.608,4.35,5.35,5.35,0,0,1-4.672-2.21,1.729,1.729,0,0,0-1.248-.6,1.982,1.982,0,0,0-1.888,1.92c0,1.5,2.88,4.32,7.648,4.32,4.832,0,8.288-3.2,8.288-7.72a6.715,6.715,0,0,0-3.808-6.17,5.124,5.124,0,0,0,2.592-4.71c0-3.58-2.592-6.17-6.656-6.17-2.784,0-6.464,1.85-6.464,3.65a1.875,1.875,0,0,0,1.792,1.79,1.607,1.607,0,0,0,1.12-.48,4.561,4.561,0,0,1,3.392-1.67,3.053,3.053,0,0,1,3.328,2.88c0,1.89-.928,3.17-2.88,3.24h-0.96Z" transform="translate(-368 -5839)"/>
  <path id="アプリを活用した自己表現で主体性を育む_のコピー" data-name="アプリを活用した自己表現で主体性を育む のコピー" class="cls-4" d="M521.722,5890.74a1.946,1.946,0,0,0,1.71.09,17.432,17.432,0,0,0,7.439-5.34c2.1-2.37.66-4.98-2.459-4.98-4.5,0-11.04-.03-15.39.18-2.25.12-2.4,3,.24,2.88,4.2-.21,10.74-0.3,14.1-0.27,0.78,0,.78.45,0.33,1.08a13.055,13.055,0,0,1-5.46,3.78c-0.09.03-.15,0.09-0.24,0.12,0.03-.36.03-0.75,0.03-1.11a1.6,1.6,0,0,0-1.8-1.71,1.535,1.535,0,0,0-1.65,1.83,11.464,11.464,0,0,1-6.3,11.79,1.535,1.535,0,0,0-.81,2.34,2.038,2.038,0,0,0,2.82.27A15.123,15.123,0,0,0,521.722,5890.74Zm41.93-11.1a3.165,3.165,0,1,0-6.33,0A3.165,3.165,0,0,0,563.652,5879.64Zm-19.619,21.81c8.4-3.21,12.06-9.03,14.159-15.03,0.87-2.46-.84-4.29-3.269-4.32-3.81-.06-9.42-0.03-13.38.15a1.486,1.486,0,1,0,.06,2.97c4.32-.15,9.06-0.33,12-0.24,1.11,0.03,1.2.78,0.96,1.59a18.563,18.563,0,0,1-11.91,11.97C540.373,5899.26,541.483,5902.41,544.033,5901.45ZM562,5879.64a1.53,1.53,0,0,1-3.06,0A1.53,1.53,0,1,1,562,5879.64Zm12.778,11.61c0.06-2.79.06-7.92-.09-10.62-0.12-1.89-3.21-1.74-3.12.12,0.15,2.85.24,7.56,0.06,10.53a1.471,1.471,0,0,0,1.56,1.53A1.551,1.551,0,0,0,574.78,5891.25Zm0.54,11.28c6.21-3.57,7.77-8.76,7.77-13.92,0-2.49-.15-5.85-0.09-8.4,0.03-1.83-3.21-1.95-3.21,0,0,2.37.15,6.09,0.15,8.43,0,4.47-1.2,8.49-6.51,11.43C571.54,5901.12,572.86,5903.94,575.32,5902.53Zm27.126-21.93a5.672,5.672,0,0,0,.24-1.74c-0.06-1.47-2.88-1.65-3,.15a12.515,12.515,0,0,1-.33,2.52c-0.15.03-.33,0.03-0.45,0.06-1.05.18-2.25,0.33-2.82-.06-2.1-1.41-3.57,1.41-1.41,2.49a6.059,6.059,0,0,0,3.72.33,25.01,25.01,0,0,1-1.41,2.67,14.974,14.974,0,0,1-2.43,2.82c-1.8,1.62.39,3.33,2.04,1.86a6.57,6.57,0,0,0,.69-0.78l0.12-.12c1.95-2.25,4.26-2.55,5.07-.03-0.57.33-1.05,0.66-1.47,0.93-5.43,3.57-6.15,7.62-2.1,9.9,2.34,1.32,6.42.87,8.19,0.42,2.759-.72,1.919-3.96-0.72-3.15-1.41.45-4.35,1.05-5.94,0.24-1.68-.84-2.13-2.64,1.59-5.04,0.24-.15.51-0.3,0.78-0.45,0,0.63-.03,1.32-0.06,1.95a1.376,1.376,0,0,0,1.35,1.71,1.774,1.774,0,0,0,1.59-1.86,23.97,23.97,0,0,0-.06-3.3c1.2-.57,2.55-1.17,3.809-1.65,1.59-.6,2.28-0.75,3.24-1.23a1.6,1.6,0,1,0-1.68-2.7,23.13,23.13,0,0,1-2.339,1.11c-1.17.51-2.43,1.14-3.66,1.77a4.372,4.372,0,0,0-5.04-2.61,30.609,30.609,0,0,0,1.44-3.03,16.872,16.872,0,0,0,3.3-.99c2.22-1.11.6-3.6-1.05-2.61a10.552,10.552,0,0,1-1.26.54Zm41.573,7.32a1.331,1.331,0,1,0,0-2.64H637.66v-3.93c4.709-.75,5.279-1.14,5.279-2.25a1.349,1.349,0,0,0-1.35-1.38,2.039,2.039,0,0,0-.57.09,37.722,37.722,0,0,1-11.219,1.62,1.236,1.236,0,0,0-1.23,1.32,1.32,1.32,0,0,0,1.38,1.38c0.42,0,3.12-.18,4.83-0.39v3.54H628.6a1.325,1.325,0,1,0,0,2.64h6.18v3.78c-0.81,0-1.59.03-2.22,0.06-2.04.09-3.3,1.2-3.39,2.94-0.03.63-.06,1.32-0.06,2.04,0,0.84.03,1.71,0.06,2.58,0.12,3,2.58,3.15,7.14,3.15,1.35,0,2.7-.03,3.6-0.12,2.28-.18,3.45-1.35,3.54-3.12,0.03-.66.03-1.35,0.03-2.04,0-.87,0-1.77-0.06-2.61-0.09-1.68-1.68-2.76-3.51-2.82-0.659-.03-1.439-0.06-2.249-0.06v-3.78h6.359Zm-18.509-5.16a1.661,1.661,0,0,0,1.53-1.62c0-1.74-4.11-3.63-4.62-3.63a1.5,1.5,0,0,0-1.5,1.35,1.109,1.109,0,0,0,.57.93,12.5,12.5,0,0,1,3.03,2.46A1.291,1.291,0,0,0,625.51,5882.76Zm-1.47,6.39a1.59,1.59,0,0,0,1.38-1.65,1.532,1.532,0,0,0-.63-1.26,10.96,10.96,0,0,0-4.41-1.77,1.479,1.479,0,0,0-1.44,1.44,1,1,0,0,0,.75.99,11.713,11.713,0,0,1,3.51,1.92A1.251,1.251,0,0,0,624.04,5889.15Zm-1.02,12.45a26.012,26.012,0,0,0,4.08-8.16,1.441,1.441,0,0,0-1.5-1.38,1.262,1.262,0,0,0-1.2.81,27.114,27.114,0,0,1-4.02,7.14,1.441,1.441,0,0,0-.36.9,1.56,1.56,0,0,0,1.59,1.47A1.723,1.723,0,0,0,623.02,5901.6Zm17.519-4.65c0,2.94,0,2.94-4.229,2.94-3.21,0-4.2,0-4.26-1.44-0.03-.54-0.03-1.2-0.03-1.83,0-1.77,0-2.4,1.38-2.49,0.69-.03,1.74-0.06,2.82-0.06,3.629,0,4.139,0,4.259,1.23C640.509,5895.84,640.539,5896.41,640.539,5896.95Zm29.9,1.32c0,1.02-.45,1.65-1.979,1.65a9.758,9.758,0,0,1-1.89-.21,1.125,1.125,0,0,0-.3-0.03,1.283,1.283,0,0,0-1.29,1.38c0,1.53,1.53,1.77,3.51,1.77,3.629,0,4.889-1.92,4.889-4.02v-0.06l-0.06-4.11c-0.06-3.3,0-9.27-.09-13.68a3.467,3.467,0,0,0-3.57-3.33c-2.369-.06-4.5-0.09-6.6-0.09-2.4,0-4.77.03-7.35,0.09-2.73.06-3.9,1.17-3.9,3.66v0.09c0.03,1.65.09,3.63,0.09,5.76,0,4.86-.39,10.35-2.73,13.5a1.522,1.522,0,0,0-.3.87,1.471,1.471,0,0,0,1.53,1.38c2.4,0,3.72-5.37,4.11-9.33h6.33V5901a1.456,1.456,0,0,0,2.91,0v-7.44h6.689v4.71Zm-6.719-13.92v-4.23c1.62,0,3.24,0,4.86.06a1.607,1.607,0,0,1,1.739,1.74c0.03,0.72.03,1.56,0.06,2.43h-6.659Zm6.719,6.66h-6.689l-0.03-4.11h6.719v4.11Zm-9.569-6.66h-6.12v-2.7a1.3,1.3,0,0,1,1.44-1.47c1.59-.03,3.15-0.06,4.68-0.06v4.23Zm-0.03,6.66h-6.15c0.06-1.38.09-2.79,0.09-4.11h6.09Zm37.832,7.23a1.668,1.668,0,1,0-2.07-2.61c-5.219,4.11-10.559,4.41-10.739.03a83.2,83.2,0,0,1,.54-8.82c0.15-2.01.36-4.86,0.42-6.75,0.06-1.98-3.33-2.16-3.27.06,0.06,1.86-.15,4.8-0.24,6.75-0.15,3.18-.48,5.73-0.36,8.88C683.227,5903.88,692.827,5903.01,698.676,5898.24Zm27.585-9.36c1.89,0.63,2.7-2.01.69-2.73a11.132,11.132,0,0,0-7.2-.15c-1.98.69-1.05,3.15,0.51,2.58C721.852,5887.98,724.581,5888.31,726.261,5888.88Zm0,12.15a1.557,1.557,0,1,0-.39-3.09c-3.509.3-5.339,0.45-6.869-1.11-1.56-1.59-3.42.78-2.13,2.22C718.192,5900.52,721.912,5901.9,726.261,5901.03Zm-11.189-15.72a19.322,19.322,0,0,0,3.03-1.2,1.431,1.431,0,1,0-1.17-2.58c-0.36.21-.72,0.42-1.14,0.63a9.129,9.129,0,0,0-.03-2.4c-0.3-1.65-3.12-1.56-3,.15a13.075,13.075,0,0,1,.03,3.24,8.019,8.019,0,0,1-4.14-.18c-2.25-.81-2.55,1.92-1.02,2.58a8.749,8.749,0,0,0,4.38.42,92.862,92.862,0,0,1-5.25,13.02c-1.26,2.55,1.92,3.42,2.82,1.41A118.005,118.005,0,0,0,715.072,5885.31Zm29.979-4.92a10.006,10.006,0,0,0,.93-2.79,1.577,1.577,0,0,0-1.77-1.32,1.344,1.344,0,0,0-1.5.96,22.99,22.99,0,0,1-.78,3.18c-3.18,0-5.91.03-6.06,3.66-0.06,1.98-.09,4.62-0.09,7.23,0,2.58.03,5.13,0.09,6.93,0.12,4.05,2.55,4.11,9.72,4.11,1.47,0,2.94-.03,4.11-0.09,2.909-.12,4.5-1.29,4.589-4.08,0.03-1.5.06-3.93,0.06-6.42,0-2.91-.03-5.94-0.09-7.86a3.553,3.553,0,0,0-3.659-3.42C749.431,5880.39,747.211,5880.39,745.051,5880.39Zm-6.51,6.39c0-2.79.09-3.66,2.22-3.78,0.96-.06,2.67-0.09,4.44-0.09,5.52,0,6.18,0,6.27,2.04,0.03,0.51.06,1.14,0.06,1.83h-12.99Zm13.02,6.18h-13.05v-3.63h13.05v3.63Zm-0.03,2.55c0,2.79,0,3.96-2.31,4.08-0.99.06-2.49,0.09-3.96,0.09-5.88,0-6.6-.06-6.66-2.04-0.03-.57-0.06-1.32-0.06-2.13h12.99Zm12.846-14.46c3.03-.06,5.91-0.12,8.64-0.12,1.71,0,3.36,0,4.95.06,1.44,0.06,1.47.66,1.47,3.24,0,2.67-.21,2.7-2.79,2.7-2.91,0-6.39-.06-8.73-0.06-1.65,0-4.77,0-4.98,3.51-0.06,1.14-.09,2.85-0.09,4.53,0,0.87,0,1.77.03,2.55,0.18,4.32,3.81,4.65,10.11,4.65a56.233,56.233,0,0,0,7.229-.42c3.96-.54,4.83-3.3,4.83-6.45a1.591,1.591,0,0,0-1.71-1.5,1.437,1.437,0,0,0-1.56,1.53c0,1.62-.54,3.36-2.039,3.63a44.4,44.4,0,0,1-6.54.45c-6.36,0-7.26-.6-7.32-2.34-0.03-.6-0.03-1.29-0.03-2.04,0-1.56.06-3.24,0.15-4.2a1.287,1.287,0,0,1,1.38-1.2h11.04c3.9-.06,3.989-2.82,3.989-5.07,0-.93-0.03-1.89-0.06-2.73-0.09-2.52-1.59-3.45-3.839-3.48-1.86-.03-3.69-0.06-5.55-0.06-2.85,0-5.67.03-8.58,0.06a1.38,1.38,0,0,0-1.47,1.38,1.354,1.354,0,0,0,1.44,1.38h0.03Zm50.456,9.45a1.2,1.2,0,0,0,1.26-1.23,1.187,1.187,0,0,0-1.26-1.23l-9.809.03v-1.86l6.809,0.03a1.116,1.116,0,0,0,1.17-1.17,1.132,1.132,0,0,0-1.17-1.17h-6.779v-1.77l8.489,0.03a1.2,1.2,0,1,0,0-2.4h-8.489v-1.74a1.347,1.347,0,0,0-1.5-1.26,1.3,1.3,0,0,0-1.47,1.26v1.74h-8.4a1.2,1.2,0,1,0,0,2.4l8.4-.03v1.77h-6.69a1.15,1.15,0,0,0-1.23,1.17,1.166,1.166,0,0,0,1.23,1.17l6.72-.03v1.86l-9.66-.03a1.222,1.222,0,0,0-1.32,1.23,1.238,1.238,0,0,0,1.32,1.23h8.1a30.407,30.407,0,0,1-9.39,4.74,1.333,1.333,0,0,0-1.02,1.29,1.417,1.417,0,0,0,1.47,1.38c1.14,0,5.52-2.25,7.11-3.21v4.38c-1.56.39-3.24,0.75-4.89,0.99a1.567,1.567,0,0,0-1.47,1.5,1.44,1.44,0,0,0,1.59,1.41,50.555,50.555,0,0,0,11.07-3.15,1.612,1.612,0,0,0,1.17-1.44,1.269,1.269,0,0,0-1.29-1.23,2.047,2.047,0,0,0-.69.15c-0.78.33-1.71,0.66-2.73,0.99v-5.46a23.8,23.8,0,0,0,1.95-1.59,15.431,15.431,0,0,0,11.879,11.28,1.585,1.585,0,0,0,1.56-1.65,1.339,1.339,0,0,0-1.02-1.38,15.253,15.253,0,0,1-6.569-3.3,29.722,29.722,0,0,0,4.559-2.37,1.453,1.453,0,0,0,.78-1.23,1.6,1.6,0,0,0-1.56-1.53,1.431,1.431,0,0,0-.87.33,26.522,26.522,0,0,1-4.559,2.91,11.371,11.371,0,0,1-1.65-3.84Zm29.748,6.78v0.3c0,2.25-.54,2.37-1.74,2.37a0.982,0.982,0,0,1-1.2-1.14c0-1.41.06-3.12,0.12-4.95h0.06a3.217,3.217,0,0,0,3.3-2.94c0.06-1.74.09-3.57,0.09-5.4,0-1.86-.03-3.69-0.09-5.43a3.064,3.064,0,0,0-3.24-2.79c-0.9-.06-2.039-0.06-3.179-0.06-1.11,0-2.25,0-3.12.06-2.28.12-3.18,1.47-3.21,2.82-0.03,1.65-.06,3.33-0.06,4.98,0,2.01.03,4.02,0.06,5.85,0.03,1.65,1.08,2.85,3.18,2.91,0.99,0.03,2.22.06,3.45,0.06-0.06,1.65-.09,3.45-0.09,5.19,0,1.95.51,3.45,3.629,3.45,3.93,0,4.71-1.77,4.71-5.04a1.365,1.365,0,0,0-1.44-1.47,1.138,1.138,0,0,0-1.23,1.2v0.03Zm-19.8-3.21q-1.71.54-3.42,0.99a1.327,1.327,0,0,0-1.02,1.32,1.306,1.306,0,0,0,1.32,1.38c0.75,0,4.77-1.41,9-3.33a1.418,1.418,0,0,0,.96-1.23,1.232,1.232,0,0,0-1.26-1.17,1.438,1.438,0,0,0-.69.15c-0.69.33-1.47,0.66-2.25,0.96v-5.28h2.07a1.263,1.263,0,0,0,0-2.52h-2.07v-4.62h2.52a1.263,1.263,0,0,0,0-2.52h-7.8a1.254,1.254,0,0,0-1.23,1.32,1.155,1.155,0,0,0,1.23,1.2h2.64v4.62h-2.31a1.254,1.254,0,0,0-1.23,1.32,1.155,1.155,0,0,0,1.23,1.2h2.31v6.21Zm12.93,2.04a1.779,1.779,0,0,0,.12-0.51,1.514,1.514,0,0,0-1.53-1.41,1.479,1.479,0,0,0-1.41,1.14c-0.9,2.76-3.36,4.5-8.04,5.13a1.318,1.318,0,0,0-1.2,1.32,1.409,1.409,0,0,0,1.56,1.38,1.845,1.845,0,0,0,.39-0.03C833.242,5902.29,836.182,5899.83,837.712,5896.11Zm4.709-14.1h-7.379l0.03-1.17a1.163,1.163,0,0,1,1.2-1.2c0.54-.03,1.41-0.06,2.31-0.06,3.359,0,3.809.03,3.809,1.23Zm0.03,4.65h-7.409v-2.34h7.409v2.34Zm-0.03,2.31c0,0.48-.03.93-0.03,1.41-0.06,1.26-.63,1.26-4.109,1.26-2.88,0-3.18-.27-3.21-1.23,0-.48-0.03-0.96-0.03-1.44h7.379Zm32.43-.57c1.08,1.2,2.85-.78,1.59-2.04a9.954,9.954,0,0,0-3.18-1.8c-1.47-.48-2.64,1.44-1.02,2.07A10.532,10.532,0,0,1,874.851,5888.4Zm-3.09,2.73c1.05,1.23,2.91-.69,1.68-2.01a9.8,9.8,0,0,0-3.15-1.89c-1.469-.54-2.669,1.32-1.079,2.01A11.5,11.5,0,0,1,871.761,5891.13Zm-2.879,10.5c3.179,0.03,2.969-3.51-.18-3.39-6.72.24-8.73-6.06-6.09-10.47a8.73,8.73,0,0,1,3.87-3.51,12.715,12.715,0,0,1,4.439-.84c2.1,0.12,2.76-.48,2.94-0.99a1.769,1.769,0,0,0-2.04-2.31,40.146,40.146,0,0,0-8.159,1.77c-3.06.87-5.7,1.47-7.17,1.83-0.96.24-2.7,0.57-3.33,0.72-2.4.51-1.59,3.96,1.05,3.24,0.9-.24,1.74-0.54,2.7-0.9,2.04-.78,1.53-0.78,3.78-1.5,0.57-.18.72-0.21,0.24,0.42a10.367,10.367,0,0,0-.96,1.56C856.7,5893.29,859.822,5901.6,868.882,5901.63Zm25.608-19.35a1.649,1.649,0,0,0,1.56-1.65c0-2.25-6.15-3.72-6.66-3.72a1.512,1.512,0,0,0-1.56,1.47,1.183,1.183,0,0,0,.99,1.14,11.727,11.727,0,0,1,4.68,2.37A1.543,1.543,0,0,0,894.49,5882.28Zm9.6,19.59a1.282,1.282,0,0,0,1.35-1.32,1.355,1.355,0,0,0-1.35-1.41l-9.9.03v-6.06l6.3,0.03a1.323,1.323,0,1,0,0-2.64l-6.3.03v-4.83l8.009,0.03a1.323,1.323,0,1,0,0-2.64H883.03a1.338,1.338,0,0,0-1.38,1.38,1.262,1.262,0,0,0,1.38,1.26l8.19-.03v4.83l-6.48-.03a1.338,1.338,0,0,0-1.38,1.38,1.262,1.262,0,0,0,1.38,1.26l6.48-.03v6.06l-9.99-.03a1.394,1.394,0,0,0-1.41,1.44,1.278,1.278,0,0,0,1.41,1.29h22.859Zm25.2-5.22a1.26,1.26,0,1,0,0-2.52h-2.669v-0.78l-0.09-5.13a32,32,0,0,0,6.659,7.98,1.993,1.993,0,0,0,1.2.48,1.5,1.5,0,0,0,1.47-1.5,1.467,1.467,0,0,0-.63-1.2,28.869,28.869,0,0,1-7.859-8.52l6,0.09h0.03a1.226,1.226,0,0,0,1.29-1.29,1.274,1.274,0,0,0-1.32-1.32h-6.689v-5.1a1.343,1.343,0,0,0-1.47-1.29,1.306,1.306,0,0,0-1.41,1.29v5.1h-5.85a1.331,1.331,0,0,0-1.38,1.35,1.221,1.221,0,0,0,1.35,1.26h0.03l5.1-.09a27.2,27.2,0,0,1-7.29,9.33,1.712,1.712,0,0,0-.39.42l0.24-11.61c1.11-1.89,2.58-4.71,2.58-5.43a1.643,1.643,0,0,0-1.68-1.47,1.344,1.344,0,0,0-1.29.96,27.66,27.66,0,0,1-6.84,10.86,1.45,1.45,0,0,0-.51,1.05,1.372,1.372,0,0,0,1.41,1.32c0.66,0,1.47-.45,3.39-2.94l-0.3,13.86v0.03a1.321,1.321,0,0,0,1.41,1.35,1.376,1.376,0,0,0,1.47-1.38l0.09-5.31a1.413,1.413,0,0,0,1.2.66,1.5,1.5,0,0,0,1.08-.45,28.666,28.666,0,0,0,6.33-8.52l-0.09,5.19v0.75h-2.61a1.3,1.3,0,0,0-1.35,1.32,1.209,1.209,0,0,0,1.35,1.2h2.61v5.19a1.393,1.393,0,0,0,2.76,0v-5.19h2.669Zm35.409,5.25a1.259,1.259,0,0,0,1.35-1.29,1.282,1.282,0,0,0-1.35-1.32l-6.059.03v-5.67l3.929,0.03a1.3,1.3,0,0,0,1.44-1.29,1.321,1.321,0,0,0-1.44-1.29l-3.929.03v-4.83l5.039,0.03a1.3,1.3,0,0,0,1.44-1.29,1.321,1.321,0,0,0-1.44-1.29l-5.039.03v-5.73a1.457,1.457,0,0,0-2.91,0v5.73l-2.37-.03a20.874,20.874,0,0,0,.84-3.57,1.446,1.446,0,0,0-1.5-1.41,1.369,1.369,0,0,0-1.38,1.32,20.1,20.1,0,0,1-3.6,9.15,1.455,1.455,0,0,0-.33.9,1.326,1.326,0,0,0,1.32,1.29,1.642,1.642,0,0,0,1.38-.81,24.87,24.87,0,0,0,2.34-4.29l3.3-.03v4.83l-3.93-.03a1.357,1.357,0,0,0-1.41,1.35,1.252,1.252,0,0,0,1.41,1.23l3.93-.03v5.67l-6.6-.03a1.357,1.357,0,0,0-1.41,1.35,1.272,1.272,0,0,0,1.41,1.26H964.7Zm-21.509-.12a1.466,1.466,0,0,0,2.91,0v-18.33a9.115,9.115,0,0,1,1.32,1.95,0.988,0.988,0,0,0,.87.57,1.432,1.432,0,0,0,1.38-1.35c0-1.02-1.98-3.03-2.79-3.03a1.487,1.487,0,0,0-.78.24v-3.87a1.394,1.394,0,0,0-1.47-1.38,1.351,1.351,0,0,0-1.44,1.38v23.82Zm-3.33-11.4c2.01,0,2.76-5.28,2.76-6.45a1.348,1.348,0,0,0-1.41-1.35,1.116,1.116,0,0,0-1.2,1.2,8.448,8.448,0,0,1-1.14,4.32,1.964,1.964,0,0,0-.3.99A1.28,1.28,0,0,0,939.856,5890.38Zm41.016-9.78a5.672,5.672,0,0,0,.24-1.74c-0.06-1.47-2.88-1.65-3,.15a12.515,12.515,0,0,1-.33,2.52c-0.15.03-.33,0.03-0.45,0.06-1.05.18-2.25,0.33-2.82-.06-2.1-1.41-3.57,1.41-1.41,2.49a6.059,6.059,0,0,0,3.72.33,25.01,25.01,0,0,1-1.41,2.67,14.974,14.974,0,0,1-2.43,2.82c-1.8,1.62.39,3.33,2.04,1.86a6.57,6.57,0,0,0,.69-0.78l0.12-.12c1.95-2.25,4.26-2.55,5.07-.03-0.57.33-1.05,0.66-1.47,0.93-5.43,3.57-6.15,7.62-2.1,9.9,2.34,1.32,6.42.87,8.19,0.42,2.759-.72,1.919-3.96-0.72-3.15-1.41.45-4.35,1.05-5.94,0.24-1.68-.84-2.13-2.64,1.59-5.04,0.24-.15.51-0.3,0.78-0.45,0,0.63-.03,1.32-0.06,1.95a1.376,1.376,0,0,0,1.35,1.71,1.774,1.774,0,0,0,1.59-1.86,23.97,23.97,0,0,0-.06-3.3c1.2-.57,2.55-1.17,3.809-1.65,1.59-.6,2.28-0.75,3.24-1.23a1.6,1.6,0,1,0-1.68-2.7,23.13,23.13,0,0,1-2.339,1.11c-1.17.51-2.43,1.14-3.66,1.77a4.372,4.372,0,0,0-5.04-2.61,30.609,30.609,0,0,0,1.44-3.03,16.872,16.872,0,0,0,3.3-.99c2.22-1.11.6-3.6-1.05-2.61a10.552,10.552,0,0,1-1.26.54Zm39.588,1.53a1.321,1.321,0,1,0,0-2.64l-9.54.06v-1.83a1.568,1.568,0,0,0-3.12,0v1.83l-9.387-.06a1.321,1.321,0,1,0,0,2.64l6.327-.03a24.545,24.545,0,0,1-1.02,2.7c-1.26.06-2.55,0.09-3.777,0.09a1.2,1.2,0,0,0-1.29,1.23,1.388,1.388,0,0,0,1.5,1.38,134.238,134.238,0,0,0,16.08-1.68,9.375,9.375,0,0,1,1.29,1.38,1.545,1.545,0,0,0,1.2.69,1.436,1.436,0,0,0,1.38-1.47c0-1.56-3.24-3.57-5.07-4.32Zm-3.09,13.71c-0.03-1.2,0-3.81-.06-5.19-0.06-1.35-.9-2.46-3.3-2.55-1.23-.03-2.64-0.06-4.08-0.06-1.74,0-3.51.03-4.92,0.06-2.4.06-3.27,1.41-3.33,2.58-0.03.51-.18,10.98-0.18,11.28a1.264,1.264,0,0,0,1.35,1.32,1.388,1.388,0,0,0,1.47-1.35v-4.2h10.29c0,0.3-.03.57-0.03,0.81a1.731,1.731,0,0,1-2.04,1.83,10.076,10.076,0,0,1-1.83-.21,0.746,0.746,0,0,0-.24-0.03,1.207,1.207,0,0,0-1.17,1.32c0,1.35,1.14,1.59,3.18,1.59,3.93,0,4.95-2.25,4.95-4.02v-0.06Zm-3.99-13.77a1.147,1.147,0,0,0-.57.96,0.963,0.963,0,0,0,.6.84,2.638,2.638,0,0,0,.3.18c-2.25.24-4.59,0.45-6.99,0.6a25.817,25.817,0,0,0,1.2-2.58h5.46Zm1.23,9.84h-10.2v-0.45c0.06-1.2.42-1.2,5.31-1.2,4.35,0,4.83.03,4.86,1.2Zm0.03,3.75h-10.32c0-.57.03-1.14,0.03-1.68h10.29v1.68Zm33.93-6.99a1.489,1.489,0,0,0,.54-2.07,7.622,7.622,0,0,0-5.61-3.24c-2.16-.15-2.28,2.61-0.45,2.67a4.7,4.7,0,0,1,3.45,2.19A1.451,1.451,0,0,0,1048.57,5888.67Zm-17.97,6.81c-0.9,2.73-.33,4.71,1.56,5.85,2.25,1.35,6.51,1.32,9.06.48,4.14-1.38,5.1-4.23,4.2-8.46-0.48-2.34-3.48-1.65-3.03.3,0.66,2.85.27,4.62-2.01,5.4-2.13.72-5.4,0.75-6.66-.03-1.11-.69-0.93-2.01-0.36-3.36,0.48-1.11,1.2-2.4,1.53-3.33a3.328,3.328,0,0,0-.09-2.76c0.03-.63.06-1.26,0.09-1.68,0.06-1.11.09-2.07,0.15-3.03a14.2,14.2,0,0,0,2.31-.93c1.98-1.14.39-3.54-1.14-2.52a5.6,5.6,0,0,1-.84.48,15.526,15.526,0,0,0,.03-2.01c-0.09-2.01-3.42-2.16-3.18.15a17.721,17.721,0,0,1,.24,2.79,4.8,4.8,0,0,1-2.49-.18,1.379,1.379,0,0,0-1.05,2.55,6.742,6.742,0,0,0,3.36.3c-0.06.72-.12,1.47-0.15,2.19-0.18-.03-0.33-0.06-0.51-0.09-2.94-.33-5.52,2.88-3.42,6.39A3.135,3.135,0,0,0,1030.6,5895.48Zm1.68-4.05a4.628,4.628,0,0,1-.15.51c-0.78,1.95-2.07.96-2.34,0.27a1.593,1.593,0,0,1,1.56-2.31,0.966,0.966,0,0,1,.81.6l0.03,0.03a2,2,0,0,1,.09.87v0.03Z" transform="translate(-368 -5839)"/>
</svg>
