<svg id="グループ_16" data-name="グループ 16" xmlns="http://www.w3.org/2000/svg" width="730" height="100" viewBox="0 0 730 100">
  <metadata><?xpacket begin="﻿" id="W5M0MpCehiHzreSzNTczkc9d"?>
<x:xmpmeta xmlns:x="adobe:ns:meta/" x:xmptk="Adobe XMP Core 5.6-c142 79.160924, 2017/07/13-01:06:39        ">
   <rdf:RDF xmlns:rdf="http://www.w3.org/1999/02/22-rdf-syntax-ns#">
      <rdf:Description rdf:about=""/>
   </rdf:RDF>
</x:xmpmeta>
                                                                                                    
                                                                                                    
                                                                                                    
                                                                                                    
                                                                                                    
                                                                                                    
                                                                                                    
                                                                                                    
                                                                                                    
                                                                                                    
                                                                                                    
                                                                                                    
                                                                                                    
                                                                                                    
                                                                                                    
                                                                                                    
                                                                                                    
                                                                                                    
                                                                                                    
                                                                                                    
                           
<?xpacket end="w"?></metadata>
<defs>
    <style>
      .cls-1 {
        fill: #009055;
      }

      .cls-2, .cls-3 {
        fill: #fff;
      }

      .cls-3, .cls-4 {
        fill-rule: evenodd;
      }

      .cls-4 {
        fill: #333;
      }
    </style>
  </defs>
  <rect id="長方形_755" data-name="長方形 755" class="cls-1" width="100" height="100"/>
  <rect id="長方形_755-2" data-name="長方形 755" class="cls-2" x="100" width="630" height="100"/>
  <path id="活用例_4_のコピー" data-name="活用例 4 のコピー" class="cls-3" d="M400.557,7469.05a0.883,0.883,0,1,0,0-1.75h-4.238v-2.62c3.139-.5,3.519-0.76,3.519-1.5a0.9,0.9,0,0,0-.9-0.92,1.359,1.359,0,0,0-.38.06,25.136,25.136,0,0,1-7.477,1.08,0.823,0.823,0,0,0-.819.88,0.879,0.879,0,0,0,.919.92c0.28,0,2.079-.12,3.219-0.26v2.36h-4.118a0.879,0.879,0,1,0,0,1.75H394.4v2.52c-0.54,0-1.06.02-1.48,0.04a2.083,2.083,0,0,0-2.259,1.96c-0.02.42-.04,0.88-0.04,1.36,0,0.56.02,1.14,0.04,1.72,0.08,2,1.72,2.1,4.758,2.1,0.9,0,1.8-.02,2.4-0.08,1.52-.12,2.3-0.9,2.359-2.08,0.02-.44.02-0.9,0.02-1.36,0-.58,0-1.18-0.04-1.74a2.2,2.2,0,0,0-2.339-1.88c-0.439-.02-0.959-0.04-1.5-0.04v-2.52h4.238Zm-12.335-3.43a1.107,1.107,0,0,0,1.02-1.08c0-1.16-2.739-2.42-3.079-2.42a1,1,0,0,0-1,.9,0.739,0.739,0,0,0,.38.62,8.351,8.351,0,0,1,2.019,1.64A0.861,0.861,0,0,0,388.222,7465.62Zm-0.979,4.25a1.059,1.059,0,0,0,.919-1.1,0.991,0.991,0,0,0-.419-0.83,7.3,7.3,0,0,0-2.939-1.18,0.986,0.986,0,0,0-.96.96,0.662,0.662,0,0,0,.5.65,7.8,7.8,0,0,1,2.339,1.28A0.834,0.834,0,0,0,387.243,7469.87Zm-0.68,8.3a17.355,17.355,0,0,0,2.719-5.44,0.961,0.961,0,0,0-1-.92,0.841,0.841,0,0,0-.8.54,18.1,18.1,0,0,1-2.679,4.76,0.961,0.961,0,0,0-.24.6,1.04,1.04,0,0,0,1.06.98A1.148,1.148,0,0,0,386.563,7478.17Zm11.675-3.1c0,1.96,0,1.96-2.819,1.96-2.139,0-2.8,0-2.838-.96-0.02-.36-0.02-0.8-0.02-1.22,0-1.18,0-1.6.919-1.66,0.46-.02,1.16-0.04,1.879-0.04,2.419,0,2.759,0,2.839.82C398.218,7474.33,398.238,7474.71,398.238,7475.07Zm20.9,0.88c0,0.68-.3,1.1-1.319,1.1a6.505,6.505,0,0,1-1.26-.14,0.75,0.75,0,0,0-.2-0.02,0.855,0.855,0,0,0-.859.92c0,1.02,1.019,1.18,2.339,1.18,2.419,0,3.258-1.28,3.258-2.68v-0.04l-0.04-2.74c-0.04-2.2,0-6.17-.06-9.11a2.311,2.311,0,0,0-2.379-2.22c-1.579-.04-3-0.06-4.4-0.06-1.6,0-3.178.02-4.9,0.06-1.819.04-2.6,0.78-2.6,2.44v0.06c0.02,1.1.06,2.42,0.06,3.83,0,3.24-.259,6.9-1.819,9a1.015,1.015,0,0,0-.2.58,0.981,0.981,0,0,0,1.02.92c1.6,0,2.479-3.58,2.739-6.22h4.218v4.96a0.97,0.97,0,0,0,1.939,0v-4.96h4.458v3.14Zm-4.478-9.27v-2.82c1.08,0,2.159,0,3.239.04a1.072,1.072,0,0,1,1.159,1.16c0.02,0.48.02,1.04,0.04,1.62H414.66Zm4.478,4.43H414.68l-0.02-2.74h4.478v2.74Zm-6.377-4.43h-4.078v-1.8a0.869,0.869,0,0,1,.959-0.98c1.06-.02,2.1-0.04,3.119-0.04v2.82Zm-0.02,4.43h-4.1c0.04-.92.06-1.86,0.06-2.74h4.058Zm30.136-8.41a0.938,0.938,0,0,0-.979-0.96,0.913,0.913,0,0,0-.96.92v0.04c0.06,1.88.06,4.6,0.06,7.09,0,3.34-.02,6.26-0.02,6.26,0,0.88-.38,1.12-0.92,1.12a5.054,5.054,0,0,1-1.039-.16,0.554,0.554,0,0,0-.18-0.02,0.828,0.828,0,0,0-.76.92c0,0.78.5,1.1,2,1.1,2.039,0,2.859-1.2,2.859-2.44v-0.08c-0.02-.7-0.06-2.52-0.06-2.84V7462.7Zm-4.958,11.47a0.886,0.886,0,0,0,1.759,0v-10.29a0.88,0.88,0,1,0-1.759,0v10.29Zm-1.259-9.99a0.841,0.841,0,1,0,0-1.68h-4.678a0.84,0.84,0,1,0,0,1.68h0.8a17.7,17.7,0,0,1-2.559,6.99,0.863,0.863,0,0,0-.159.5,0.852,0.852,0,0,0,.9.8,1.028,1.028,0,0,0,.9-0.58,20.755,20.755,0,0,0,1.759-4.09c0.52,0,1.2-.02,1.2-0.02a0.427,0.427,0,0,1,.44.43,22.163,22.163,0,0,1-.4,2.4,4.2,4.2,0,0,0-1.239-.46,1.064,1.064,0,0,0-.96,1.06,0.708,0.708,0,0,0,.54.7,7,7,0,0,1,1.1.46,11.029,11.029,0,0,1-3.679,5.04,0.976,0.976,0,0,0-.46.8,0.931,0.931,0,0,0,.94.9,1.2,1.2,0,0,0,.78-0.3c4.538-3.7,5.258-10.42,5.258-11.05a1.512,1.512,0,0,0-1.68-1.6c-0.06,0-.7.02-1.4,0.02,0.16-.66.3-1.34,0.4-2h2.2Zm-9.056,14.15a0.854,0.854,0,0,0,.9.88,0.937,0.937,0,0,0,.98-0.9l0.26-12.45a17.291,17.291,0,0,0,1.5-3.28,1.1,1.1,0,0,0-1.12-.98,0.813,0.813,0,0,0-.819.6,18.916,18.916,0,0,1-3.779,6.69,1.024,1.024,0,0,0-.259.64,0.892,0.892,0,0,0,.919.86c0.54,0,.66-0.14,1.639-1.44l-0.219,9.36v0.02Zm-9.031,36.29c0.928,0,1.7-.03,2.08-0.03a1.731,1.731,0,0,0,1.856-1.67,1.547,1.547,0,0,0-1.632-1.57h-0.1c-0.16,0-1.024.04-2.208,0.07,0-2.37.1-3.59,0.1-5.09a1.653,1.653,0,0,0-1.664-1.82,1.672,1.672,0,0,0-1.728,1.72v0.13c0.032,0.42.032,0.99,0.032,1.7,0,0.96,0,2.17-.032,3.45-1.888.04-3.808,0.1-4.9,0.1-0.8,0-1.312,0-1.312-.38,0-.23,0-0.26,9.376-12.45a1.984,1.984,0,0,0,.448-1.22,1.9,1.9,0,0,0-1.888-1.82,1.535,1.535,0,0,0-1.312.7c-2.3,3.2-7.584,10.59-9.5,13.31a4.427,4.427,0,0,0-.9,2.47c0,1.41,1.088,2.46,3.232,2.46,0.32,0,3.616,0,6.72-.03,0,1.31-.032,2.62-0.032,3.74a1.657,1.657,0,0,0,1.76,1.7,1.573,1.573,0,0,0,1.7-1.63v-0.07C418.637,7516.95,418.573,7515.67,418.573,7514.62Z" transform="translate(-363 -7439)"/>
  <path id="生徒の考えを共有して双方向型授業に活用_のコピー" data-name="生徒の考えを共有して双方向型授業に活用 のコピー" class="cls-4" d="M528.691,7501.9a1.272,1.272,0,0,0,1.35-1.35,1.312,1.312,0,0,0-1.35-1.38l-10.019.03v-5.4l6.059,0.03a1.339,1.339,0,1,0,0-2.67l-6.059.03v-4.59l8.1,0.03a1.339,1.339,0,1,0,0-2.67l-8.1.03v-5.34a1.548,1.548,0,1,0-3.09,0v5.34l-3.99-.03q0.675-1.485,1.26-3.06a1.33,1.33,0,0,0,.09-0.45,1.553,1.553,0,0,0-1.68-1.38,1.36,1.36,0,0,0-1.38,1.02,26.9,26.9,0,0,1-5.34,9.81,1.531,1.531,0,0,0-.39.96,1.4,1.4,0,0,0,1.44,1.35,1.7,1.7,0,0,0,1.32-.69,35.161,35.161,0,0,0,3.33-4.89l5.34-.03v4.59l-5.64-.03a1.363,1.363,0,0,0-1.41,1.38,1.278,1.278,0,0,0,1.41,1.29l5.64-.03v5.4l-10.23-.03a1.394,1.394,0,0,0-1.41,1.44,1.278,1.278,0,0,0,1.41,1.29h23.339Zm29.193-7.35a1.26,1.26,0,1,0,0-2.52h-4.919v-3.63h6.419a1.215,1.215,0,0,0,0-2.43l-6.449.03v-3.09h4.829a1.26,1.26,0,0,0,0-2.52h-4.829v-2.43a1.314,1.314,0,0,0-1.41-1.32,1.33,1.33,0,0,0-1.41,1.32v2.43h-4.41a1.261,1.261,0,1,0,0,2.52h4.41l0.03,3.09-5.79-.03a1.217,1.217,0,1,0,0,2.43h5.82l-0.03,10.35a6.83,6.83,0,0,1-2.82-4.32,21.906,21.906,0,0,0,.45-2.94,1.364,1.364,0,0,0-1.47-1.32,1.268,1.268,0,0,0-1.38,1.23,16.239,16.239,0,0,1-3.15,9.18,1.433,1.433,0,0,0-.36.87,1.493,1.493,0,0,0,1.56,1.32,1.586,1.586,0,0,0,1.29-.63,15.258,15.258,0,0,0,2.13-4.32c1.29,3.09,3.78,4.77,9.149,4.77a33.8,33.8,0,0,0,4.05-.24,1.41,1.41,0,0,0,1.35-1.44,1.2,1.2,0,0,0-1.2-1.29h-0.09c-1.53.09-3.06,0.24-4.47,0.24a17.2,17.2,0,0,1-2.219-.15v-5.16h4.919Zm-15.059-15.75a1.608,1.608,0,0,0,.3-0.9,1.518,1.518,0,0,0-1.5-1.47,1.4,1.4,0,0,0-1.2.75,16.474,16.474,0,0,1-5.76,5.82,1.693,1.693,0,0,0-.99,1.41,1.441,1.441,0,0,0,1.5,1.35C536.945,7485.76,540.935,7481.53,542.825,7478.8Zm-5.28,23.01v0.06a1.281,1.281,0,0,0,1.38,1.29,1.4,1.4,0,0,0,1.5-1.35l0.36-13.71c2.94-3.3,3-3.99,3-4.26a1.654,1.654,0,0,0-1.59-1.53,1.289,1.289,0,0,0-1.11.69,20.924,20.924,0,0,1-6.99,7.2,1.36,1.36,0,0,0-.72,1.2,1.491,1.491,0,0,0,1.44,1.5c0.54,0,1.14-.3,3.09-1.98Zm40.683-17.64a7.781,7.781,0,0,1,3.72,1.2c2.969,1.89,3.779,5.82,1.65,9.18-0.99,1.56-3.3,2.85-5.58,3.36-2.58.6-1.65,3.63,0.99,2.94a12.539,12.539,0,0,0,7.319-4.95c2.61-4.29,1.86-9.81-2.789-12.6-3.78-2.28-9.27-1.86-12.96.69-4.02,2.79-6.03,8.37-4.14,12.09,1.32,2.58,3.84,3.75,6.15,1.62,2.88-2.67,5.58-8.34,6.06-12.15A1.5,1.5,0,0,0,578.228,7484.17Zm-2.37.15a2.122,2.122,0,0,0-.27.93c-0.3,3.24-2.4,8.01-4.65,9.99-0.75.66-1.53,0.21-1.98-.66-1.26-2.31.24-6.3,3.03-8.46A9.941,9.941,0,0,1,575.858,7484.32Zm42.233,2.64a1.187,1.187,0,0,0,1.26-1.23,1.212,1.212,0,0,0-1.29-1.23h-4.709a34.8,34.8,0,0,0,4.379-4.56,1.022,1.022,0,0,0,.24-0.69,1.655,1.655,0,0,0-1.59-1.53,1.167,1.167,0,0,0-.99.54,33.68,33.68,0,0,1-5.939,6.27h-2.61v-2.49l3.99,0.03a1.221,1.221,0,0,0,1.32-1.23,1.205,1.205,0,0,0-1.32-1.23l-3.96.03v-1.98a1.311,1.311,0,0,0-1.44-1.26,1.268,1.268,0,0,0-1.41,1.26v1.98l-5.52-.03a1.222,1.222,0,0,0-1.32,1.23,1.238,1.238,0,0,0,1.32,1.23l5.52-.03v2.49l-8.19-.03a1.238,1.238,0,0,0-1.32,1.23,1.2,1.2,0,0,0,1.29,1.23h0.03l10.35-.09a37.148,37.148,0,0,1-11.55,4.71,1.435,1.435,0,0,0-1.23,1.35,1.3,1.3,0,0,0,1.38,1.29,32.881,32.881,0,0,0,7.83-2.76,37.843,37.843,0,0,1-1.47,4.5,1.087,1.087,0,0,0,1.2,1.56c0.84,0,1.29-.3,1.71-1.68,1.26-.03,2.61-0.03,3.93-0.03,1.29,0,2.52,0,3.48.03,0.69,0,.96.21,0.96,0.69,0,0.81-.66,3.69-4.83,3.69a11.807,11.807,0,0,1-3.54-.6,2.039,2.039,0,0,0-.57-0.09,1.32,1.32,0,0,0-.36,2.58,15.491,15.491,0,0,0,4.41.69c6.12,0,7.769-4.47,7.769-6.75,0-1.59-.93-2.46-2.849-2.49-0.78-.03-1.59-0.03-2.43-0.03-1.83,0-3.75.03-5.31,0.06,0.12-.39.24-0.81,0.36-1.2a72.016,72.016,0,0,0,9.689-1.44,1.365,1.365,0,0,0,1.17-1.26,1.287,1.287,0,0,0-1.32-1.29,2.353,2.353,0,0,0-.42.06,58.675,58.675,0,0,1-8.519,1.56l0.06-.15a43.933,43.933,0,0,0,4.65-3l7.679,0.09h0.03Zm17.845-4.35c2.07,0.72,3.51-1.98,1.32-2.73a18.231,18.231,0,0,1-3.75-1.8c-1.77-1.11-3.57.84-2.04,2.07A19.138,19.138,0,0,0,635.936,7482.61Zm-4.65,12.9c1.5-1.5,6.03-5.67,7.44-7.17,1.56-1.62-.27-3.87-2.76-3.54a10.724,10.724,0,0,0-2.34.78,31.611,31.611,0,0,1-5.28,1.41c-2.07.3-1.65,3.42,0.9,2.85a29.931,29.931,0,0,0,6.18-2.37c0.27-.12.48-0.18,0.15,0.21-1.5,1.74-3.45,3.75-4.83,5.1-0.96.93-1.8,1.86-2.85,2.79a48.265,48.265,0,0,0-3.6,3.78c-1.32,1.5.03,2.49,1.02,2.43,0.6-.03,1.47-0.18,2.52-1.86,1.95-3.12,4.17-2.88,4.83-1.26a4.576,4.576,0,0,0,3.93,3.09,15.918,15.918,0,0,0,6.809-.72c2.4-.9,1.32-3.99-0.96-2.97a14.984,14.984,0,0,1-4.739.96c-1.44.06-2.16-.87-2.67-1.98A2.837,2.837,0,0,0,631.286,7495.51Zm29.049-14.91a5.672,5.672,0,0,0,.24-1.74c-0.06-1.47-2.88-1.65-3,.15a12.515,12.515,0,0,1-.33,2.52c-0.15.03-.33,0.03-0.45,0.06-1.05.18-2.25,0.33-2.82-.06-2.1-1.41-3.57,1.41-1.41,2.49a6.059,6.059,0,0,0,3.72.33,25.01,25.01,0,0,1-1.41,2.67,14.974,14.974,0,0,1-2.43,2.82c-1.8,1.62.39,3.33,2.04,1.86a6.57,6.57,0,0,0,.69-0.78l0.12-.12c1.95-2.25,4.26-2.55,5.07-.03-0.57.33-1.05,0.66-1.47,0.93-5.43,3.57-6.15,7.62-2.1,9.9,2.34,1.32,6.42.87,8.19,0.42,2.759-.72,1.92-3.96-0.72-3.15-1.41.45-4.35,1.05-5.94,0.24-1.68-.84-2.13-2.64,1.59-5.04,0.24-.15.51-0.3,0.78-0.45,0,0.63-.03,1.32-0.06,1.95a1.376,1.376,0,0,0,1.35,1.71,1.774,1.774,0,0,0,1.59-1.86,23.97,23.97,0,0,0-.06-3.3c1.2-.57,2.55-1.17,3.809-1.65,1.59-.6,2.28-0.75,3.24-1.23a1.6,1.6,0,1,0-1.68-2.7,23.13,23.13,0,0,1-2.339,1.11c-1.17.51-2.43,1.14-3.66,1.77a4.372,4.372,0,0,0-5.04-2.61,30.609,30.609,0,0,0,1.44-3.03,16.872,16.872,0,0,0,3.3-.99c2.22-1.11.6-3.6-1.05-2.61a10.552,10.552,0,0,1-1.26.54Zm39.974,13.68a1.307,1.307,0,0,0,0-2.61l-6.059.03v-5.76l4.559,0.03a1.323,1.323,0,0,0,0-2.64l-4.559.03v-4.83a1.5,1.5,0,0,0-2.97,0v4.83h-5.46v-4.83a1.5,1.5,0,0,0-2.97,0v4.83l-4.29-.03a1.32,1.32,0,1,0,0,2.64l4.29-.03v5.76l-5.79-.03a1.306,1.306,0,1,0,0,2.61h23.249Zm0.96,6.93a1.608,1.608,0,0,0-1.35-1.53,18.674,18.674,0,0,1-7.079-3.78,1.543,1.543,0,0,0-.99-0.39,1.572,1.572,0,0,0-1.53,1.5,1.412,1.412,0,0,0,.54,1.11c2.76,2.43,7.559,4.71,8.7,4.71A1.673,1.673,0,0,0,701.269,7501.21Zm-15.029-3a1.461,1.461,0,0,0,.51-1.08,1.636,1.636,0,0,0-1.56-1.59,1.439,1.439,0,0,0-.99.42,17.258,17.258,0,0,1-6.9,3.96,1.637,1.637,0,0,0-1.38,1.5,1.585,1.585,0,0,0,1.65,1.53C679.43,7502.95,684.53,7499.71,686.24,7498.21Zm5.04-6.51h-5.46v-5.76h5.46v5.76Zm36.881,4.17c-0.03-1.23,0-6.51-.06-7.89s-1.14-2.46-3.569-2.55c-0.87-.03-1.83-0.06-2.85-0.06-1.56,0-3.21.03-4.62,0.06,0.45-.81.9-1.62,1.32-2.46H730.5a1.345,1.345,0,0,0,1.41-1.38,1.316,1.316,0,0,0-1.41-1.32H719.582a8.8,8.8,0,0,0,.9-2.61,1.564,1.564,0,0,0-1.65-1.35,1.36,1.36,0,0,0-1.38,1.02,28.492,28.492,0,0,1-1.02,2.94h-8.1a1.331,1.331,0,0,0-1.44,1.35,1.348,1.348,0,0,0,1.44,1.35h6.87a26.1,26.1,0,0,1-7.83,9.39,1.513,1.513,0,0,0-.72,1.23,1.464,1.464,0,0,0,1.5,1.38c1.41,0,4.23-3.06,5.13-4.11-0.12,4.35-.21,10.38-0.21,11.28a1.328,1.328,0,0,0,1.41,1.38,1.376,1.376,0,0,0,1.44-1.41v-5.19h9.51c0,2.28,0,3.33-2.28,3.33a11.732,11.732,0,0,1-2.01-.21,1.231,1.231,0,0,0-.33-0.03,1.324,1.324,0,0,0-1.32,1.38c0,1.14.78,1.65,3.36,1.65,4.049,0,5.369-2.22,5.369-4.05v-0.06Zm-12.149-5.7c0-.51.03-0.93,0.03-1.29,0.06-1.14.78-1.14,5.04-1.14,3.33,0,4.26,0,4.32,1.14,0,0.3.03,0.72,0.03,1.29h-9.42Zm9.45,4.53h-9.51v-2.31h9.51v2.31Zm30.263,3.54a1.668,1.668,0,1,0-2.07-2.61c-5.219,4.11-10.559,4.41-10.739.03a83.2,83.2,0,0,1,.54-8.82c0.15-2.01.36-4.86,0.42-6.75,0.06-1.98-3.33-2.16-3.27.06,0.06,1.86-.15,4.8-0.24,6.75-0.15,3.18-.48,5.73-0.36,8.88C740.276,7503.88,749.876,7503.01,755.725,7498.24Zm21.187,3.39c3.179,0.03,3-3.51-.15-3.39-6.72.24-8.73-6.06-6.09-10.47a8.646,8.646,0,0,1,3.84-3.51,12.888,12.888,0,0,1,4.469-.84c2.1,0.12,2.76-.48,2.94-0.99a1.769,1.769,0,0,0-2.04-2.31,40.4,40.4,0,0,0-8.189,1.77c-3.06.87-5.67,1.47-7.14,1.83-0.96.24-2.7,0.57-3.33,0.72-2.4.51-1.62,3.96,1.02,3.24,0.9-.24,1.74-0.54,2.7-0.9,2.04-.78,1.53-0.78,3.78-1.5,0.57-.18.72-0.21,0.24,0.42a10.367,10.367,0,0,0-.96,1.56C764.732,7493.29,767.852,7501.6,776.912,7501.63Zm28.65-5.1c2.549,3.81,5.519,5.73,6.6,5.73a1.721,1.721,0,0,0,1.68-1.71,1.412,1.412,0,0,0-.87-1.32,14.89,14.89,0,0,1-5.609-5.01c3.779-5.31,4.949-10.86,4.949-12.48,0-1.98-1.32-3-3.39-3.03-0.87,0-1.889-.03-2.969-0.03-1.56,0-3.24.03-4.92,0.06a1.393,1.393,0,0,0-1.44,1.41,1.259,1.259,0,0,0,1.35,1.29H801c1.47-.06,3-0.06,4.41-0.06,1.11,0,2.159,0,3,.03a0.75,0.75,0,0,1,.81.81,22.7,22.7,0,0,1-3.359,9.33,29.928,29.928,0,0,1-2.31-8.43,1.118,1.118,0,0,0-1.2-.96,1.419,1.419,0,0,0-1.5,1.38,30.537,30.537,0,0,0,3.21,10.5,19.261,19.261,0,0,1-7.74,5.64,1.437,1.437,0,0,0-1.08,1.35,1.6,1.6,0,0,0,1.65,1.5C797.882,7502.53,801.932,7500.67,805.562,7496.53Zm-16.32-15.03c1.5-.03,5.73-0.18,5.73-0.18h0.12a0.586,0.586,0,0,1,.72.66,31.731,31.731,0,0,1-1.05,5.76c-3.18-2.22-3.72-2.25-3.99-2.25a1.41,1.41,0,0,0-1.35,1.38,1.289,1.289,0,0,0,.69,1.11,33.222,33.222,0,0,1,3.75,2.55,18.851,18.851,0,0,1-6.21,8.91,1.618,1.618,0,0,0-.75,1.32,1.505,1.505,0,0,0,1.53,1.47,2,2,0,0,0,1.23-.48,23.034,23.034,0,0,0,6.33-9.3,12.172,12.172,0,0,1,1.53,1.8,1.369,1.369,0,0,0,1.14.66,1.647,1.647,0,0,0,1.59-1.62c0-.63-0.36-1.41-3.21-3.81a41.835,41.835,0,0,0,1.8-8.28c0-2.43-2.28-2.52-3.21-2.52-1.47,0-5.25.06-6.36,0.12a1.352,1.352,0,0,0-1.38,1.38,1.274,1.274,0,0,0,1.32,1.32h0.03Zm53.717,2.16a1.3,1.3,0,0,0,1.35-1.38,1.336,1.336,0,0,0-1.35-1.41H833.39v-2.91a1.576,1.576,0,0,0-3.12,0v2.91h-9.72a1.419,1.419,0,0,0-1.41,1.47,1.274,1.274,0,0,0,1.38,1.32h0.03l9.21-.06c-0.45,6.6-3.54,13.08-10.41,16.32a1.517,1.517,0,0,0-.99,1.35,1.609,1.609,0,0,0,1.65,1.56,1.945,1.945,0,0,0,.87-0.21,21.382,21.382,0,0,0,10.8-13.17h4.74a1.008,1.008,0,0,1,1.11,1.11c0,8.67-3.39,9.3-4.86,9.3a8.218,8.218,0,0,1-2.97-.66,1.391,1.391,0,0,0-.57-0.12,1.514,1.514,0,0,0-1.38,1.62,1.3,1.3,0,0,0,.9,1.29,13.442,13.442,0,0,0,4.05.72c4.86,0,7.589-3.39,7.829-12.48v-0.15a2.922,2.922,0,0,0-3.119-3.15c-1.62,0-3.42,0-5.07.03a31.233,31.233,0,0,0,.48-3.36Zm30.33,10.83c-0.06-3.39-.06-6.69-0.12-10.08a3.6,3.6,0,0,0-3.66-3.51c-2.7-.06-5.459-0.09-8.159-0.09a12.946,12.946,0,0,0,1.11-3.21,1.577,1.577,0,0,0-1.77-1.32,1.344,1.344,0,0,0-1.5.96,27.87,27.87,0,0,1-.93,3.6c-1.47,0-2.94.03-4.35,0.06-2.25.03-3.72,1.35-3.75,3.27-0.12,5.91-.12,12.12-0.18,17.7v0.03a1.5,1.5,0,0,0,2.97-.03v-8.16c0-2.7.03-5.43,0.09-8.16,0.03-1.53.51-2.01,2.22-2.04,2.04-.03,4.14-0.06,6.3-0.06,2.13,0,4.32.03,6.51,0.06,1.469,0.03,2.069.33,2.129,2.04,0.03,0.54.09,2.55,0.09,12.66,0,1.35-1.05,1.74-2.369,1.74a11.4,11.4,0,0,1-1.98-.21,1.711,1.711,0,0,0-.39-0.03,1.309,1.309,0,0,0-1.38,1.32c0,1.5,1.71,1.74,3.6,1.74,4.109,0,5.579-2.22,5.579-3.99v-0.06Zm-17.189-.54a2.694,2.694,0,0,0,2.49,2.79c0.84,0.03,1.83.06,2.82,0.06s2.01-.03,2.85-0.06a2.87,2.87,0,0,0,2.79-2.82c0.03-.69.06-1.59,0.06-2.52,0-.9-0.03-1.83-0.06-2.58a2.719,2.719,0,0,0-2.7-2.4c-0.96-.03-2.13-0.06-3.27-0.06-0.93,0-1.83.03-2.55,0.06a2.523,2.523,0,0,0-2.43,2.58c0,0.75-.03,1.68-0.03,2.58C856.07,7492.45,856.1,7493.32,856.1,7493.95Zm8.28-.6c-0.03.84-.69,0.96-2.7,0.96-2.61,0-2.97-.09-3-0.93-0.03-.48-0.03-1.29-0.03-2.07,0-1.83.03-2.49,0.99-2.55,0.54-.03,1.35-0.03,2.13-0.03,1.77,0,2.55,0,2.61.99,0.03,0.51.03,1.38,0.03,2.16C864.41,7492.48,864.41,7493.02,864.38,7493.35Zm39.041-7.02v-8.19a1.273,1.273,0,0,0-1.35-1.29,1.257,1.257,0,0,0-1.35,1.29v1.8c0,3-.03,8.07-0.03,9.3-0.03,1.2-.57,1.5-1.26,1.5a5.792,5.792,0,0,1-1.379-.24,1.756,1.756,0,0,0-.39-0.06,1.353,1.353,0,0,0-1.29,1.44c0,1.14,1.11,1.59,3.059,1.59,3.03,0,4.05-1.95,4.05-3.69v-0.06Zm-8.4,2.1a1.326,1.326,0,0,0,2.64,0v-8.82a1.275,1.275,0,0,0-1.35-1.29,1.241,1.241,0,0,0-1.29,1.29v8.82Zm7.889,13.89a1.179,1.179,0,0,0,1.32-1.17,1.286,1.286,0,0,0-1.32-1.29l-9.659.03v-2.73l6.9,0.03a1.208,1.208,0,1,0,0-2.4l-6.9.03v-1.86a1.376,1.376,0,0,0-1.44-1.41,1.572,1.572,0,0,0-1.08.42l-0.03-5.55h2.43a1.164,1.164,0,0,0,1.17-1.23,1.148,1.148,0,0,0-1.17-1.23H893.1l-2.4.03-0.03-3.42h1.59a1.148,1.148,0,0,0,1.17-1.23,1.17,1.17,0,0,0-1.2-1.23h-11.07a1.253,1.253,0,0,0-1.35,1.26,1.217,1.217,0,0,0,1.32,1.2h1.65c0.03,0.45.03,0.87,0.03,1.32,0,0.42,0,.87-0.03,1.35l-0.03.75-2.52-.03H880.2a1.238,1.238,0,0,0-1.32,1.23,1.205,1.205,0,0,0,1.32,1.23h2.4c-0.27,2.04-.96,3.42-3.06,5.25a1.291,1.291,0,0,0-.51.99,1.235,1.235,0,0,0,1.32,1.2c1.38,0,4.14-2.64,4.83-7.47h2.91l-0.03,5.85a1.184,1.184,0,0,0,1.32,1.14,1.526,1.526,0,0,0,.96-0.3v1.74l-7.14-.03a1.208,1.208,0,1,0,0,2.4l7.17-.03v2.73l-9.84-.03a1.285,1.285,0,0,0-1.41,1.23,1.269,1.269,0,0,0,1.41,1.23h22.379Zm-14.819-18.33h-2.7v-0.66c0-.81.03-1.77,0.03-2.79h2.67v3.45Zm45.233-5.34a1.421,1.421,0,0,0-1.44-1.32,1.125,1.125,0,0,0-.3.03,48.346,48.346,0,0,1-9.179.87c-0.78,0-1.53-.03-2.25-0.06h-0.09a1.205,1.205,0,0,0-1.32,1.23c0,1.29,1.17,1.29,2.19,1.29a64.616,64.616,0,0,0,11.189-.87A1.243,1.243,0,0,0,933.325,7478.65Zm-5.759,4.95s-0.48-2.79-1.98-2.79a1.2,1.2,0,0,0-1.32.96,0.82,0.82,0,0,0,.12.42,5.356,5.356,0,0,1,.75,1.89,0.958,0.958,0,0,0,.99.81A1.392,1.392,0,0,0,927.566,7483.6Zm4.949,6.78a1.2,1.2,0,0,0,1.32,1.14,1.334,1.334,0,0,0,1.44-1.2c0.03-.36.03-0.78,0.03-1.23,0-.42,0-0.87-0.03-1.26a2.941,2.941,0,0,0-3.03-2.76c-0.33,0-.72-0.03-1.14-0.03a13.017,13.017,0,0,0,1.86-3.51,1.469,1.469,0,0,0-1.56-1.17,1.012,1.012,0,0,0-1.05.66,17.077,17.077,0,0,1-1.979,3.99c-1.92,0-3.99,0-5.64.03a1.417,1.417,0,0,0,.72-1.17c0-.84-1.29-2.64-2.25-2.64a1.326,1.326,0,0,0-1.38,1.11,0.928,0.928,0,0,0,.24.63,4.362,4.362,0,0,1,1.05,1.62,1.193,1.193,0,0,0,.36.48h-0.66c-2.01.06-3,1.05-3.03,2.55v0.84a1.089,1.089,0,0,0-.93-0.63,3.346,3.346,0,0,0-.96.42v-3.09h1.62a1.32,1.32,0,1,0,0-2.64H915.9v-4.68a1.328,1.328,0,0,0-1.38-1.41,1.376,1.376,0,0,0-1.44,1.41l0.03,4.68h-2.52a1.32,1.32,0,0,0,0,2.64h2.52v4.38c-1.02.39-2.1,0.78-3.33,1.2a1.228,1.228,0,0,0-.87,1.2,1.413,1.413,0,0,0,1.38,1.47,10.2,10.2,0,0,0,2.82-.99v6.57a1.017,1.017,0,0,1-1.23.99,4.663,4.663,0,0,1-.96-0.12,0.831,0.831,0,0,0-.27-0.03,1.262,1.262,0,0,0-1.17,1.38c0,1.17.81,1.62,2.7,1.62,2.58,0,3.81-1.47,3.81-3.36v-0.12c-0.03-1.05-.12-3.78-0.12-4.26,0-.45.03-1.98,0.03-3.99a7.476,7.476,0,0,0,1.89-1.35v0.66a1.2,1.2,0,0,0,1.29,1.2,1.181,1.181,0,0,0,1.29-1.17v-1.53c0.09-1.5.12-1.53,4.92-1.53,2.07,0,4.409.03,5.639,0.06,1.56,0.03,1.59.15,1.59,2.91v0.03Zm-10.8,1.35c1.65-.03,3.09-0.06,4.62-0.06h1.68c0.18,0,.63.03,0.63,0.36a8.841,8.841,0,0,1-2.28,3.63,14.743,14.743,0,0,1-2.07-2.76,1.2,1.2,0,0,0-1.08-.6,1.3,1.3,0,0,0-1.38,1.17c0,0.66,1.35,2.43,2.7,3.84a15.6,15.6,0,0,1-6.78,3.03,1.316,1.316,0,0,0-1.26,1.26,1.468,1.468,0,0,0,1.5,1.41,17.518,17.518,0,0,0,8.49-3.93c3.3,2.58,6.509,3.63,7.529,3.63a1.511,1.511,0,0,0,1.62-1.47,1.416,1.416,0,0,0-1.2-1.38,17.553,17.553,0,0,1-6.059-2.52c1.949-2.01,3.509-4.47,3.509-5.64,0-1.2-.9-2.31-2.909-2.34-1.32-.03-2.58-0.03-3.78-0.03-1.23,0-2.37,0-3.54.03a1.192,1.192,0,0,0,.03,2.37h0.03Zm43.061,3.57a1.029,1.029,0,0,0,1.08-1.11,1.059,1.059,0,0,0-1.11-1.14l-9.809.06,0.03-1.32,6.719,0.03a1.005,1.005,0,1,0,0-2.01l-6.689.03v-1.29l8.219,0.03a1.1,1.1,0,1,0,0-2.19l-5.219.03a6.011,6.011,0,0,0,.54-1.47,1.161,1.161,0,0,0-.75-0.99l7.229,0.03a1.186,1.186,0,0,0,1.23-1.26,1.155,1.155,0,0,0-1.2-1.23h-0.03l-4.08.06c1.44-1.83,1.44-2.43,1.44-2.52a1.517,1.517,0,0,0-1.56-1.35,1.314,1.314,0,0,0-1.259.9,17.5,17.5,0,0,1-1.5,3l-1.02.03,0.06-3.99v-0.03a1.236,1.236,0,0,0-1.32-1.23,1.251,1.251,0,0,0-1.35,1.26v3.99h-1.74v-3.99a1.266,1.266,0,0,0-1.35-1.26,1.218,1.218,0,0,0-1.32,1.23v0.03l0.03,3.99-1.05-.03a9.44,9.44,0,0,0-2.43-3.6,1.138,1.138,0,0,0-.69-0.18,1.478,1.478,0,0,0-1.5,1.2,0.972,0.972,0,0,0,.27.63,11.812,11.812,0,0,1,1.56,1.92l-3.93-.06h-0.03a1.179,1.179,0,0,0-1.23,1.23,1.21,1.21,0,0,0,1.26,1.26l6.87-.03a0.915,0.915,0,0,0-.75.78,0.678,0.678,0,0,0,.15.45,7.839,7.839,0,0,1,.6,1.23l-5.25-.03a1.1,1.1,0,1,0,0,2.19l8.28-.03v1.29l-6.75-.03a1.005,1.005,0,1,0,0,2.01l6.78-.03,0.03,1.32-9.81-.06a1.1,1.1,0,0,0-1.14,1.14,1.053,1.053,0,0,0,1.11,1.11h0.03l7.29-.15h0.99a29.949,29.949,0,0,1-9.33,4.83,1.351,1.351,0,0,0-1.05,1.2,1.45,1.45,0,0,0,1.53,1.35c0.96,0,6.66-2.58,10.38-5.58l-0.06,5.13v0.03a1.233,1.233,0,0,0,1.41,1.14,1.268,1.268,0,0,0,1.41-1.14v-0.03l-0.06-5.16c4.56,3.54,9.779,5.49,10.379,5.49a1.672,1.672,0,0,0,1.59-1.65,1.207,1.207,0,0,0-.93-1.17,34.412,34.412,0,0,1-9.689-4.44h0.9l7.559,0.15h0.03Zm-8.579-11.34a0.739,0.739,0,0,0-.3.51,8.715,8.715,0,0,1-.63,1.95h-3.3l-0.03-.09a3.457,3.457,0,0,0-1.53-2.37h5.79Zm34.37,2.28a1.468,1.468,0,1,0,.51-2.88,18.105,18.105,0,0,0-7.889.18,1.413,1.413,0,1,0,.42,2.79A15.193,15.193,0,0,1,990.568,7486.24Zm1.62,13.68c1.98-.51,1.83-3.69-0.6-3.18-2.339.48-5.939,0.96-7.559-.51a1.485,1.485,0,0,0-2.13,2.07C984.059,7500.64,988.979,7500.73,992.188,7499.92Zm-15.869,1.44c0.75-.66.39-1.59,0.57-2.4a15.126,15.126,0,0,1,1.77-4.2,1.2,1.2,0,0,0-2.1-1.17c-0.12.21-.45,0.81-0.51,0.96-0.12.27-.24,0.36-0.33-0.03-0.72-2.79,1.08-9.84,1.56-12.27,0.33-1.74-2.58-2.4-2.91-.18-0.54,3.57-2.91,12.45-.51,18.36C974.459,7501.9,975.569,7502.02,976.319,7501.36Zm47.491-13.44a1.331,1.331,0,1,0,0-2.64h-6.36v-3.93c4.71-.75,5.28-1.14,5.28-2.25a1.349,1.349,0,0,0-1.35-1.38,2.039,2.039,0,0,0-.57.09,37.733,37.733,0,0,1-11.22,1.62,1.236,1.236,0,0,0-1.23,1.32,1.32,1.32,0,0,0,1.38,1.38c0.42,0,3.12-.18,4.83-0.39v3.54h-6.18a1.325,1.325,0,1,0,0,2.64h6.18v3.78c-0.81,0-1.59.03-2.22,0.06-2.04.09-3.3,1.2-3.39,2.94-0.03.63-.06,1.32-0.06,2.04,0,0.84.03,1.71,0.06,2.58,0.12,3,2.58,3.15,7.14,3.15,1.35,0,2.7-.03,3.6-0.12,2.28-.18,3.45-1.35,3.54-3.12,0.03-.66.03-1.35,0.03-2.04,0-.87,0-1.77-0.06-2.61-0.09-1.68-1.68-2.76-3.51-2.82-0.66-.03-1.44-0.06-2.25-0.06v-3.78h6.36Zm-18.51-5.16a1.661,1.661,0,0,0,1.53-1.62c0-1.74-4.11-3.63-4.62-3.63a1.5,1.5,0,0,0-1.5,1.35,1.109,1.109,0,0,0,.57.93,12.5,12.5,0,0,1,3.03,2.46A1.291,1.291,0,0,0,1005.3,7482.76Zm-1.47,6.39a1.59,1.59,0,0,0,1.38-1.65,1.532,1.532,0,0,0-.63-1.26,10.96,10.96,0,0,0-4.41-1.77,1.479,1.479,0,0,0-1.438,1.44,1,1,0,0,0,.75.99,11.729,11.729,0,0,1,3.508,1.92A1.251,1.251,0,0,0,1003.83,7489.15Zm-1.02,12.45a26.012,26.012,0,0,0,4.08-8.16,1.441,1.441,0,0,0-1.5-1.38,1.262,1.262,0,0,0-1.2.81,27.114,27.114,0,0,1-4.02,7.14,1.449,1.449,0,0,0-.358.9,1.558,1.558,0,0,0,1.588,1.47A1.723,1.723,0,0,0,1002.81,7501.6Zm17.52-4.65c0,2.94,0,2.94-4.23,2.94-3.21,0-4.2,0-4.26-1.44-0.03-.54-0.03-1.2-0.03-1.83,0-1.77,0-2.4,1.38-2.49,0.69-.03,1.74-0.06,2.82-0.06,3.63,0,4.14,0,4.26,1.23C1020.3,7495.84,1020.33,7496.41,1020.33,7496.95Zm29.91,1.32c0,1.02-.45,1.65-1.98,1.65a9.758,9.758,0,0,1-1.89-.21,1.125,1.125,0,0,0-.3-0.03,1.283,1.283,0,0,0-1.29,1.38c0,1.53,1.53,1.77,3.51,1.77,3.63,0,4.89-1.92,4.89-4.02v-0.06l-0.06-4.11c-0.06-3.3,0-9.27-.09-13.68a3.467,3.467,0,0,0-3.57-3.33c-2.37-.06-4.5-0.09-6.6-0.09-2.4,0-4.77.03-7.35,0.09-2.73.06-3.9,1.17-3.9,3.66v0.09c0.03,1.65.09,3.63,0.09,5.76,0,4.86-.39,10.35-2.73,13.5a1.522,1.522,0,0,0-.3.87,1.471,1.471,0,0,0,1.53,1.38c2.4,0,3.72-5.37,4.11-9.33h6.33V7501a1.456,1.456,0,0,0,2.91,0v-7.44h6.69v4.71Zm-6.72-13.92v-4.23c1.62,0,3.24,0,4.86.06a1.608,1.608,0,0,1,1.74,1.74c0.03,0.72.03,1.56,0.06,2.43h-6.66Zm6.72,6.66h-6.69l-0.03-4.11h6.72v4.11Zm-9.57-6.66h-6.12v-2.7a1.3,1.3,0,0,1,1.44-1.47c1.59-.03,3.15-0.06,4.68-0.06v4.23Zm-0.03,6.66h-6.15c0.06-1.38.09-2.79,0.09-4.11h6.09Z" transform="translate(-363 -7439)"/>
</svg>
