<svg id="title_application_sample1_sp" xmlns="http://www.w3.org/2000/svg" width="570" height="140" viewBox="0 0 570 140">
  <metadata><?xpacket begin="﻿" id="W5M0MpCehiHzreSzNTczkc9d"?>
<x:xmpmeta xmlns:x="adobe:ns:meta/" x:xmptk="Adobe XMP Core 5.6-c142 79.160924, 2017/07/13-01:06:39        ">
   <rdf:RDF xmlns:rdf="http://www.w3.org/1999/02/22-rdf-syntax-ns#">
      <rdf:Description rdf:about=""/>
   </rdf:RDF>
</x:xmpmeta>
                                                                                                    
                                                                                                    
                                                                                                    
                                                                                                    
                                                                                                    
                                                                                                    
                                                                                                    
                                                                                                    
                                                                                                    
                                                                                                    
                                                                                                    
                                                                                                    
                                                                                                    
                                                                                                    
                                                                                                    
                                                                                                    
                                                                                                    
                                                                                                    
                                                                                                    
                                                                                                    
                           
<?xpacket end="w"?></metadata>
<defs>
    <style>
      .cls-1 {
        fill: #009055;
      }

      .cls-2, .cls-3 {
        fill: #fff;
      }

      .cls-3, .cls-4 {
        fill-rule: evenodd;
      }

      .cls-4 {
        fill: #333;
      }
    </style>
  </defs>
  <rect id="長方形_755" data-name="長方形 755" class="cls-1" width="140" height="140"/>
  <rect id="長方形_755-2" data-name="長方形 755" class="cls-2" x="140" width="430" height="140"/>
  <path id="活用例_のコピー" data-name="活用例 １ のコピー" class="cls-3" d="M139.874,4088.24a1.457,1.457,0,1,0,0-2.89h-6.963v-4.3c5.157-.82,5.781-1.25,5.781-2.47a1.48,1.48,0,0,0-1.478-1.51,2.455,2.455,0,0,0-.624.1,41.453,41.453,0,0,1-12.284,1.78,1.35,1.35,0,0,0-1.347,1.44,1.442,1.442,0,0,0,1.511,1.51c0.46,0,3.416-.2,5.288-0.43v3.88h-6.766a1.451,1.451,0,1,0,0,2.89h6.766v4.14c-0.887,0-1.741.03-2.431,0.06-2.233.1-3.613,1.32-3.711,3.22-0.033.69-.066,1.45-0.066,2.24,0,0.92.033,1.87,0.066,2.82,0.131,3.29,2.824,3.45,7.817,3.45,1.478,0,2.956-.03,3.941-0.13,2.5-.2,3.777-1.48,3.876-3.42,0.033-.72.033-1.47,0.033-2.23,0-.95,0-1.94-0.066-2.86-0.1-1.84-1.839-3.02-3.843-3.09-0.722-.03-1.576-0.06-2.463-0.06v-4.14h6.963Zm-20.265-5.65a1.814,1.814,0,0,0,1.675-1.77c0-1.91-4.5-3.98-5.058-3.98a1.652,1.652,0,0,0-1.643,1.48,1.216,1.216,0,0,0,.625,1.02,13.794,13.794,0,0,1,3.317,2.69A1.4,1.4,0,0,0,119.609,4082.59Zm-1.61,7a1.744,1.744,0,0,0,1.511-1.81,1.68,1.68,0,0,0-.69-1.38,11.978,11.978,0,0,0-4.828-1.94,1.619,1.619,0,0,0-1.576,1.58,1.082,1.082,0,0,0,.821,1.08,12.959,12.959,0,0,1,3.843,2.11A1.38,1.38,0,0,0,118,4089.59Zm-1.116,13.63c2.5-3.25,4.467-8.21,4.467-8.94a1.577,1.577,0,0,0-1.643-1.51,1.391,1.391,0,0,0-1.314.89,29.742,29.742,0,0,1-4.4,7.82,1.568,1.568,0,0,0-.394.98,1.706,1.706,0,0,0,1.741,1.61A1.893,1.893,0,0,0,116.883,4103.22Zm19.181-5.09c0,3.22,0,3.22-4.631,3.22-3.515,0-4.6,0-4.664-1.58-0.033-.59-0.033-1.31-0.033-2,0-1.94,0-2.63,1.511-2.73,0.755-.03,1.9-0.07,3.087-0.07,3.975,0,4.533,0,4.664,1.35C136.031,4096.91,136.064,4097.54,136.064,4098.13Zm34.331,1.44c0,1.12-.493,1.81-2.168,1.81a11.028,11.028,0,0,1-2.069-.23,1.342,1.342,0,0,0-.328-0.03,1.4,1.4,0,0,0-1.413,1.51c0,1.67,1.675,1.93,3.843,1.93,3.974,0,5.354-2.1,5.354-4.4v-0.06l-0.066-4.5c-0.066-3.61,0-10.15-.1-14.98a3.787,3.787,0,0,0-3.909-3.64c-2.595-.07-4.927-0.1-7.226-0.1-2.627,0-5.222.03-8.047,0.1-2.989.06-4.27,1.28-4.27,4v0.1c0.033,1.81.1,3.97,0.1,6.31,0,5.32-.427,11.33-2.989,14.78a1.651,1.651,0,0,0-.328.95,1.612,1.612,0,0,0,1.675,1.51c2.627,0,4.072-5.88,4.5-10.21h6.931v8.14a1.594,1.594,0,0,0,3.186,0v-8.14H170.4v5.15Zm-7.357-15.24v-4.63c1.773,0,3.547,0,5.321.07a1.754,1.754,0,0,1,1.905,1.9c0.032,0.79.032,1.71,0.065,2.66h-7.291Zm7.357,7.29h-7.324l-0.033-4.5H170.4v4.5Zm-10.478-7.29h-6.7v-2.95a1.424,1.424,0,0,1,1.577-1.61c1.74-.04,3.448-0.07,5.123-0.07v4.63Zm-0.032,7.29h-6.734c0.066-1.51.1-3.05,0.1-4.5h6.667Zm49.505-13.82a1.544,1.544,0,0,0-1.61-1.58,1.5,1.5,0,0,0-1.576,1.51v0.07c0.1,3.08.1,7.55,0.1,11.66,0,5.48-.032,10.28-0.032,10.28,0,1.44-.624,1.84-1.511,1.84a8.439,8.439,0,0,1-1.708-.27,0.994,0.994,0,0,0-.3-0.03,1.359,1.359,0,0,0-1.248,1.51c0,1.28.821,1.81,3.285,1.81,3.35,0,4.7-1.97,4.7-4.01v-0.13c-0.032-1.15-.1-4.14-0.1-4.66v-18Zm-8.146,18.85a1.456,1.456,0,0,0,2.891,0v-16.92a1.446,1.446,0,0,0-2.891,0v16.92Zm-2.069-16.42a1.381,1.381,0,1,0,0-2.76h-7.686a1.38,1.38,0,1,0,0,2.76H192.8a29.176,29.176,0,0,1-4.2,11.49,1.433,1.433,0,0,0-.263.82,1.4,1.4,0,0,0,1.478,1.32,1.7,1.7,0,0,0,1.478-.96,33.66,33.66,0,0,0,2.891-6.73c0.854,0,1.97-.03,1.97-0.03a0.7,0.7,0,0,1,.723.72,36.574,36.574,0,0,1-.657,3.94,7.076,7.076,0,0,0-2.036-.75,1.748,1.748,0,0,0-1.577,1.74,1.168,1.168,0,0,0,.887,1.15,12.024,12.024,0,0,1,1.806.75,18.129,18.129,0,0,1-6.043,8.28,1.6,1.6,0,0,0-.755,1.31,1.529,1.529,0,0,0,1.543,1.48,1.98,1.98,0,0,0,1.281-.49c7.456-6.08,8.638-17.11,8.638-18.16a2.483,2.483,0,0,0-2.759-2.63c-0.1,0-1.149.03-2.3,0.03,0.263-1.08.493-2.2,0.657-3.28h3.613ZM184.3,4103.48a1.409,1.409,0,0,0,1.478,1.45,1.543,1.543,0,0,0,1.61-1.48l0.427-20.46a28.453,28.453,0,0,0,2.463-5.39,1.8,1.8,0,0,0-1.839-1.61,1.332,1.332,0,0,0-1.347.99,31.286,31.286,0,0,1-6.207,11,1.665,1.665,0,0,0-.427,1.05,1.463,1.463,0,0,0,1.51,1.41c0.887,0,1.084-.23,2.694-2.36l-0.362,15.37v0.03Zm-19.038,59.8v-0.11c-0.109-3.39-.109-6.84-0.109-10.24,0-7.83.164-15.17,0.164-19.55,0-1.2,0-2.19-.055-2.9-0.164-3.61-2.573-5.86-6.352-5.86-1.15,0-1.588,0-2.683.06a3.178,3.178,0,0,0-2.848,3.34,2.723,2.723,0,0,0,2.793,2.9h0.767c1.862,0,2.135.6,2.135,8.27,0,7.23-.219,18.89-0.219,23.98a3.049,3.049,0,0,0,3.231,3.02A2.951,2.951,0,0,0,165.258,4163.28Z" transform="translate(-91 -4052)"/>
  <path id="確認小テストを_効率的に実施_のコピー" data-name="確認小テストを 効率的に実施 のコピー" class="cls-4" d="M289.31,4110.6c-1.943.03-3.779,0.07-5.543,0.07v-2.95h3.96a1.216,1.216,0,1,0,0-2.42h-3.96v-2.66h3.96a1.211,1.211,0,1,0,0-2.41h-3.96v-2.56c1.62,0,3.348.04,5.147,0.04a1.282,1.282,0,0,0,1.3-1.37,1.234,1.234,0,0,0-1.224-1.33c-1.619-.04-3.167-0.04-4.679-0.04a8.557,8.557,0,0,0,.72-1.83c0-.76-0.936-1.26-1.8-1.26a1.2,1.2,0,0,0-1.26.75c-0.324,1.05-.576,1.73-0.828,2.34-0.972,0-1.907.04-2.843,0.04a37.524,37.524,0,0,0,3.023-5.83c1.44,0,2.916.03,4.1,0.03,1.26,0.04,1.836.26,1.872,1.37v1.77a1.448,1.448,0,0,0,1.583,1.4,1.549,1.549,0,0,0,1.692-1.44c0.036-.43.036-0.9,0.036-1.4,0-.47,0-0.98-0.036-1.44-0.072-2.02-1.908-2.95-3.671-2.99-1.548-.04-3.1-0.04-4.608-0.04a14.393,14.393,0,0,0,.612-2.55c0-.79-0.972-1.33-1.872-1.33a1.181,1.181,0,0,0-1.3,1,24.988,24.988,0,0,1-.648,2.88c-1.116,0-2.16.04-3.276,0.04-2.484.04-3.743,1.15-3.779,2.73,0,0.58-.036,1.16-0.036,1.7,0,0.5.036,1,.036,1.47a1.486,1.486,0,0,0,1.583,1.48,1.469,1.469,0,0,0,1.548-1.44v-1.84c0.072-1.22.576-1.29,1.98-1.37,0.324,0,.684-0.03,1.044-0.03a26.5,26.5,0,0,1-6.731,9.83,1.639,1.639,0,0,0-.612,1.18,1.448,1.448,0,0,0,1.511,1.37,2.117,2.117,0,0,0,1.332-.54c-0.072,2.38-.108,5.51-0.108,7.74,0,2.45.036,4.61,3.456,4.68,2.484,0.04,5,.07,7.523.07,1.584,0,3.168,0,4.751-.03a1.326,1.326,0,0,0,1.224-1.48,1.251,1.251,0,0,0-1.188-1.4H289.31Zm-18.861-22a1.512,1.512,0,1,0,0-3.02h-8.927a1.51,1.51,0,1,0,0,3.02h2.34a28.123,28.123,0,0,1-4.932,11.95,1.939,1.939,0,0,0-.36,1.08,1.55,1.55,0,0,0,1.512,1.55c0.972,0,1.44-.86,1.908-1.65-0.036,1.4-.072,2.84-0.072,4.24,0,4.36,1.8,4.43,4.283,4.43,1.656,0,4.428,0,4.572-3.38,0.072-1.55.072-3.17,0.072-4.83,0-1.62,0-3.27-.072-4.89a2.963,2.963,0,0,0-2.808-3.03c-0.648-.03-1.188-0.03-1.764-0.03h-0.72a48.011,48.011,0,0,0,1.4-5.44h3.564Zm10.186,11.63h-3.887c0-.5.036-0.97,0.036-1.33a1.027,1.027,0,0,1,1.044-1.19c0.9,0,1.836-.04,2.807-0.04v2.56Zm0,5.07h-3.959c0-.86.036-1.79,0.036-2.66h3.923v2.66Zm0,5.37c-3.347,0-3.959,0-3.959-1.37v-1.58h3.959v2.95Zm-12.886-4.54a1.262,1.262,0,0,1-1.4,1.12c-1.3,0-1.44-.58-1.476-1.08-0.036-1.15-.072-2.45-0.072-3.74,0-1.55.036-3.14,0.072-4.5,0-1.08.9-1.08,1.44-1.08,0.972,0,1.44.18,1.44,1.04,0.036,1.48.036,3.17,0.036,4.79C267.785,4103.9,267.785,4105.05,267.749,4106.13Zm55.125-18.93a0.928,0.928,0,0,1,.971,1.15,19.879,19.879,0,0,1-.9,5.9,2.682,2.682,0,0,1-2.628,1.84,5.554,5.554,0,0,1-1.764-.32,2.409,2.409,0,0,0-.72-0.11,1.376,1.376,0,0,0-1.44,1.44,1.7,1.7,0,0,0,1.368,1.69,11.334,11.334,0,0,0,2.808.4c3.491,0,6.587-1.91,6.587-11.13,0-2.91-1.836-3.6-3.6-3.63-0.684-.04-1.62-0.04-2.7-0.04-3.168,0-7.415.07-9.971,0.07a1.438,1.438,0,0,0-1.476,1.48,1.334,1.334,0,0,0,1.4,1.37h0.036c1.44-.04,3.312-0.04,5.147-0.07a17.145,17.145,0,0,1-.287,2.01,26.192,26.192,0,0,0-2.88-.65,1.471,1.471,0,0,0-1.548,1.44,1.2,1.2,0,0,0,1.008,1.19c0.792,0.22,1.656.43,2.484,0.72a9.531,9.531,0,0,1-5.472,4.86,1.45,1.45,0,0,0-1.008,1.37,1.556,1.556,0,0,0,1.512,1.58c0.612,0,5.148-1.55,7.667-6.69a10.968,10.968,0,0,1,1.224.72,1.41,1.41,0,0,0,.864.28,1.694,1.694,0,0,0,1.548-1.72c0-.9-0.648-1.37-2.556-2.13a18.672,18.672,0,0,0,.54-3.02h3.78Zm4.391,23.61a1.86,1.86,0,0,0,1.728-1.87c0-1.66-3.348-4.82-4.824-4.82a1.527,1.527,0,0,0-1.619,1.4,1.484,1.484,0,0,0,.612,1.12,9.384,9.384,0,0,1,2.663,3.16A1.6,1.6,0,0,0,327.265,4110.81Zm-21.093-24.51a1.44,1.44,0,1,0,0-2.88h-7.163a1.44,1.44,0,1,0,0,2.88h7.163Zm13.678,18.28a1.8,1.8,0,0,0,1.656-1.79c0-2.13-4.68-3.46-4.86-3.46a1.68,1.68,0,0,0-1.655,1.51,1.175,1.175,0,0,0,.72,1.05,8.891,8.891,0,0,1,3.167,2.19A1.238,1.238,0,0,0,319.85,4104.58Zm-12.886-13.35a1.457,1.457,0,0,0,1.547-1.48,1.434,1.434,0,0,0-1.547-1.47h-9.143a1.477,1.477,0,1,0,0,2.95h9.143Zm9.934,13.5a1.506,1.506,0,0,0-1.655-1.33,1.425,1.425,0,0,0-1.548,1.36c-0.036,1.59-.072,4.11-0.072,5.4,0,3.39,2.052,3.75,4.427,3.75,3.168,0,6.191-.29,6.191-4.18a1.7,1.7,0,0,0-1.8-1.83,1.38,1.38,0,0,0-1.44,1.47c0,1.05-.432,1.55-2.268,1.55-1.8,0-1.944-.4-1.944-2.3,0-1.26.072-2.78,0.108-3.86v-0.03Zm-10.654-8.82a1.44,1.44,0,1,0,0-2.88h-7.163a1.44,1.44,0,1,0,0,2.88h7.163Zm0,4.64a1.44,1.44,0,1,0,0-2.88h-7.163a1.44,1.44,0,1,0,0,2.88h7.163Zm1.044,10.98a1.553,1.553,0,0,0,1.619,1.37c2.556,0,3.744-6.3,3.744-6.37a1.49,1.49,0,0,0-1.584-1.37,1.319,1.319,0,0,0-1.332,1.12,9.436,9.436,0,0,1-2.051,4.17,0.768,0.768,0,0,0-.144.22,1.506,1.506,0,0,0,.036-0.4c0.036-.79.036-1.69,0.036-2.63s0-1.87-.036-2.7a2.858,2.858,0,0,0-2.88-2.55c-0.828-.04-1.692-0.07-2.628-0.07-0.72,0-1.512.03-2.3,0.07a2.681,2.681,0,0,0-2.628,2.73c0,0.8-.036,1.62-0.036,2.49s0.036,1.76.036,2.7a2.744,2.744,0,0,0,2.664,2.84c0.719,0.04,1.511.07,2.339,0.07C305.38,4113.22,306.6,4113.04,307.288,4111.53Zm-3.744-6.51a1,1,0,0,1,1.044.93c0.036,0.51.036,1.15,0.036,1.8,0,0.61,0,1.26-.036,1.77-0.036.68-.792,0.9-2.3,0.9-1.98,0-2.2-.36-2.232-0.87,0-.54-0.036-1.19-0.036-1.83,0-2.06.036-2.7,1.008-2.7h2.52Zm59.253-.83a2.106,2.106,0,0,0,2.052-2.09c0-2.01-4.608-7.16-7.235-9.29a2.207,2.207,0,0,0-1.368-.54,1.711,1.711,0,0,0-1.764,1.55,1.683,1.683,0,0,0,.612,1.23,29.9,29.9,0,0,1,5.9,7.88A1.973,1.973,0,0,0,362.8,4104.19Zm-11.806.14v-18.71a1.782,1.782,0,0,0-1.872-1.84,1.821,1.821,0,0,0-1.944,1.84v22.2c0,1.84-1.3,2.42-2.916,2.42a12.079,12.079,0,0,1-2.483-.33,2.454,2.454,0,0,0-.468-0.03,1.78,1.78,0,0,0-1.764,1.83c0,1.77,1.908,2.31,4.823,2.31,5,0,6.7-3.1,6.7-5.37v-0.07Zm-14.507.47c2.772-2.81,6.336-9.03,6.336-10.62a1.883,1.883,0,0,0-1.944-1.8,1.742,1.742,0,0,0-1.656,1.15,27.974,27.974,0,0,1-5.651,8.72,2.023,2.023,0,0,0-.72,1.47,1.927,1.927,0,0,0,1.98,1.84A2.325,2.325,0,0,0,336.484,4104.8Zm56.05-15.73a1.633,1.633,0,0,0-1.836-1.65c-4.715.1-9.5,0.25-14.038,0.21-2.556-.03-2.736,3.35-0.036,3.35,3.851,0,9.251-.15,14.218-0.22A1.645,1.645,0,0,0,392.534,4089.07Zm-5.9,8.89c3.167-.03,6.119,0,8.1.07a1.76,1.76,0,0,0,1.979-1.62,1.589,1.589,0,0,0-1.764-1.72c-5.867.03-17.2,0.1-22.317,0.18a1.827,1.827,0,0,0-2.051,1.76,1.646,1.646,0,0,0,1.871,1.62c2.52-.07,6.479-0.22,10.475-0.25a11.911,11.911,0,0,1-9.179,11.34c-2.52.68-1.944,4.53,1.584,3.31C382.455,4110.16,386.307,4104.48,386.631,4097.96Zm29.3,5.08a37.5,37.5,0,0,1,8.423,7.23c1.692,2.13,4.391-.68,2.951-2.7-1.655-2.3-6.227-5.32-9.214-7.12a58.8,58.8,0,0,0,3.995-6.12c1.4-2.45-.432-4.5-3.671-4.5-3.636,0-8.927.07-11.555,0.18-2.3.1-2.16,3.56,0,3.49,3.168-.07,8.135-0.25,10.4-0.22,0.792,0,.936.58,0.612,1.19-2.844,5.36-8.531,11.12-15.083,13.39-2.7.94-1.475,4.46,1.152,3.49A30.458,30.458,0,0,0,415.935,4103.04Zm28.123-4.54a22.355,22.355,0,0,1,7.019,2.92c2.052,1.51,4.1-1.62,2.232-3.21-1.944-1.65-6.623-2.8-8.639-3.13a4.434,4.434,0,0,0-.612-0.03c0.036-3.53.072-6.66,0.108-8.43,0.072-2.44-3.815-2.48-3.743-.03,0.144,5.18.036,19.29-.216,25.12-0.144,2.88,3.959,2.77,3.887-.14S444.022,4103.47,444.058,4098.5Zm31.99-10.98a6.739,6.739,0,0,0,.288-2.08c-0.072-1.77-3.456-1.98-3.6.18a14.938,14.938,0,0,1-.4,3.02c-0.18.03-.4,0.03-0.54,0.07-1.26.22-2.7,0.4-3.383-.07-2.52-1.69-4.284,1.69-1.692,2.99a7.3,7.3,0,0,0,4.463.39,29.916,29.916,0,0,1-1.692,3.21,17.9,17.9,0,0,1-2.915,3.38c-2.16,1.94.468,4,2.448,2.23a7.763,7.763,0,0,0,.827-0.93c0.036-.04.108-0.11,0.144-0.15,2.34-2.7,5.112-3.06,6.084-.03-0.684.39-1.26,0.79-1.764,1.11-6.515,4.28-7.379,9.14-2.52,11.88,2.808,1.58,7.7,1.04,9.827.5,3.312-.86,2.3-4.75-0.864-3.78-1.692.54-5.219,1.26-7.127,0.29-2.016-1.01-2.556-3.17,1.908-6.04,0.288-.18.612-0.36,0.936-0.54,0,0.75-.036,1.58-0.072,2.33a1.658,1.658,0,0,0,1.619,2.06,2.14,2.14,0,0,0,1.908-2.24,28.612,28.612,0,0,0-.072-3.95c1.44-.69,3.06-1.41,4.572-1.98a41.091,41.091,0,0,0,3.887-1.48c2.3-1.15.684-4.75-2.016-3.24a27.6,27.6,0,0,1-2.807,1.33c-1.4.61-2.916,1.37-4.392,2.13a5.246,5.246,0,0,0-6.047-3.14,36.021,36.021,0,0,0,1.728-3.63,20.786,20.786,0,0,0,3.959-1.19c2.664-1.33.72-4.32-1.26-3.13a12.55,12.55,0,0,1-1.511.65Zm-199.012,55.8c0.828,0,1.764-.04,2.7-0.04-0.216,6.77-1.908,13.54-8.135,17.75a1.682,1.682,0,0,0-.828,1.37,1.746,1.746,0,0,0,1.727,1.69,2.027,2.027,0,0,0,1.188-.4c6.767-4.61,9.107-12.85,9.4-20.44,2.736,0,3.42,0,3.456,1.4,0,0.79.036,1.62,0.036,2.48,0,11.81-2.556,12.75-4.1,12.75a7.228,7.228,0,0,1-1.944-.36,2.142,2.142,0,0,0-.647-0.11,1.616,1.616,0,0,0-1.584,1.69,1.72,1.72,0,0,0,1.152,1.66,10.222,10.222,0,0,0,3.131.54c6.695,0,7.343-8.97,7.343-15.88,0-1.08-.036-2.16-0.036-3.2a3.711,3.711,0,0,0-3.851-4c-0.936,0-1.944-.03-2.916-0.03l0.036-5.62a1.606,1.606,0,0,0-1.728-1.58,1.542,1.542,0,0,0-1.655,1.58v5.62c-0.936,0-1.836.03-2.736,0.03a1.491,1.491,0,0,0-1.512,1.59,1.424,1.424,0,0,0,1.476,1.51h0.036Zm-2.016-2.74a1.458,1.458,0,1,0,0-2.91H269.8v-3.39a1.608,1.608,0,0,0-1.764-1.51,1.588,1.588,0,0,0-1.764,1.51v3.39h-5.147a1.458,1.458,0,1,0,0,2.91H275.02Zm-1.116,6.66a1.688,1.688,0,0,0,1.62-1.65,1.831,1.831,0,0,0-.432-1.12c-0.756-.9-3.239-3.28-4.463-3.28a1.461,1.461,0,0,0-1.4,1.44,1.115,1.115,0,0,0,.468.9,17.223,17.223,0,0,1,3.131,3.1A1.319,1.319,0,0,0,273.9,4147.24Zm-12.6,1.41c2.052,0,5.651-4.58,5.651-5.98a1.538,1.538,0,0,0-1.548-1.44,1.352,1.352,0,0,0-1.26.83,10.146,10.146,0,0,1-3.347,3.63,1.889,1.889,0,0,0-1.044,1.55A1.468,1.468,0,0,0,261.306,4148.65Zm7.919,7.73a16.2,16.2,0,0,1,1.62,1.91,1.588,1.588,0,0,0,1.331.76,1.818,1.818,0,0,0,1.728-1.8c0-.76-0.432-1.62-3.059-3.82a23.467,23.467,0,0,0,1.907-5.18,1.7,1.7,0,0,0-1.763-1.66,1.473,1.473,0,0,0-1.476,1.19,24.307,24.307,0,0,1-1.224,3.67c-3.384-2.37-4.032-2.59-4.5-2.59a1.615,1.615,0,0,0-1.548,1.59,1.492,1.492,0,0,0,.792,1.26,38.44,38.44,0,0,1,3.851,2.59,19.668,19.668,0,0,1-6.731,6.66,1.37,1.37,0,0,0-.756,1.22,1.8,1.8,0,0,0,1.764,1.69C262.278,4163.87,266.057,4161.5,269.225,4156.38Zm54.728-12.92a1.678,1.678,0,0,0,.648-1.26,1.816,1.816,0,0,0-1.692-1.8,1.714,1.714,0,0,0-1.187.54,19.785,19.785,0,0,1-4.248,3.13,1.135,1.135,0,0,0-.684,1.05,1.533,1.533,0,0,0,1.512,1.47C319.094,4146.59,322.478,4144.72,323.953,4143.46Zm0.576,9.11a1.68,1.68,0,0,0,1.584-1.73,1.808,1.808,0,0,0-.792-1.47c-0.756-.58-3.6-2.16-4.967-2.16a1.6,1.6,0,0,0-1.656,1.44,1.312,1.312,0,0,0,.972,1.18,13.972,13.972,0,0,1,3.707,2.27A1.807,1.807,0,0,0,324.529,4152.57Zm-0.108-12.74a1.64,1.64,0,1,0,0-3.28l-11.194.07,0.036-2.41v-0.03a1.881,1.881,0,0,0-3.744,0v0.03l0.036,2.41-10.906-.07a1.644,1.644,0,1,0,0,3.28l10.546-.08a14.685,14.685,0,0,1-1.908,2.63l-0.252-.11a1.584,1.584,0,0,0-.863-0.25,1.467,1.467,0,0,0-1.44,1.44,1.233,1.233,0,0,0,.648,1.08,15.4,15.4,0,0,1,3.419,2.99,21.163,21.163,0,0,1-2.087,1.62,0.549,0.549,0,0,0-.216.29c-0.288,0-.612.03-0.9,0.03a1.31,1.31,0,0,0-1.368,1.3,1.366,1.366,0,0,0,1.44,1.37,80.9,80.9,0,0,0,10.438-1.37c0.36,1.01.648,1.69,1.44,1.69a1.718,1.718,0,0,0,1.656-1.62c0-.75-1.512-3.09-2.916-4.39a1.26,1.26,0,0,0-.792-0.29,1.444,1.444,0,0,0-1.511,1.15,1.066,1.066,0,0,0,.324.72,7.244,7.244,0,0,1,.5.58c-1.332.22-2.664,0.36-4.068,0.5,2.34-1.9,5.867-5.14,5.867-6.44a1.591,1.591,0,0,0-1.656-1.44,1.465,1.465,0,0,0-1.223.65,30.716,30.716,0,0,1-2.916,3.67,19.045,19.045,0,0,0-1.4-1.48c0.576-.54,2.772-2.73,2.772-3.74a1.061,1.061,0,0,0-.144-0.58Zm-21.237,6.12a1.7,1.7,0,0,0,1.548-1.7,1.712,1.712,0,0,0-.576-1.26c-0.576-.5-2.916-2.08-4.068-2.08a1.708,1.708,0,0,0-1.655,1.58,1.134,1.134,0,0,0,.683,1.01,15.051,15.051,0,0,1,3.06,2.01A1.558,1.558,0,0,0,303.184,4145.95Zm22.065,11.59a1.546,1.546,0,0,0,1.656-1.55,1.607,1.607,0,0,0-1.656-1.66l-12.166.04,0.036-.9v-0.04a1.631,1.631,0,0,0-1.764-1.54,1.575,1.575,0,0,0-1.728,1.54v0.04l0.036,0.9-12.022-.04a1.676,1.676,0,0,0-1.728,1.69,1.543,1.543,0,0,0,1.728,1.52l12.022-.04-0.036,5.62a1.772,1.772,0,0,0,3.492,0l-0.036-5.62Zm-19.581-8.5a1.389,1.389,0,0,0,.648-1.19,1.265,1.265,0,0,0-2.016-1.11,21.99,21.99,0,0,1-6.371,2.81,1.421,1.421,0,0,0-1.116,1.44,1.548,1.548,0,0,0,1.584,1.58C299.512,4152.57,302.644,4151.09,305.668,4149.04Zm47.839,4.25a1.93,1.93,0,0,0,1.835-1.91c0-2.16-5.183-4.86-6.407-4.86a1.646,1.646,0,0,0-1.692,1.59,1.446,1.446,0,0,0,.9,1.29,12.668,12.668,0,0,1,4.1,3.24A1.517,1.517,0,0,0,353.507,4153.29Zm-8.675-9.43c0-.72,0-1.44-0.036-2.09-0.036-1.12-.648-2.99-4.356-2.99a22.557,22.557,0,0,0,1.368-4.17,1.839,1.839,0,0,0-1.944-1.62,1.556,1.556,0,0,0-1.619,1.4,31.077,31.077,0,0,1-1.044,4.43h-0.468c-2.124.11-3.312,1.29-3.348,3.09-0.036,1.66-.036,3.86-0.036,6.16,0,3.17,0,6.51.036,9a3.262,3.262,0,0,0,3.1,3.31c0.792,0.07,1.62.11,2.447,0.11,2.7,0,5.8-.15,5.868-3.39,0.036-2.16.072-5.03,0.072-7.95v-3.17a1.838,1.838,0,0,0,1.224.47c0.935,0,1.871-.68,3.815-4.61h7.163c1.728,0,1.8,1.19,1.8,5.83,0,11.63-3.2,12.85-5.579,12.85a11.719,11.719,0,0,1-2.736-.39,3.171,3.171,0,0,0-.576-0.07,1.58,1.58,0,0,0-1.62,1.69,1.891,1.891,0,0,0,1.44,1.87,15.727,15.727,0,0,0,3.492.47c7.559,0,9.106-7.56,9.106-16.38,0-1.84-.071-3.53-0.143-4.79-0.252-4.21-3.78-4.25-5.58-4.25-1.62,0-3.743.04-5.327,0.08a22.037,22.037,0,0,0,1.44-4.43,1.731,1.731,0,0,0-1.836-1.62,1.541,1.541,0,0,0-1.584,1.26A27.743,27.743,0,0,1,344.832,4143.86Zm-8.279,3.85c0-1.94,0-3.78.036-5.04a1.01,1.01,0,0,1,1.008-1.01c0.4-.03.935-0.03,1.475-0.03s1.08,0,1.476.03c1.044,0,1.044.47,1.044,6.05h-5.039Zm5.075,2.84c0,2.13-.072,4.18-0.144,5.8-0.072,1.11-.972,1.11-2.52,1.11-1.943,0-2.375-.28-2.375-1.08-0.036-1.51-.036-3.63-0.036-5.83h5.075Zm50.452-6.26c2.448,0.54,3.132-2.84.612-3.46a21.793,21.793,0,0,0-9.467.22,1.7,1.7,0,1,0,.5,3.35A18.179,18.179,0,0,1,392.08,4144.29Zm1.944,16.41c2.376-.61,2.2-4.42-0.72-3.81-2.808.57-7.127,1.15-9.071-.61a1.781,1.781,0,0,0-2.556,2.48C384.269,4161.57,390.172,4161.68,394.024,4160.7Zm-19.042,1.73c0.9-.79.468-1.91,0.684-2.88a18.2,18.2,0,0,1,2.124-5.04,1.442,1.442,0,0,0-2.52-1.4c-0.144.25-.54,0.97-0.612,1.15-0.144.32-.288,0.43-0.4-0.04-0.864-3.34,1.3-11.8,1.872-14.72,0.4-2.08-3.1-2.88-3.491-.21-0.648,4.28-3.492,14.93-.612,22.03C372.751,4163.08,374.082,4163.22,374.982,4162.43Zm43.969-28.58a1.877,1.877,0,0,0-3.743,0v2.56c-2.772,0-5.543.03-8.279,0.07-2.772.04-4.067,1.76-4.139,3.45,0,0.58-.036,1.16-0.036,1.73,0,0.54.036,1.08,0.036,1.55a1.608,1.608,0,0,0,1.727,1.62,1.632,1.632,0,0,0,1.764-1.55v-2.05c0.108-1.33.4-1.84,2.376-1.87,2.2-.04,4.751-0.07,7.379-0.07,3.2,0,6.515.03,9.359,0.07,2.231,0.07,2.267.39,2.267,3.78v0.07a1.57,1.57,0,0,0,1.728,1.51c1.908,0,1.908-1.51,1.908-2.81,0-.61,0-1.26-0.036-1.8a4.028,4.028,0,0,0-4-3.63c-2.735-.04-5.507-0.07-8.315-0.07v-2.56Zm10.907,21.78a1.438,1.438,0,0,0,1.476-1.48,1.457,1.457,0,0,0-1.512-1.54l-11.3.03a15.61,15.61,0,0,0,.216-2.3l6.911,0.03a1.335,1.335,0,0,0,1.4-1.4,1.357,1.357,0,0,0-1.4-1.4l-6.875.03c0.036-.68.072-1.44,0.072-2.16l7.307,0.04a1.46,1.46,0,1,0,0-2.92l-7.307.04c0-.51,0-0.97-0.036-1.44a1.663,1.663,0,0,0-1.836-1.44,1.506,1.506,0,0,0-1.692,1.4v0.07c0.036,0.47.036,0.94,0.036,1.41l-7.451-.04a1.485,1.485,0,0,0-1.548,1.51,1.406,1.406,0,0,0,1.548,1.41l7.487-.04c0,0.72-.036,1.44-0.036,2.16l-6.947-.03a1.407,1.407,0,0,0-1.476,1.44,1.348,1.348,0,0,0,1.476,1.36l6.911-.03a12.119,12.119,0,0,1-.216,2.3l-10.8-.03a1.508,1.508,0,0,0-1.547,1.54,1.425,1.425,0,0,0,1.511,1.48h0.036l9.791-.15c-1.548,2.78-4.787,4.79-10.619,5.62a1.512,1.512,0,0,0-1.367,1.55,1.694,1.694,0,0,0,1.763,1.73c0.036,0,9.395-.69,13.211-7.35,4.211,6.09,11.914,7.17,13.1,7.17a1.952,1.952,0,0,0,2.016-1.95,1.625,1.625,0,0,0-1.692-1.62c-5.147-.36-9.071-2.66-10.907-5.18l10.259,0.18h0.036Zm38.542-15.05a1.58,1.58,0,0,0,0-3.16l-10.4.07a14.85,14.85,0,0,0,1.224-3.28,1.664,1.664,0,0,0-1.764-1.55,1.521,1.521,0,0,0-1.476,1.05,29,29,0,0,1-4.607,8.56,1.819,1.819,0,0,0-.432,1.08,1.637,1.637,0,0,0,1.692,1.52c1.151,0,1.907-1.01,3.779-4.29H468.4Zm-5.508,16.02a2.209,2.209,0,0,0,1.692.4c2.232,0,3.528-1.16,3.852-4.54,0.108-1.33.252-3.06,0.252-4.5,0-1.22-.072-3.92-3.024-3.92a3.774,3.774,0,0,0-1.728.39l-1.044.51v-2.05a1.535,1.535,0,0,0-3.059,0v3.52l-2.448,1.16c0-.83.036-1.66,0.036-2.42v-0.03a1.409,1.409,0,0,0-1.512-1.41,1.453,1.453,0,0,0-1.548,1.48c0,1.26-.036,2.52-0.036,3.85l-2.159,1.08a1.328,1.328,0,0,0-.792,1.23,1.473,1.473,0,0,0,1.368,1.51,1.718,1.718,0,0,0,.683-0.18l0.864-.43c0,2.55,0,5.11.036,7.48,0.072,3.82,2.556,3.93,7.739,3.93,1.368,0,2.7-.04,3.528-0.11,3.528-.4,5.219-2.56,5.219-5.98a1.625,1.625,0,0,0-1.727-1.76,1.406,1.406,0,0,0-1.476,1.51c0,3.24-1.728,3.24-6.228,3.24-3.095,0-3.959-.07-3.959-1.62-0.036-2.09-.036-5.18-0.036-8.24,0.792-.4,1.62-0.83,2.448-1.26v8.06a1.55,1.55,0,0,0,3.059,0v-0.9Zm-12.058-15.3a1.55,1.55,0,0,0,1.548-1.62,1.444,1.444,0,0,0-1.512-1.55h-0.036l-3.348.08v-4.03a1.652,1.652,0,0,0-1.764-1.66,1.633,1.633,0,0,0-1.763,1.66l0.036,4.03-3.456-.08H440.5a1.585,1.585,0,0,0,0,3.17h0.036l2.52-.03c-0.36,7.09-1.188,15.15-5.112,20.05a1.448,1.448,0,0,0-.36.93,1.784,1.784,0,0,0,1.836,1.59c1.116,0,1.8-1.05,2.808-2.81v0.21c0,1.95,2.628,2.06,3.167,2.06,5.472,0,5.8-7.96,6.012-15.37v-0.22c0-2.99-1.908-3.2-4.068-3.2-0.432,0-.864,0-1.3.03,0.072-1.11.144-2.23,0.216-3.31l4.536,0.07h0.036Zm12.058,6.66c0.756-.36,1.368-0.65,1.836-0.86a0.838,0.838,0,0,1,.36-0.11c0.36,0,.54.11,0.54,1.91,0,4.93-.864,5.11-1.224,5.11a1.853,1.853,0,0,1-.576-0.11,1.324,1.324,0,0,0-.324-0.03,0.924,0.924,0,0,0-.612.21v-6.12Zm-15.622-.54a1.006,1.006,0,0,1,.972,1.15c-0.144,11.41-2.268,11.49-2.951,11.49a2.468,2.468,0,0,1-1.044-.26,1.636,1.636,0,0,0-.648-0.14,1.324,1.324,0,0,0-.792.25,39.959,39.959,0,0,0,2.987-12.49h1.476Z" transform="translate(-91 -4052)"/>
</svg>
